\relax 
\providecommand\hyper@newdestlabel[2]{}
\providecommand\HyperFirstAtBeginDocument{\AtBeginDocument}
\HyperFirstAtBeginDocument{\ifx\hyper@anchor\@undefined
\global\let\oldcontentsline\contentsline
\gdef\contentsline#1#2#3#4{\oldcontentsline{#1}{#2}{#3}}
\global\let\oldnewlabel\newlabel
\gdef\newlabel#1#2{\newlabelxx{#1}#2}
\gdef\newlabelxx#1#2#3#4#5#6{\oldnewlabel{#1}{{#2}{#3}}}
\AtEndDocument{\ifx\hyper@anchor\@undefined
\let\contentsline\oldcontentsline
\let\newlabel\oldnewlabel
\fi}
\fi}
\global\let\hyper@last\relax 
\gdef\HyperFirstAtBeginDocument#1{#1}
\providecommand\HyField@AuxAddToFields[1]{}
\providecommand\HyField@AuxAddToCoFields[2]{}
\providecommand \oddpage@label [2]{}
\@writefile{toc}{\beamer@endinputifotherversion {3.26pt}}
\@writefile{nav}{\beamer@endinputifotherversion {3.26pt}}
\@writefile{nav}{\headcommand {\slideentry {0}{0}{1}{1/1}{}{0}}}
\@writefile{nav}{\headcommand {\beamer@framepages {1}{1}}}
\@writefile{toc}{\beamer@sectionintoc {1}{Motivation and context}{2}{0}{1}}
\@writefile{nav}{\headcommand {\sectionentry {1}{Motivation and context}{2}{Motivation and context}{0}}}
\@writefile{nav}{\headcommand {\beamer@sectionpages {1}{1}}}
\@writefile{nav}{\headcommand {\beamer@subsectionpages {1}{1}}}
\@writefile{nav}{\headcommand {\slideentry {1}{0}{2}{2/2}{}{0}}}
\@writefile{nav}{\headcommand {\beamer@framepages {2}{2}}}
\@writefile{nav}{\headcommand {\slideentry {1}{0}{3}{3/3}{}{0}}}
\@writefile{nav}{\headcommand {\beamer@framepages {3}{3}}}
\@writefile{nav}{\headcommand {\slideentry {1}{0}{4}{4/4}{}{0}}}
\@writefile{nav}{\headcommand {\beamer@framepages {4}{4}}}
\@writefile{nav}{\headcommand {\slideentry {1}{0}{5}{5/5}{}{0}}}
\@writefile{nav}{\headcommand {\beamer@framepages {5}{5}}}
\@writefile{toc}{\beamer@sectionintoc {2}{Data}{6}{0}{2}}
\@writefile{nav}{\headcommand {\sectionentry {2}{Data}{6}{Data}{0}}}
\@writefile{nav}{\headcommand {\beamer@sectionpages {2}{5}}}
\@writefile{nav}{\headcommand {\beamer@subsectionpages {2}{5}}}
\newlabel{goback0<1>}{{6}{6}{Data}{Doc-Start}{}}
\@writefile{snm}{\beamer@slide {goback0<1>}{6}}
\newlabel{goback0}{{6}{6}{Data}{Doc-Start}{}}
\@writefile{snm}{\beamer@slide {goback0}{6}}
\@writefile{nav}{\headcommand {\slideentry {2}{0}{6}{6/6}{}{0}}}
\@writefile{nav}{\headcommand {\beamer@framepages {6}{6}}}
\newlabel{eq:original}{{1}{7}{Data}{Doc-Start}{}}
\@writefile{snm}{\beamer@slide {eq:original}{7}}
\@writefile{nav}{\headcommand {\slideentry {2}{0}{7}{7/7}{}{0}}}
\@writefile{nav}{\headcommand {\beamer@framepages {7}{7}}}
\@writefile{toc}{\beamer@sectionintoc {3}{Results}{8}{0}{3}}
\@writefile{nav}{\headcommand {\sectionentry {3}{Results}{8}{Results}{0}}}
\@writefile{nav}{\headcommand {\beamer@sectionpages {6}{7}}}
\@writefile{nav}{\headcommand {\beamer@subsectionpages {6}{7}}}
\newlabel{goback1<1>}{{8}{8}{Results}{Doc-Start}{}}
\@writefile{snm}{\beamer@slide {goback1<1>}{8}}
\newlabel{goback1}{{8}{8}{Results}{Doc-Start}{}}
\@writefile{snm}{\beamer@slide {goback1}{8}}
\newlabel{fig:eve_pos_price}{{1}{8}{Results}{Doc-Start}{}}
\@writefile{snm}{\beamer@slide {fig:eve_pos_price}{8}}
\@writefile{nav}{\headcommand {\slideentry {3}{0}{8}{8/8}{}{0}}}
\@writefile{nav}{\headcommand {\beamer@framepages {8}{8}}}
\newlabel{goback2<1>}{{9}{9}{Results}{Doc-Start}{}}
\@writefile{snm}{\beamer@slide {goback2<1>}{9}}
\newlabel{goback2}{{9}{9}{Results}{Doc-Start}{}}
\@writefile{snm}{\beamer@slide {goback2}{9}}
\newlabel{fig:eve_pos_price}{{2}{9}{Results}{Doc-Start}{}}
\@writefile{snm}{\beamer@slide {fig:eve_pos_price}{9}}
\@writefile{nav}{\headcommand {\slideentry {3}{0}{9}{9/9}{}{0}}}
\@writefile{nav}{\headcommand {\beamer@framepages {9}{9}}}
\newlabel{eq:original}{{1}{10}{Results}{Doc-Start}{}}
\@writefile{snm}{\beamer@slide {eq:original}{10}}
\@writefile{nav}{\headcommand {\slideentry {3}{0}{10}{10/10}{}{0}}}
\@writefile{nav}{\headcommand {\beamer@framepages {10}{10}}}
\newlabel{tab:Mkt1}{{1}{11}{Results}{Doc-Start}{}}
\@writefile{snm}{\beamer@slide {tab:Mkt1}{11}}
\@writefile{nav}{\headcommand {\slideentry {3}{0}{11}{11/11}{}{0}}}
\@writefile{nav}{\headcommand {\beamer@framepages {11}{11}}}
\newlabel{tab:Mkt1}{{2}{12}{Results}{Doc-Start}{}}
\@writefile{snm}{\beamer@slide {tab:Mkt1}{12}}
\@writefile{nav}{\headcommand {\slideentry {3}{0}{12}{12/12}{}{0}}}
\@writefile{nav}{\headcommand {\beamer@framepages {12}{12}}}
\@writefile{nav}{\headcommand {\slideentry {3}{0}{13}{13/13}{}{0}}}
\@writefile{nav}{\headcommand {\beamer@framepages {13}{13}}}
\@writefile{toc}{\beamer@sectionintoc {4}{Closing remarks}{14}{0}{4}}
\@writefile{nav}{\headcommand {\sectionentry {4}{Closing remarks}{14}{Closing remarks}{0}}}
\@writefile{nav}{\headcommand {\beamer@sectionpages {8}{13}}}
\@writefile{nav}{\headcommand {\beamer@subsectionpages {8}{13}}}
\@writefile{nav}{\headcommand {\slideentry {4}{0}{14}{14/14}{}{0}}}
\@writefile{nav}{\headcommand {\beamer@framepages {14}{14}}}
\@writefile{nav}{\headcommand {\slideentry {4}{0}{15}{15/15}{}{0}}}
\@writefile{nav}{\headcommand {\beamer@framepages {15}{15}}}
\bibstyle{apacite}
\bibdata{PharPrice}
\@writefile{nav}{\headcommand {\sectionentry {5}{}{16}{}{0}}}
\@writefile{nav}{\headcommand {\beamer@sectionpages {14}{15}}}
\@writefile{nav}{\headcommand {\beamer@subsectionpages {14}{15}}}
\@writefile{toc}{\contentsline {section}{}}
\@writefile{nav}{\headcommand {\slideentry {5}{0}{16}{16/16}{}{0}}}
\@writefile{nav}{\headcommand {\beamer@framepages {16}{16}}}
\@writefile{nav}{\headcommand {\partentry {\translate  {Appendix}}{1}}}
\@writefile{nav}{\headcommand {\beamer@partpages {1}{16}}}
\@writefile{nav}{\headcommand {\beamer@sectionpages {14}{16}}}
\@writefile{nav}{\headcommand {\beamer@subsectionpages {14}{16}}}
\@writefile{nav}{\headcommand {\beamer@appendixpages {17}}}
\newlabel{sumstat<1>}{{17}{17}{Closing remarks}{Doc-Start}{}}
\@writefile{snm}{\beamer@slide {sumstat<1>}{17}}
\newlabel{sumstat}{{17}{17}{Closing remarks}{Doc-Start}{}}
\@writefile{snm}{\beamer@slide {sumstat}{17}}
\newlabel{tab:diff_charac}{{3}{17}{Closing remarks}{Doc-Start}{}}
\@writefile{snm}{\beamer@slide {tab:diff_charac}{17}}
\@writefile{nav}{\headcommand {\slideentry {5}{0}{17}{17/17}{}{1}}}
\@writefile{nav}{\headcommand {\beamer@framepages {17}{17}}}
\newlabel{sumstat2<1>}{{18}{18}{Closing remarks}{Doc-Start}{}}
\@writefile{snm}{\beamer@slide {sumstat2<1>}{18}}
\newlabel{sumstat2}{{18}{18}{Closing remarks}{Doc-Start}{}}
\@writefile{snm}{\beamer@slide {sumstat2}{18}}
\newlabel{tab:descr}{{4}{18}{Closing remarks}{Doc-Start}{}}
\@writefile{snm}{\beamer@slide {tab:descr}{18}}
\@writefile{nav}{\headcommand {\slideentry {5}{0}{18}{18/18}{}{1}}}
\@writefile{nav}{\headcommand {\beamer@framepages {18}{18}}}
\newlabel{reg_p<1>}{{19}{19}{Closing remarks}{Doc-Start}{}}
\@writefile{snm}{\beamer@slide {reg_p<1>}{19}}
\newlabel{reg_p}{{19}{19}{Closing remarks}{Doc-Start}{}}
\@writefile{snm}{\beamer@slide {reg_p}{19}}
\newlabel{tab:POS}{{5}{19}{Closing remarks}{Doc-Start}{}}
\@writefile{snm}{\beamer@slide {tab:POS}{19}}
\@writefile{nav}{\headcommand {\slideentry {5}{0}{19}{19/19}{}{1}}}
\@writefile{nav}{\headcommand {\beamer@framepages {19}{19}}}
\newlabel{reg_q<1>}{{20}{20}{Closing remarks}{Doc-Start}{}}
\@writefile{snm}{\beamer@slide {reg_q<1>}{20}}
\newlabel{reg_q}{{20}{20}{Closing remarks}{Doc-Start}{}}
\@writefile{snm}{\beamer@slide {reg_q}{20}}
\newlabel{tab:POS2}{{6}{20}{Closing remarks}{Doc-Start}{}}
\@writefile{snm}{\beamer@slide {tab:POS2}{20}}
\@writefile{nav}{\headcommand {\slideentry {5}{0}{20}{20/20}{}{1}}}
\@writefile{nav}{\headcommand {\beamer@framepages {20}{20}}}
\newlabel{fig2011<1>}{{21}{21}{Closing remarks}{Doc-Start}{}}
\@writefile{snm}{\beamer@slide {fig2011<1>}{21}}
\newlabel{fig2011}{{21}{21}{Closing remarks}{Doc-Start}{}}
\@writefile{snm}{\beamer@slide {fig2011}{21}}
\newlabel{fig:eve_pos_price}{{3}{21}{Closing remarks}{Doc-Start}{}}
\@writefile{snm}{\beamer@slide {fig:eve_pos_price}{21}}
\@writefile{nav}{\headcommand {\slideentry {5}{0}{21}{21/21}{}{1}}}
\@writefile{nav}{\headcommand {\beamer@framepages {21}{21}}}
\newlabel{fig2012<1>}{{22}{22}{Closing remarks}{Doc-Start}{}}
\@writefile{snm}{\beamer@slide {fig2012<1>}{22}}
\newlabel{fig2012}{{22}{22}{Closing remarks}{Doc-Start}{}}
\@writefile{snm}{\beamer@slide {fig2012}{22}}
\newlabel{fig:eve_pos_price}{{4}{22}{Closing remarks}{Doc-Start}{}}
\@writefile{snm}{\beamer@slide {fig:eve_pos_price}{22}}
\@writefile{nav}{\headcommand {\slideentry {5}{0}{22}{22/22}{}{1}}}
\@writefile{nav}{\headcommand {\beamer@framepages {22}{22}}}
\newlabel{fig2011_q<1>}{{23}{23}{Closing remarks}{Doc-Start}{}}
\@writefile{snm}{\beamer@slide {fig2011_q<1>}{23}}
\newlabel{fig2011_q}{{23}{23}{Closing remarks}{Doc-Start}{}}
\@writefile{snm}{\beamer@slide {fig2011_q}{23}}
\newlabel{fig:eve_pos_price}{{5}{23}{Closing remarks}{Doc-Start}{}}
\@writefile{snm}{\beamer@slide {fig:eve_pos_price}{23}}
\@writefile{nav}{\headcommand {\slideentry {5}{0}{23}{23/23}{}{1}}}
\@writefile{nav}{\headcommand {\beamer@framepages {23}{23}}}
\newlabel{fig2012_q<1>}{{24}{24}{Closing remarks}{Doc-Start}{}}
\@writefile{snm}{\beamer@slide {fig2012_q<1>}{24}}
\newlabel{fig2012_q}{{24}{24}{Closing remarks}{Doc-Start}{}}
\@writefile{snm}{\beamer@slide {fig2012_q}{24}}
\newlabel{fig:eve_pos_price}{{6}{24}{Closing remarks}{Doc-Start}{}}
\@writefile{snm}{\beamer@slide {fig:eve_pos_price}{24}}
\@writefile{nav}{\headcommand {\slideentry {5}{0}{24}{24/24}{}{1}}}
\@writefile{nav}{\headcommand {\beamer@framepages {24}{24}}}
\newlabel{fig:eve_pos_price}{{7}{25}{Closing remarks}{Doc-Start}{}}
\@writefile{snm}{\beamer@slide {fig:eve_pos_price}{25}}
\@writefile{nav}{\headcommand {\slideentry {5}{0}{25}{25/25}{}{1}}}
\@writefile{nav}{\headcommand {\beamer@framepages {25}{25}}}
\newlabel{tab:POS}{{7}{26}{Closing remarks}{Doc-Start}{}}
\@writefile{snm}{\beamer@slide {tab:POS}{26}}
\@writefile{nav}{\headcommand {\slideentry {5}{0}{26}{26/26}{}{1}}}
\@writefile{nav}{\headcommand {\beamer@framepages {26}{26}}}
\newlabel{tab:POS2}{{8}{27}{Closing remarks}{Doc-Start}{}}
\@writefile{snm}{\beamer@slide {tab:POS2}{27}}
\@writefile{nav}{\headcommand {\slideentry {5}{0}{27}{27/27}{}{1}}}
\@writefile{nav}{\headcommand {\beamer@framepages {27}{27}}}
\@writefile{nav}{\headcommand {\beamer@partpages {17}{27}}}
\@writefile{nav}{\headcommand {\beamer@subsectionpages {17}{27}}}
\@writefile{nav}{\headcommand {\beamer@sectionpages {17}{27}}}
\@writefile{nav}{\headcommand {\beamer@documentpages {27}}}
\@writefile{nav}{\headcommand {\def \inserttotalframenumber {27}}}
