\relax 
\providecommand\hyper@newdestlabel[2]{}
\providecommand\HyperFirstAtBeginDocument{\AtBeginDocument}
\HyperFirstAtBeginDocument{\ifx\hyper@anchor\@undefined
\global\let\oldcontentsline\contentsline
\gdef\contentsline#1#2#3#4{\oldcontentsline{#1}{#2}{#3}}
\global\let\oldnewlabel\newlabel
\gdef\newlabel#1#2{\newlabelxx{#1}#2}
\gdef\newlabelxx#1#2#3#4#5#6{\oldnewlabel{#1}{{#2}{#3}}}
\AtEndDocument{\ifx\hyper@anchor\@undefined
\let\contentsline\oldcontentsline
\let\newlabel\oldnewlabel
\fi}
\fi}
\global\let\hyper@last\relax 
\gdef\HyperFirstAtBeginDocument#1{#1}
\providecommand\HyField@AuxAddToFields[1]{}
\providecommand\HyField@AuxAddToCoFields[2]{}
\citation{Brekke2012}
\citation{Arrow1963}
\citation{Cutler2002}
\citation{Brekke2011}
\citation{Machado2012}
\bibstyle{apacite}
\bibdata{PharPrice}
\bibcite{Arrow1963}{\citeauthoryear {Arrow}{Arrow}{{\APACyear {1963}}}}
\APACbibcite{Arrow1963}{\citeauthoryear {Arrow}{Arrow}{{\APACyear {1963}}}}
\select@language{english}
\@writefile{toc}{\select@language{english}}
\@writefile{lof}{\select@language{english}}
\@writefile{lot}{\select@language{english}}
\@writefile{toc}{\contentsline {section}{\numberline {1}Abstract}{1}{section.1}}
\@writefile{toc}{\contentsline {section}{\numberline {2}Data}{1}{section.2}}
\bibcite{Brekke2012}{\citeauthoryear {Brekke, Dalen,{}\ \BBA{} Str\IeC {\o }m}{Brekke\ \BOthers {.}}{{\APACyear {2012}}}}
\APACbibcite{Brekke2012}{\citeauthoryear {Brekke, Dalen,{}\ \BBA{} Str\IeC {\o }m}{Brekke\ \BOthers {.}}{{\APACyear {2012}}}}
\bibcite{Brekke2011}{\citeauthoryear {Brekke, Holmas,{}\ \BBA{} Straume}{Brekke\ \BOthers {.}}{{\APACyear {2011}}}}
\APACbibcite{Brekke2011}{\citeauthoryear {Brekke, Holmas,{}\ \BBA{} Straume}{Brekke\ \BOthers {.}}{{\APACyear {2011}}}}
\bibcite{Cutler2002}{\citeauthoryear {Cutler}{Cutler}{{\APACyear {2002}}}}
\APACbibcite{Cutler2002}{\citeauthoryear {Cutler}{Cutler}{{\APACyear {2002}}}}
\bibcite{Machado2012}{\citeauthoryear {Machado\ \BBA{} Moncada}{Machado\ \BBA{} Moncada}{{\APACyear {2012}}}}
\APACbibcite{Machado2012}{\citeauthoryear {Machado\ \BBA{} Moncada}{Machado\ \BBA{} Moncada}{{\APACyear {2012}}}}
\@writefile{toc}{\contentsline {section}{References}{2}{section*.1}}
