\relax 
\providecommand\hyper@newdestlabel[2]{}
\providecommand\HyperFirstAtBeginDocument{\AtBeginDocument}
\HyperFirstAtBeginDocument{\ifx\hyper@anchor\@undefined
\global\let\oldcontentsline\contentsline
\gdef\contentsline#1#2#3#4{\oldcontentsline{#1}{#2}{#3}}
\global\let\oldnewlabel\newlabel
\gdef\newlabel#1#2{\newlabelxx{#1}#2}
\gdef\newlabelxx#1#2#3#4#5#6{\oldnewlabel{#1}{{#2}{#3}}}
\AtEndDocument{\ifx\hyper@anchor\@undefined
\let\contentsline\oldcontentsline
\let\newlabel\oldnewlabel
\fi}
\fi}
\global\let\hyper@last\relax 
\gdef\HyperFirstAtBeginDocument#1{#1}
\providecommand\HyField@AuxAddToFields[1]{}
\providecommand\HyField@AuxAddToCoFields[2]{}
\citation{Roberts2011}
\citation{MSH2012}
\citation{MSH2012}
\citation{Arrow1963}
\select@language{english}
\@writefile{toc}{\select@language{english}}
\@writefile{lof}{\select@language{english}}
\@writefile{lot}{\select@language{english}}
\@writefile{toc}{\contentsline {section}{\numberline {1}Extended abstract}{1}{section.1}}
\citation{Busse2007}
\citation{WorldBank2013}
\citation{Giedion2014}
\citation{Duggan2006}
\citation{Giedion2009}
\citation{Brown2014}
\citation{Leu2009}
\citation{Duggan2010}
\citation{Duggan2010}
\citation{Duggan2006}
\citation{Clemens2013}
\citation{Brekke2011}
\citation{Clemens2014}
\citation{Iizuka2012}
\citation{Gruber1996}
\citation{Webster2012}
\citation{NYT2015}
\bibstyle{apacite}
\bibdata{PharPrice}
\bibcite{Arrow1963}{\citeauthoryear {Arrow}{Arrow}{{\APACyear {1963}}}}
\APACbibcite{Arrow1963}{\citeauthoryear {Arrow}{Arrow}{{\APACyear {1963}}}}
\bibcite{Brekke2011}{\citeauthoryear {Brekke, Holmas,{}\ \BBA{} Straume}{Brekke\ \BOthers {.}}{{\APACyear {2011}}}}
\APACbibcite{Brekke2011}{\citeauthoryear {Brekke, Holmas,{}\ \BBA{} Straume}{Brekke\ \BOthers {.}}{{\APACyear {2011}}}}
\bibcite{Brown2014}{\citeauthoryear {Brown, Duggan, Kuziemko,{}\ \BBA{} Woolston}{Brown\ \BOthers {.}}{{\APACyear {2014}}}}
\APACbibcite{Brown2014}{\citeauthoryear {Brown, Duggan, Kuziemko,{}\ \BBA{} Woolston}{Brown\ \BOthers {.}}{{\APACyear {2014}}}}
\bibcite{Busse2007}{\citeauthoryear {Busse, Schrey{\"o}gg,{}\ \BBA{} Gericke}{Busse\ \BOthers {.}}{{\APACyear {2007}}}}
\APACbibcite{Busse2007}{\citeauthoryear {Busse, Schrey{\"o}gg,{}\ \BBA{} Gericke}{Busse\ \BOthers {.}}{{\APACyear {2007}}}}
\bibcite{Clemens2013}{\citeauthoryear {Clemens\ \BBA{} Gottlieb}{Clemens\ \BBA{} Gottlieb}{{\APACyear {2013}}}}
\APACbibcite{Clemens2013}{\citeauthoryear {Clemens\ \BBA{} Gottlieb}{Clemens\ \BBA{} Gottlieb}{{\APACyear {2013}}}}
\bibcite{Clemens2014}{\citeauthoryear {Clemens\ \BBA{} Gottlieb}{Clemens\ \BBA{} Gottlieb}{{\APACyear {2014}}}}
\APACbibcite{Clemens2014}{\citeauthoryear {Clemens\ \BBA{} Gottlieb}{Clemens\ \BBA{} Gottlieb}{{\APACyear {2014}}}}
\@writefile{toc}{\contentsline {section}{References}{6}{section*.1}}
\bibcite{Duggan2010}{\citeauthoryear {Duggan\ \BBA{} Scott~Morton}{Duggan\ \BBA{} Scott~Morton}{{\APACyear {2010}}}}
\APACbibcite{Duggan2010}{\citeauthoryear {Duggan\ \BBA{} Scott~Morton}{Duggan\ \BBA{} Scott~Morton}{{\APACyear {2010}}}}
\bibcite{Duggan2006}{\citeauthoryear {Duggan\ \BBA{} Scott~Morton}{Duggan\ \BBA{} Scott~Morton}{{\APACyear {2006}}}}
\APACbibcite{Duggan2006}{\citeauthoryear {Duggan\ \BBA{} Scott~Morton}{Duggan\ \BBA{} Scott~Morton}{{\APACyear {2006}}}}
\bibcite{Giedion2014}{\citeauthoryear {Giedion\ \BOthers {.}}{Giedion\ \BOthers {.}}{{\APACyear {2014}}}}
\APACbibcite{Giedion2014}{\citeauthoryear {Giedion\ \BOthers {.}}{Giedion\ \BOthers {.}}{{\APACyear {2014}}}}
\bibcite{Giedion2009}{\citeauthoryear {Giedion\ \BBA{} Uribe}{Giedion\ \BBA{} Uribe}{{\APACyear {2009}}}}
\APACbibcite{Giedion2009}{\citeauthoryear {Giedion\ \BBA{} Uribe}{Giedion\ \BBA{} Uribe}{{\APACyear {2009}}}}
\bibcite{Gruber1996}{\citeauthoryear {Gruber\ \BBA{} Owings}{Gruber\ \BBA{} Owings}{{\APACyear {1996}}}}
\APACbibcite{Gruber1996}{\citeauthoryear {Gruber\ \BBA{} Owings}{Gruber\ \BBA{} Owings}{{\APACyear {1996}}}}
\bibcite{Iizuka2012}{\citeauthoryear {Iizuka}{Iizuka}{{\APACyear {2012}}}}
\APACbibcite{Iizuka2012}{\citeauthoryear {Iizuka}{Iizuka}{{\APACyear {2012}}}}
\bibcite{Leu2009}{\citeauthoryear {Leu, Rutten, Brouwer, Matter,{}\ \BBA{} Rutschi}{Leu\ \BOthers {.}}{{\APACyear {2009}}}}
\APACbibcite{Leu2009}{\citeauthoryear {Leu, Rutten, Brouwer, Matter,{}\ \BBA{} Rutschi}{Leu\ \BOthers {.}}{{\APACyear {2009}}}}
\bibcite{MSH2012}{\citeauthoryear {{Management Sciences for Health}}{{Management Sciences for Health}}{{\APACyear {2012}}}}
\APACbibcite{MSH2012}{\citeauthoryear {{Management Sciences for Health}}{{Management Sciences for Health}}{{\APACyear {2012}}}}
\bibcite{Roberts2011}{\citeauthoryear {Roberts\ \BBA{} Reich}{Roberts\ \BBA{} Reich}{{\APACyear {2011}}}}
\APACbibcite{Roberts2011}{\citeauthoryear {Roberts\ \BBA{} Reich}{Roberts\ \BBA{} Reich}{{\APACyear {2011}}}}
\bibcite{NYT2015}{\citeauthoryear {{The New York Times}}{{The New York Times}}{{\APACyear {2015}}}}
\APACbibcite{NYT2015}{\citeauthoryear {{The New York Times}}{{The New York Times}}{{\APACyear {2015}}}}
\bibcite{Webster2012}{\citeauthoryear {Webster}{Webster}{{\APACyear {2012}}}}
\APACbibcite{Webster2012}{\citeauthoryear {Webster}{Webster}{{\APACyear {2012}}}}
\bibcite{WorldBank2013}{\citeauthoryear {{World Bank}}{{World Bank}}{{\APACyear {2013}}}}
\APACbibcite{WorldBank2013}{\citeauthoryear {{World Bank}}{{World Bank}}{{\APACyear {2013}}}}
