\relax 
\providecommand\hyper@newdestlabel[2]{}
\providecommand\HyperFirstAtBeginDocument{\AtBeginDocument}
\HyperFirstAtBeginDocument{\ifx\hyper@anchor\@undefined
\global\let\oldcontentsline\contentsline
\gdef\contentsline#1#2#3#4{\oldcontentsline{#1}{#2}{#3}}
\global\let\oldnewlabel\newlabel
\gdef\newlabel#1#2{\newlabelxx{#1}#2}
\gdef\newlabelxx#1#2#3#4#5#6{\oldnewlabel{#1}{{#2}{#3}}}
\AtEndDocument{\ifx\hyper@anchor\@undefined
\let\contentsline\oldcontentsline
\let\newlabel\oldnewlabel
\fi}
\fi}
\global\let\hyper@last\relax 
\gdef\HyperFirstAtBeginDocument#1{#1}
\providecommand\HyField@AuxAddToFields[1]{}
\providecommand\HyField@AuxAddToCoFields[2]{}
\citation{Roberts2011}
\citation{MSH2012}
\citation{MSH2012}
\citation{Arrow1963}
\select@language{english}
\@writefile{toc}{\select@language{english}}
\@writefile{lof}{\select@language{english}}
\@writefile{lot}{\select@language{english}}
\@writefile{toc}{\contentsline {section}{\numberline {1}Introduction}{1}{section.1}}
\citation{Busse2007}
\citation{WorldBank2013}
\citation{Giedion2014}
\citation{Duggan2006}
\citation{Giedion2009}
\citation{Brown2014}
\citation{Leu2009}
\citation{Duggan2010}
\citation{Duggan2010}
\citation{Duggan2006}
\citation{Clemens2013}
\citation{Brekke2011}
\citation{Clemens2014}
\citation{Iizuka2012}
\citation{Gruber1996}
\citation{Webster2012}
\citation{NYT2015}
\citation{UnitedStatesCode2006}
\@writefile{toc}{\contentsline {section}{\numberline {2}Background, institutions and incentives}{6}{section.2}}
\@writefile{toc}{\contentsline {subsection}{\numberline {2.1}Terminology}{6}{subsection.2.1}}
\citation{Gaviria2013}
\@writefile{toc}{\contentsline {subsection}{\numberline {2.2}Background}{7}{subsection.2.2}}
\citation{Giedion2009}
\citation{CONSEJONACIONALDESEGURIDADSOCIALENSALUD2007a}
\citation{CONSEJONACIONALDESEGURIDADSOCIALENSALUD2007}
\citation{COMISINDEREGULACINENSALUD2009}
\citation{COMISINDEREGULACINENSALUD2009a}
\citation{COMISINDEREGULACINENSALUD2011}
\citation{COMISINDEREGULACINENSALUD2011a}
\citation{COMISINDEREGULACINENSALUD2011b}
\citation{COMISINDEREGULACINENSALUD2012}
\citation{MINISTERIODESALUDYPROTECCINSOCIAL2013}
\citation{Castano2006}
\citation{GomezSuarez2007}
\citation{Brown2014}
\citation{Shepard2015}
\@writefile{lof}{\contentsline {figure}{\numberline {1}{\ignorespaces Number of drugs introduced into the POS by year. \textit  {Source:} SISMED and INVIMA. \textit  {Calculations:} Author.\relax }}{8}{figure.caption.1}}
\providecommand*\caption@xref[2]{\@setref\relax\@undefined{#1}}
\newlabel{fig:add_pos}{{1}{8}{Number of drugs introduced into the POS by year. \textit {Source:} SISMED and INVIMA. \textit {Calculations:} Author.\relax }{figure.caption.1}{}}
\citation{Arrow1963}
\citation{Semana2014}
\citation{Clemens2014}
\citation{Iizuka2012}
\citation{Iizuka2007}
\citation{Gruber1996}
\@writefile{toc}{\contentsline {subsection}{\numberline {2.3}Incentives}{9}{subsection.2.3}}
\@writefile{toc}{\contentsline {section}{\numberline {3}Theory}{10}{section.3}}
\newlabel{sec:theory}{{3}{10}{Theory}{section.3}{}}
\@writefile{toc}{\contentsline {subsection}{\numberline {3.1}Basic model}{10}{subsection.3.1}}
\newlabel{eq:price}{{10}{11}{Basic model}{equation.3.10}{}}
\citation{Milgrom1990}
\@writefile{toc}{\contentsline {subsection}{\numberline {3.2}Comparative statics}{12}{subsection.3.2}}
\citation{Vacca2011}
\citation{Departamento2012}
\citation{Zapata2012}
\citation{Vacca2011}
\citation{Departamento2012}
\@writefile{toc}{\contentsline {section}{\numberline {4}Data}{13}{section.4}}
\newlabel{sec:dat}{{4}{13}{Data}{section.4}{}}
\@writefile{toc}{\contentsline {subsection}{\numberline {4.1}Summary statistics}{14}{subsection.4.1}}
\@writefile{lot}{\contentsline {table}{\numberline {1}{\ignorespaces Summary statistics for drugs with some observations and a maximum/minimum price ratio under 30\relax }}{15}{table.caption.2}}
\newlabel{tab:descr2}{{1}{15}{Summary statistics for drugs with some observations and a maximum/minimum price ratio under 30\relax }{table.caption.2}{}}
\@writefile{toc}{\contentsline {section}{\numberline {5}Empirical analysis}{15}{section.5}}
\newlabel{sec:emp}{{5}{15}{Empirical analysis}{section.5}{}}
\@writefile{toc}{\contentsline {subsection}{\numberline {5.1}Timing of inclusion in the benefit plan}{15}{subsection.5.1}}
\newlabel{sec:timing}{{5.1}{15}{Timing of inclusion in the benefit plan}{subsection.5.1}{}}
\newlabel{fig:timing1}{{2a}{17}{Generic\relax }{figure.caption.3}{}}
\newlabel{sub@fig:timing1}{{a}{17}{Generic\relax }{figure.caption.3}{}}
\newlabel{fig:timing3}{{2b}{17}{Price regulation\relax }{figure.caption.3}{}}
\newlabel{sub@fig:timing3}{{b}{17}{Price regulation\relax }{figure.caption.3}{}}
\newlabel{fig:timing2}{{2c}{17}{Competitors\relax }{figure.caption.3}{}}
\newlabel{sub@fig:timing2}{{c}{17}{Competitors\relax }{figure.caption.3}{}}
\@writefile{lof}{\contentsline {figure}{\numberline {2}{\ignorespaces These graphs show the coefficients from leads and lags of the year of inclusion to the benefit plan from regressions that control for drug fixed effects, ATC-specific time trends and use a balance panel of drugs without outliers. The dots represent point estimates, while the bars represent 95\% confidence intervals. Panel \ref  {fig:timing1} shows how the presence of generics in the market with the same ATC code changes before and after a drug is listed in the benefit plan. Panel \ref  {fig:timing3} shows how price regulations changes before and after a drug is listed in the benefit plan. Panel \ref  {fig:timing2} shows how the concentration of the market (measured by the HH-Index) for drugs with the same ATC code changes before and after a drug is listed in the benefit plan. Data: SISMED and INVIMA. Calculations: Author.\relax }}{17}{figure.caption.3}}
\@writefile{lot}{\contentsline {table}{\numberline {2}{\ignorespaces Timing and other regulatory changes\relax }}{19}{table.caption.4}}
\newlabel{tab:timing}{{2}{19}{Timing and other regulatory changes\relax }{table.caption.4}{}}
\@writefile{toc}{\contentsline {subsection}{\numberline {5.2}Net effect on prices and drug sales}{19}{subsection.5.2}}
\newlabel{eq:original}{{25}{19}{Net effect on prices and drug sales}{equation.5.25}{}}
\@writefile{lot}{\contentsline {table}{\numberline {3}{\ignorespaces Effect on a drug's price of including the drug to the benefit plan \relax }}{20}{table.caption.5}}
\newlabel{tab:POS}{{3}{20}{Effect on a drug's price of including the drug to the benefit plan \relax }{table.caption.5}{}}
\@writefile{lot}{\contentsline {table}{\numberline {4}{\ignorespaces Effect of including a drug in the health plan on the quantities sold \relax }}{21}{table.caption.6}}
\newlabel{tab:POS2}{{4}{21}{Effect of including a drug in the health plan on the quantities sold \relax }{table.caption.6}{}}
\@writefile{lot}{\contentsline {table}{\numberline {5}{\ignorespaces Effect of including a drug in the health plan on the quantities sold \relax }}{22}{table.caption.7}}
\newlabel{tab:POS3}{{5}{22}{Effect of including a drug in the health plan on the quantities sold \relax }{table.caption.7}{}}
\@writefile{toc}{\contentsline {subsection}{\numberline {5.3}Event studies}{22}{subsection.5.3}}
\newlabel{sec:event}{{5.3}{22}{Event studies}{subsection.5.3}{}}
\newlabel{fig:eve_pos_price}{{3a}{24}{Price\relax }{figure.caption.8}{}}
\newlabel{sub@fig:eve_pos_price}{{a}{24}{Price\relax }{figure.caption.8}{}}
\newlabel{fig:eve_pos_quantity}{{3b}{24}{Quantity\relax }{figure.caption.8}{}}
\newlabel{sub@fig:eve_pos_quantity}{{b}{24}{Quantity\relax }{figure.caption.8}{}}
\newlabel{fig:eve_pos_HH_POS}{{3c}{24}{Quantity\relax }{figure.caption.8}{}}
\newlabel{sub@fig:eve_pos_HH_POS}{{c}{24}{Quantity\relax }{figure.caption.8}{}}
\@writefile{lof}{\contentsline {figure}{\numberline {3}{\ignorespaces These graphs show the coefficients from leads and lags of the year of inclusion to the benefit plan from regressions that control for drug fixed effects, ATC-specific time trends and use a balance panel of drugs without outliers. The dots represent point estimates, while the bars represent 95\% confidence intervals. Panel \ref  {fig:eve_pos_price} shows the effect of including a drug in the benefit plan (POS) on its price. Panel \ref  {fig:eve_pos_quantity} shows the effect of including a drug in the benefit plan (POS) on the quantities sold. Panel \ref  {fig:eve_pos_HH_POS} shows the effect of including a drug in the benefit plan (POS) on the concentration (measured by the HH-Index) among listed drugs with the same ATC code. Source: SISMED and INVIMA. Calculations: Author.\relax }}{24}{figure.caption.8}}
\@writefile{toc}{\contentsline {subsection}{\numberline {5.4}Other robustness checks}{24}{subsection.5.4}}
\@writefile{lot}{\contentsline {table}{\numberline {6}{\ignorespaces Effect of including a drug in the health plan for locally produced vs. imported drugs \relax }}{26}{table.caption.9}}
\newlabel{tab:POS_ROB2}{{6}{26}{Effect of including a drug in the health plan for locally produced vs. imported drugs \relax }{table.caption.9}{}}
\@writefile{lot}{\contentsline {table}{\numberline {7}{\ignorespaces Effect of including a drug in the health plan by age\relax }}{27}{table.caption.10}}
\newlabel{tab:POS_ROB3}{{7}{27}{Effect of including a drug in the health plan by age\relax }{table.caption.10}{}}
\@writefile{lot}{\contentsline {table}{\numberline {8}{\ignorespaces Effect of including a drug in the health plan by competition in the market\relax }}{29}{table.caption.11}}
\newlabel{tab:POS_ROB4}{{8}{29}{Effect of including a drug in the health plan by competition in the market\relax }{table.caption.11}{}}
\@writefile{lot}{\contentsline {table}{\numberline {9}{\ignorespaces Effect of including a drug in the health plan by \relax }}{31}{table.caption.12}}
\newlabel{tab:POS_ROB5}{{9}{31}{Effect of including a drug in the health plan by \relax }{table.caption.12}{}}
\@writefile{lot}{\contentsline {table}{\numberline {10}{\ignorespaces Effect of including a drug in the health plan by generic competition\relax }}{33}{table.caption.13}}
\newlabel{tab:POS_ROB6}{{10}{33}{Effect of including a drug in the health plan by generic competition\relax }{table.caption.13}{}}
\@writefile{toc}{\contentsline {subsection}{\numberline {5.5}Effect on therapeutic substitutes}{34}{subsection.5.5}}
\@writefile{lot}{\contentsline {table}{\numberline {11}{\ignorespaces Effect of including a drug in the benefit plan on the price of therapeutic substitutes that are already in the plan\relax }}{35}{table.caption.14}}
\newlabel{tab:competitors_POS}{{11}{35}{Effect of including a drug in the benefit plan on the price of therapeutic substitutes that are already in the plan\relax }{table.caption.14}{}}
\@writefile{lot}{\contentsline {table}{\numberline {12}{\ignorespaces Effect of including a drug in the benefit plan on the price of therapeutic substitutes that are not in the plan\relax }}{36}{table.caption.15}}
\newlabel{tab:competitors_NOPOS}{{12}{36}{Effect of including a drug in the benefit plan on the price of therapeutic substitutes that are not in the plan\relax }{table.caption.15}{}}
\@writefile{toc}{\contentsline {section}{\numberline {6}Effect on morbity and physician behavior}{36}{section.6}}
\newlabel{sec:mortality}{{6}{36}{Effect on morbity and physician behavior}{section.6}{}}
\citation{TTD2016}
\citation{MEDI2013}
\citation{Roberts2011}
\citation{Busse2007}
\citation{WorldBank2013}
\citation{Giedion2014}
\citation{Duggan2006}
\@writefile{toc}{\contentsline {section}{\numberline {7}Conclusions}{37}{section.7}}
\newlabel{sec:conc}{{7}{37}{Conclusions}{section.7}{}}
\citation{Duggan2006}
\citation{Duggan2010}
\citation{Brekke2011}
\citation{Clemens2013}
\citation{Webster2012}
\citation{NYT2015}
\citation{NYT2015a}
\citation{NYT2015b}
\citation{NYT2015c}
\citation{NYT2015}
\bibstyle{apacite}
\bibdata{PharPrice}
\bibcite{Arrow1963}{\citeauthoryear {Arrow}{Arrow}{{\APACyear {1963}}}}
\APACbibcite{Arrow1963}{\citeauthoryear {Arrow}{Arrow}{{\APACyear {1963}}}}
\bibcite{Brekke2011}{\citeauthoryear {Brekke, Holmas,{}\ \BBA{} Straume}{Brekke\ \BOthers {.}}{{\APACyear {2011}}}}
\APACbibcite{Brekke2011}{\citeauthoryear {Brekke, Holmas,{}\ \BBA{} Straume}{Brekke\ \BOthers {.}}{{\APACyear {2011}}}}
\bibcite{Brown2014}{\citeauthoryear {Brown, Duggan, Kuziemko,{}\ \BBA{} Woolston}{Brown\ \BOthers {.}}{{\APACyear {2014}}}}
\APACbibcite{Brown2014}{\citeauthoryear {Brown, Duggan, Kuziemko,{}\ \BBA{} Woolston}{Brown\ \BOthers {.}}{{\APACyear {2014}}}}
\bibcite{Busse2007}{\citeauthoryear {Busse, Schrey{\"o}gg,{}\ \BBA{} Gericke}{Busse\ \BOthers {.}}{{\APACyear {2007}}}}
\APACbibcite{Busse2007}{\citeauthoryear {Busse, Schrey{\"o}gg,{}\ \BBA{} Gericke}{Busse\ \BOthers {.}}{{\APACyear {2007}}}}
\bibcite{Castano2006}{\citeauthoryear {Castano\ \BBA{} Zambrano}{Castano\ \BBA{} Zambrano}{{\APACyear {2006}}}}
\APACbibcite{Castano2006}{\citeauthoryear {Castano\ \BBA{} Zambrano}{Castano\ \BBA{} Zambrano}{{\APACyear {2006}}}}
\bibcite{Clemens2013}{\citeauthoryear {Clemens\ \BBA{} Gottlieb}{Clemens\ \BBA{} Gottlieb}{{\APACyear {2013}}}}
\APACbibcite{Clemens2013}{\citeauthoryear {Clemens\ \BBA{} Gottlieb}{Clemens\ \BBA{} Gottlieb}{{\APACyear {2013}}}}
\bibcite{Clemens2014}{\citeauthoryear {Clemens\ \BBA{} Gottlieb}{Clemens\ \BBA{} Gottlieb}{{\APACyear {2014}}}}
\APACbibcite{Clemens2014}{\citeauthoryear {Clemens\ \BBA{} Gottlieb}{Clemens\ \BBA{} Gottlieb}{{\APACyear {2014}}}}
\bibcite{COMISINDEREGULACINENSALUD2009}{\citeauthoryear {{Comision de Regulacion en Salud}}{{Comision de Regulacion en Salud}}{{\APACyear {2009}}{\APACexlab {{\BCnt {1}}}}}}
\APACbibcite{COMISINDEREGULACINENSALUD2009}{\citeauthoryear {{Comision de Regulacion en Salud}}{{Comision de Regulacion en Salud}}{{\APACyear {2009}}{\APACexlab {{\BCnt {1}}}}}}
\bibcite{COMISINDEREGULACINENSALUD2009a}{\citeauthoryear {{Comision de Regulacion en Salud}}{{Comision de Regulacion en Salud}}{{\APACyear {2009}}{\APACexlab {{\BCnt {2}}}}}}
\APACbibcite{COMISINDEREGULACINENSALUD2009a}{\citeauthoryear {{Comision de Regulacion en Salud}}{{Comision de Regulacion en Salud}}{{\APACyear {2009}}{\APACexlab {{\BCnt {2}}}}}}
\@writefile{toc}{\contentsline {section}{References}{39}{section*.16}}
\bibcite{COMISINDEREGULACINENSALUD2011}{\citeauthoryear {{Comision de Regulacion en Salud}}{{Comision de Regulacion en Salud}}{{\APACyear {2011}}{\APACexlab {{\BCnt {1}}}}}}
\APACbibcite{COMISINDEREGULACINENSALUD2011}{\citeauthoryear {{Comision de Regulacion en Salud}}{{Comision de Regulacion en Salud}}{{\APACyear {2011}}{\APACexlab {{\BCnt {1}}}}}}
\bibcite{COMISINDEREGULACINENSALUD2011a}{\citeauthoryear {{Comision de Regulacion en Salud}}{{Comision de Regulacion en Salud}}{{\APACyear {2011}}{\APACexlab {{\BCnt {2}}}}}}
\APACbibcite{COMISINDEREGULACINENSALUD2011a}{\citeauthoryear {{Comision de Regulacion en Salud}}{{Comision de Regulacion en Salud}}{{\APACyear {2011}}{\APACexlab {{\BCnt {2}}}}}}
\bibcite{COMISINDEREGULACINENSALUD2011b}{\citeauthoryear {{Comision de Regulacion en Salud}}{{Comision de Regulacion en Salud}}{{\APACyear {2011}}{\APACexlab {{\BCnt {3}}}}}}
\APACbibcite{COMISINDEREGULACINENSALUD2011b}{\citeauthoryear {{Comision de Regulacion en Salud}}{{Comision de Regulacion en Salud}}{{\APACyear {2011}}{\APACexlab {{\BCnt {3}}}}}}
\bibcite{COMISINDEREGULACINENSALUD2012}{\citeauthoryear {{Comision de Regulacion en Salud}}{{Comision de Regulacion en Salud}}{{\APACyear {2012}}}}
\APACbibcite{COMISINDEREGULACINENSALUD2012}{\citeauthoryear {{Comision de Regulacion en Salud}}{{Comision de Regulacion en Salud}}{{\APACyear {2012}}}}
\bibcite{CONSEJONACIONALDESEGURIDADSOCIALENSALUD2007a}{\citeauthoryear {{Consejo Nacional de Seguridad Social en Salud}}{{Consejo Nacional de Seguridad Social en Salud}}{{\APACyear {2007}}{\APACexlab {{\BCnt {1}}}}}}
\APACbibcite{CONSEJONACIONALDESEGURIDADSOCIALENSALUD2007a}{\citeauthoryear {{Consejo Nacional de Seguridad Social en Salud}}{{Consejo Nacional de Seguridad Social en Salud}}{{\APACyear {2007}}{\APACexlab {{\BCnt {1}}}}}}
\bibcite{CONSEJONACIONALDESEGURIDADSOCIALENSALUD2007}{\citeauthoryear {{Consejo Nacional de Seguridad Social en Salud}}{{Consejo Nacional de Seguridad Social en Salud}}{{\APACyear {2007}}{\APACexlab {{\BCnt {2}}}}}}
\APACbibcite{CONSEJONACIONALDESEGURIDADSOCIALENSALUD2007}{\citeauthoryear {{Consejo Nacional de Seguridad Social en Salud}}{{Consejo Nacional de Seguridad Social en Salud}}{{\APACyear {2007}}{\APACexlab {{\BCnt {2}}}}}}
\bibcite{Departamento2012}{\citeauthoryear {{Departamento Nacional de Planeacion}}{{Departamento Nacional de Planeacion}}{{\APACyear {2012}}}}
\APACbibcite{Departamento2012}{\citeauthoryear {{Departamento Nacional de Planeacion}}{{Departamento Nacional de Planeacion}}{{\APACyear {2012}}}}
\bibcite{Duggan2010}{\citeauthoryear {Duggan\ \BBA{} Scott~Morton}{Duggan\ \BBA{} Scott~Morton}{{\APACyear {2010}}}}
\APACbibcite{Duggan2010}{\citeauthoryear {Duggan\ \BBA{} Scott~Morton}{Duggan\ \BBA{} Scott~Morton}{{\APACyear {2010}}}}
\bibcite{Duggan2006}{\citeauthoryear {Duggan\ \BBA{} Scott~Morton}{Duggan\ \BBA{} Scott~Morton}{{\APACyear {2006}}}}
\APACbibcite{Duggan2006}{\citeauthoryear {Duggan\ \BBA{} Scott~Morton}{Duggan\ \BBA{} Scott~Morton}{{\APACyear {2006}}}}
\bibcite{Gaviria2013}{\citeauthoryear {Gaviria}{Gaviria}{{\APACyear {2013}}}}
\APACbibcite{Gaviria2013}{\citeauthoryear {Gaviria}{Gaviria}{{\APACyear {2013}}}}
\bibcite{Giedion2014}{\citeauthoryear {Giedion\ \BOthers {.}}{Giedion\ \BOthers {.}}{{\APACyear {2014}}}}
\APACbibcite{Giedion2014}{\citeauthoryear {Giedion\ \BOthers {.}}{Giedion\ \BOthers {.}}{{\APACyear {2014}}}}
\bibcite{Giedion2009}{\citeauthoryear {Giedion\ \BBA{} Uribe}{Giedion\ \BBA{} Uribe}{{\APACyear {2009}}}}
\APACbibcite{Giedion2009}{\citeauthoryear {Giedion\ \BBA{} Uribe}{Giedion\ \BBA{} Uribe}{{\APACyear {2009}}}}
\bibcite{GomezSuarez2007}{\citeauthoryear {G\'omez-Su\'arez}{G\'omez-Su\'arez}{{\APACyear {2007}}}}
\APACbibcite{GomezSuarez2007}{\citeauthoryear {G\'omez-Su\'arez}{G\'omez-Su\'arez}{{\APACyear {2007}}}}
\bibcite{Gruber1996}{\citeauthoryear {Gruber\ \BBA{} Owings}{Gruber\ \BBA{} Owings}{{\APACyear {1996}}}}
\APACbibcite{Gruber1996}{\citeauthoryear {Gruber\ \BBA{} Owings}{Gruber\ \BBA{} Owings}{{\APACyear {1996}}}}
\bibcite{Iizuka2007}{\citeauthoryear {Iizuka}{Iizuka}{{\APACyear {2007}}}}
\APACbibcite{Iizuka2007}{\citeauthoryear {Iizuka}{Iizuka}{{\APACyear {2007}}}}
\bibcite{Iizuka2012}{\citeauthoryear {Iizuka}{Iizuka}{{\APACyear {2012}}}}
\APACbibcite{Iizuka2012}{\citeauthoryear {Iizuka}{Iizuka}{{\APACyear {2012}}}}
\bibcite{Leu2009}{\citeauthoryear {Leu, Rutten, Brouwer, Matter,{}\ \BBA{} Rutschi}{Leu\ \BOthers {.}}{{\APACyear {2009}}}}
\APACbibcite{Leu2009}{\citeauthoryear {Leu, Rutten, Brouwer, Matter,{}\ \BBA{} Rutschi}{Leu\ \BOthers {.}}{{\APACyear {2009}}}}
\bibcite{MSH2012}{\citeauthoryear {{Management Sciences for Health}}{{Management Sciences for Health}}{{\APACyear {2012}}}}
\APACbibcite{MSH2012}{\citeauthoryear {{Management Sciences for Health}}{{Management Sciences for Health}}{{\APACyear {2012}}}}
\bibcite{MINISTERIODESALUDYPROTECCINSOCIAL2013}{\citeauthoryear {{Ministerio de Salud y Proteccion Social}}{{Ministerio de Salud y Proteccion Social}}{{\APACyear {2013}}}}
\APACbibcite{MINISTERIODESALUDYPROTECCINSOCIAL2013}{\citeauthoryear {{Ministerio de Salud y Proteccion Social}}{{Ministerio de Salud y Proteccion Social}}{{\APACyear {2013}}}}
\bibcite{Milgrom1990}{\citeauthoryear {Paul~Milgrom}{Paul~Milgrom}{{\APACyear {1990}}}}
\APACbibcite{Milgrom1990}{\citeauthoryear {Paul~Milgrom}{Paul~Milgrom}{{\APACyear {1990}}}}
\bibcite{Roberts2011}{\citeauthoryear {Roberts\ \BBA{} Reich}{Roberts\ \BBA{} Reich}{{\APACyear {2011}}}}
\APACbibcite{Roberts2011}{\citeauthoryear {Roberts\ \BBA{} Reich}{Roberts\ \BBA{} Reich}{{\APACyear {2011}}}}
\bibcite{Semana2014}{\citeauthoryear {Semana}{Semana}{{\APACyear {2014}}}}
\APACbibcite{Semana2014}{\citeauthoryear {Semana}{Semana}{{\APACyear {2014}}}}
\bibcite{Shepard2015}{\citeauthoryear {Shepard}{Shepard}{{\APACyear {2015}}}}
\APACbibcite{Shepard2015}{\citeauthoryear {Shepard}{Shepard}{{\APACyear {2015}}}}
\bibcite{NYT2015b}{\citeauthoryear {{The New York Times}}{{The New York Times}}{{\APACyear {2015}}{\APACexlab {{\BCnt {1}}}}}}
\APACbibcite{NYT2015b}{\citeauthoryear {{The New York Times}}{{The New York Times}}{{\APACyear {2015}}{\APACexlab {{\BCnt {1}}}}}}
\bibcite{NYT2015c}{\citeauthoryear {{The New York Times}}{{The New York Times}}{{\APACyear {2015}}{\APACexlab {{\BCnt {2}}}}}}
\APACbibcite{NYT2015c}{\citeauthoryear {{The New York Times}}{{The New York Times}}{{\APACyear {2015}}{\APACexlab {{\BCnt {2}}}}}}
\bibcite{NYT2015}{\citeauthoryear {{The New York Times}}{{The New York Times}}{{\APACyear {2015}}{\APACexlab {{\BCnt {3}}}}}}
\APACbibcite{NYT2015}{\citeauthoryear {{The New York Times}}{{The New York Times}}{{\APACyear {2015}}{\APACexlab {{\BCnt {3}}}}}}
\bibcite{NYT2015a}{\citeauthoryear {{The New York Times}}{{The New York Times}}{{\APACyear {2015}}{\APACexlab {{\BCnt {4}}}}}}
\APACbibcite{NYT2015a}{\citeauthoryear {{The New York Times}}{{The New York Times}}{{\APACyear {2015}}{\APACexlab {{\BCnt {4}}}}}}
\bibcite{UnitedStatesCode2006}{\citeauthoryear {{United States Congress}}{{United States Congress}}{{\APACyear {2006}}}}
\APACbibcite{UnitedStatesCode2006}{\citeauthoryear {{United States Congress}}{{United States Congress}}{{\APACyear {2006}}}}
\bibcite{Vacca2011}{\citeauthoryear {Vacca, Acosta,{}\ \BBA{} Rodriguez}{Vacca\ \BOthers {.}}{{\APACyear {2011}}}}
\APACbibcite{Vacca2011}{\citeauthoryear {Vacca, Acosta,{}\ \BBA{} Rodriguez}{Vacca\ \BOthers {.}}{{\APACyear {2011}}}}
\bibcite{Webster2012}{\citeauthoryear {Webster}{Webster}{{\APACyear {2012}}}}
\APACbibcite{Webster2012}{\citeauthoryear {Webster}{Webster}{{\APACyear {2012}}}}
\bibcite{MEDI2013}{\citeauthoryear {Wei\ \BOthers {.}}{Wei\ \BOthers {.}}{{\APACyear {2013}}}}
\APACbibcite{MEDI2013}{\citeauthoryear {Wei\ \BOthers {.}}{Wei\ \BOthers {.}}{{\APACyear {2013}}}}
\bibcite{WorldBank2013}{\citeauthoryear {{World Bank}}{{World Bank}}{{\APACyear {2013}}}}
\APACbibcite{WorldBank2013}{\citeauthoryear {{World Bank}}{{World Bank}}{{\APACyear {2013}}}}
\bibcite{TTD2016}{\citeauthoryear {Yang\ \BOthers {.}}{Yang\ \BOthers {.}}{{\APACyear {2016}}}}
\APACbibcite{TTD2016}{\citeauthoryear {Yang\ \BOthers {.}}{Yang\ \BOthers {.}}{{\APACyear {2016}}}}
\bibcite{Zapata2012}{\citeauthoryear {Zapata, Bernal, Castillo,{}\ \BBA{} Garzon}{Zapata\ \BOthers {.}}{{\APACyear {2012}}}}
\APACbibcite{Zapata2012}{\citeauthoryear {Zapata, Bernal, Castillo,{}\ \BBA{} Garzon}{Zapata\ \BOthers {.}}{{\APACyear {2012}}}}
\@writefile{toc}{\contentsline {section}{\numberline {A}Average price across presentations}{42}{appendix.A}}
\newlabel{appendix:average_price}{{A}{42}{Average price across presentations}{appendix.A}{}}
\@writefile{lot}{\contentsline {table}{\numberline {13}{\ignorespaces Different presentations for Ibuprofeno MK\textregistered \ and their standardized price.\relax }}{43}{table.caption.17}}
\newlabel{tab:standPrice}{{13}{43}{Different presentations for Ibuprofeno MK\textregistered \ and their standardized price.\relax }{table.caption.17}{}}
\@writefile{toc}{\contentsline {section}{\numberline {B}Extra tables}{43}{appendix.B}}
\newlabel{sec:extra_tables}{{B}{43}{Extra tables}{appendix.B}{}}
\@writefile{lot}{\contentsline {table}{\numberline {14}{\ignorespaces Types of drugs and availability of price information\relax }}{43}{table.caption.18}}
\newlabel{tab:diff_charac}{{14}{43}{Types of drugs and availability of price information\relax }{table.caption.18}{}}
\@writefile{lot}{\contentsline {table}{\numberline {15}{\ignorespaces Summary statistics for drugs with some observations\relax }}{44}{table.caption.19}}
\newlabel{tab:descr}{{15}{44}{Summary statistics for drugs with some observations\relax }{table.caption.19}{}}
\@writefile{lot}{\contentsline {table}{\numberline {16}{\ignorespaces Summary statistics for drugs with some observations and a maximum,/minimum price ratio under 10\relax }}{44}{table.caption.20}}
\newlabel{tab:descr3}{{16}{44}{Summary statistics for drugs with some observations and a maximum,/minimum price ratio under 10\relax }{table.caption.20}{}}
\@writefile{lot}{\contentsline {table}{\numberline {17}{\ignorespaces Timing and other regulatory changes\relax }}{45}{table.caption.21}}
\newlabel{tab:timing2}{{17}{45}{Timing and other regulatory changes\relax }{table.caption.21}{}}
\@writefile{lot}{\contentsline {table}{\numberline {18}{\ignorespaces Effect of including a drug in the benefit plan on the price of therapeutic substitutes that are already in the plan and are not generics\relax }}{46}{table.caption.22}}
\newlabel{tab:competitors_POS_generics}{{18}{46}{Effect of including a drug in the benefit plan on the price of therapeutic substitutes that are already in the plan and are not generics\relax }{table.caption.22}{}}
\@writefile{lot}{\contentsline {table}{\numberline {19}{\ignorespaces Effect of including a drug in the benefit plan on the price of therapeutic substitutes that are already in the plan\relax }}{46}{table.caption.23}}
\newlabel{tab:competitors_POS_age}{{19}{46}{Effect of including a drug in the benefit plan on the price of therapeutic substitutes that are already in the plan\relax }{table.caption.23}{}}
\@writefile{toc}{\contentsline {section}{\numberline {C}Extra figures}{47}{appendix.C}}
\newlabel{sec:extra_fig}{{C}{47}{Extra figures}{appendix.C}{}}
\@writefile{lof}{\contentsline {figure}{\numberline {4}{\ignorespaces  Event study for the effect of including a drug in the POS on its price. The sample is restricted to drugs that enter the benefit plan in 2011 and to drugs that are always in the benefit plan or are never in it. \textit  {Data:} SISMED and INVIMA. \textit  {Calculations:} Author. \relax }}{47}{figure.caption.24}}
\newlabel{fig:eve_pos_price_2011}{{4}{47}{Event study for the effect of including a drug in the POS on its price. The sample is restricted to drugs that enter the benefit plan in 2011 and to drugs that are always in the benefit plan or are never in it. \textit {Data:} SISMED and INVIMA. \textit {Calculations:} Author. \relax }{figure.caption.24}{}}
\@writefile{lof}{\contentsline {figure}{\numberline {5}{\ignorespaces  Event study for the effect of including a drug in the POS on its price. The sample is restricted to drugs that enter the benefit plan in 2012 and drugs that are always in the benefit plan or are never in it. \textit  {Data:} SISMED and INVIMA. \textit  {Calculations:} Author. \relax }}{48}{figure.caption.25}}
\newlabel{fig:eve_pos_price_2012}{{5}{48}{Event study for the effect of including a drug in the POS on its price. The sample is restricted to drugs that enter the benefit plan in 2012 and drugs that are always in the benefit plan or are never in it. \textit {Data:} SISMED and INVIMA. \textit {Calculations:} Author. \relax }{figure.caption.25}{}}
\@writefile{lof}{\contentsline {figure}{\numberline {6}{\ignorespaces Event study for the effect of including a drug in the POS on its quantity. The sample is restricted to drugs that enter the benefit plan in 2011 and drugs that are always in the benefit plan or are never in it. \textit  {Data:} SISMED and INVIMA. \textit  {Calculations:} Author. \relax }}{49}{figure.caption.26}}
\newlabel{fig:eve_pos_q_2011}{{6}{49}{Event study for the effect of including a drug in the POS on its quantity. The sample is restricted to drugs that enter the benefit plan in 2011 and drugs that are always in the benefit plan or are never in it. \textit {Data:} SISMED and INVIMA. \textit {Calculations:} Author. \relax }{figure.caption.26}{}}
\@writefile{lof}{\contentsline {figure}{\numberline {7}{\ignorespaces Event study for the effect of including a drug in the POS on its quantity. The sample is restricted to drugs that enter the benefit plan in 2012 and drugs that are always in the benefit plan or are never in it. \textit  {Data:} SISMED and INVIMA. \textit  {Calculations:} Author. \relax }}{50}{figure.caption.27}}
\newlabel{fig:eve_pos_q_2012}{{7}{50}{Event study for the effect of including a drug in the POS on its quantity. The sample is restricted to drugs that enter the benefit plan in 2012 and drugs that are always in the benefit plan or are never in it. \textit {Data:} SISMED and INVIMA. \textit {Calculations:} Author. \relax }{figure.caption.27}{}}
\@writefile{toc}{\contentsline {section}{\numberline {D}Mathematical Derivations - Model Alt}{50}{appendix.D}}
\newlabel{appendix:algebra}{{D}{50}{Mathematical Derivations - Model Alt}{appendix.D}{}}
\citation{Milgrom1990}
