This is BibTeX, Version 0.99dThe top-level auxiliary file: DevLunch_2004105_PharmaPrices.aux
The style file: apacite.bst
Database file #1: PharPrice.bib
apacite.bst [2013/07/21 v6.03 APA bibliography style]
