\beamer@endinputifotherversion {3.26pt}
\beamer@sectionintoc {1}{Motivation and context}{2}{0}{1}
\beamer@sectionintoc {2}{Data and empirical strategy}{12}{0}{2}
\beamer@sectionintoc {3}{Results}{14}{0}{3}
\beamer@sectionintoc {4}{Closing remarks}{22}{0}{4}
\contentsline {section}{}
