\beamer@endinputifotherversion {3.33pt}
\beamer@sectionintoc {1}{Motivation and context}{2}{0}{1}
\beamer@sectionintoc {2}{Data and empirical strategy}{4}{0}{2}
\beamer@sectionintoc {3}{Results}{6}{0}{3}
\beamer@sectionintoc {4}{Closing remarks}{13}{0}{4}
\contentsline {section}{}
