\beamer@endinputifotherversion {3.26pt}
\beamer@sectionintoc {1}{Motivation and context}{2}{0}{1}
\beamer@sectionintoc {2}{Data and empirical strategy}{18}{0}{2}
\beamer@sectionintoc {3}{Results}{22}{0}{3}
\beamer@sectionintoc {4}{Closing remarks}{31}{0}{4}
\contentsline {section}{}
