\beamer@endinputifotherversion {3.26pt}
\beamer@sectionintoc {1}{Summary Stats}{2}{0}{1}
\beamer@sectionintoc {2}{Results}{6}{0}{2}
\beamer@sectionintoc {3}{Robustness}{12}{0}{3}
\beamer@sectionintoc {4}{Competition - Incumbent}{18}{0}{4}
\beamer@sectionintoc {5}{Competition 2}{22}{0}{5}
\beamer@sectionintoc {6}{Other measures}{26}{0}{6}
\beamer@sectionintoc {7}{Heterogeneity}{30}{0}{7}
\beamer@sectionintoc {8}{Scale}{33}{0}{8}
