\relax 
\providecommand\hyper@newdestlabel[2]{}
\providecommand\HyperFirstAtBeginDocument{\AtBeginDocument}
\HyperFirstAtBeginDocument{\ifx\hyper@anchor\@undefined
\global\let\oldcontentsline\contentsline
\gdef\contentsline#1#2#3#4{\oldcontentsline{#1}{#2}{#3}}
\global\let\oldnewlabel\newlabel
\gdef\newlabel#1#2{\newlabelxx{#1}#2}
\gdef\newlabelxx#1#2#3#4#5#6{\oldnewlabel{#1}{{#2}{#3}}}
\AtEndDocument{\ifx\hyper@anchor\@undefined
\let\contentsline\oldcontentsline
\let\newlabel\oldnewlabel
\fi}
\fi}
\global\let\hyper@last\relax 
\gdef\HyperFirstAtBeginDocument#1{#1}
\providecommand\HyField@AuxAddToFields[1]{}
\providecommand\HyField@AuxAddToCoFields[2]{}
\providecommand \oddpage@label [2]{}
\@writefile{toc}{\beamer@endinputifotherversion {3.26pt}}
\@writefile{nav}{\beamer@endinputifotherversion {3.26pt}}
\@writefile{nav}{\headcommand {\slideentry {0}{0}{1}{1/1}{}{0}}}
\@writefile{nav}{\headcommand {\beamer@framepages {1}{1}}}
\@writefile{toc}{\beamer@sectionintoc {1}{Summary Stats}{2}{0}{1}}
\@writefile{nav}{\headcommand {\sectionentry {1}{Summary Stats}{2}{Summary Stats}{0}}}
\@writefile{nav}{\headcommand {\beamer@sectionpages {1}{1}}}
\@writefile{nav}{\headcommand {\beamer@subsectionpages {1}{1}}}
\@writefile{nav}{\headcommand {\slideentry {1}{0}{2}{2/2}{}{0}}}
\@writefile{nav}{\headcommand {\beamer@framepages {2}{2}}}
\newlabel{sumstat<1>}{{3}{3}{Summary Stats}{Doc-Start}{}}
\@writefile{snm}{\beamer@slide {sumstat<1>}{3}}
\newlabel{sumstat}{{3}{3}{Summary Stats}{Doc-Start}{}}
\@writefile{snm}{\beamer@slide {sumstat}{3}}
\@writefile{nav}{\headcommand {\slideentry {1}{0}{3}{3/3}{}{0}}}
\@writefile{nav}{\headcommand {\beamer@framepages {3}{3}}}
\newlabel{sumstat2<1>}{{4}{4}{Summary Stats}{Doc-Start}{}}
\@writefile{snm}{\beamer@slide {sumstat2<1>}{4}}
\newlabel{sumstat2}{{4}{4}{Summary Stats}{Doc-Start}{}}
\@writefile{snm}{\beamer@slide {sumstat2}{4}}
\newlabel{tab:descr}{{2}{4}{Summary Stats}{Doc-Start}{}}
\@writefile{snm}{\beamer@slide {tab:descr}{4}}
\@writefile{nav}{\headcommand {\slideentry {1}{0}{4}{4/4}{}{0}}}
\@writefile{nav}{\headcommand {\beamer@framepages {4}{4}}}
\newlabel{eq:original}{{1}{5}{Summary Stats}{Doc-Start}{}}
\@writefile{snm}{\beamer@slide {eq:original}{5}}
\@writefile{nav}{\headcommand {\slideentry {1}{0}{5}{5/5}{}{0}}}
\@writefile{nav}{\headcommand {\beamer@framepages {5}{5}}}
\@writefile{toc}{\beamer@sectionintoc {2}{Results}{6}{0}{2}}
\@writefile{nav}{\headcommand {\sectionentry {2}{Results}{6}{Results}{0}}}
\@writefile{nav}{\headcommand {\beamer@sectionpages {2}{5}}}
\@writefile{nav}{\headcommand {\beamer@subsectionpages {2}{5}}}
\@writefile{nav}{\headcommand {\slideentry {2}{0}{6}{6/6}{}{0}}}
\@writefile{nav}{\headcommand {\beamer@framepages {6}{6}}}
\newlabel{tab:POS}{{3}{7}{Results}{Doc-Start}{}}
\@writefile{snm}{\beamer@slide {tab:POS}{7}}
\@writefile{nav}{\headcommand {\slideentry {2}{0}{7}{7/7}{}{0}}}
\@writefile{nav}{\headcommand {\beamer@framepages {7}{7}}}
\newlabel{tab:POS2}{{4}{8}{Results}{Doc-Start}{}}
\@writefile{snm}{\beamer@slide {tab:POS2}{8}}
\@writefile{nav}{\headcommand {\slideentry {2}{0}{8}{8/8}{}{0}}}
\@writefile{nav}{\headcommand {\beamer@framepages {8}{8}}}
\@writefile{nav}{\headcommand {\slideentry {2}{0}{9}{9/9}{}{0}}}
\@writefile{nav}{\headcommand {\beamer@framepages {9}{9}}}
\newlabel{fig:eve_pos_price}{{1}{10}{Results}{Doc-Start}{}}
\@writefile{snm}{\beamer@slide {fig:eve_pos_price}{10}}
\@writefile{nav}{\headcommand {\slideentry {2}{0}{10}{10/10}{}{0}}}
\@writefile{nav}{\headcommand {\beamer@framepages {10}{10}}}
\newlabel{fig:eve_pos_price}{{2}{11}{Results}{Doc-Start}{}}
\@writefile{snm}{\beamer@slide {fig:eve_pos_price}{11}}
\@writefile{nav}{\headcommand {\slideentry {2}{0}{11}{11/11}{}{0}}}
\@writefile{nav}{\headcommand {\beamer@framepages {11}{11}}}
\@writefile{toc}{\beamer@sectionintoc {3}{Robustness}{12}{0}{3}}
\@writefile{nav}{\headcommand {\sectionentry {3}{Robustness}{12}{Robustness}{0}}}
\@writefile{nav}{\headcommand {\beamer@sectionpages {6}{11}}}
\@writefile{nav}{\headcommand {\beamer@subsectionpages {6}{11}}}
\@writefile{nav}{\headcommand {\slideentry {3}{0}{12}{12/12}{}{0}}}
\@writefile{nav}{\headcommand {\beamer@framepages {12}{12}}}
\newlabel{fig:eve_pos_price}{{3}{13}{Robustness}{Doc-Start}{}}
\@writefile{snm}{\beamer@slide {fig:eve_pos_price}{13}}
\@writefile{nav}{\headcommand {\slideentry {3}{0}{13}{13/13}{}{0}}}
\@writefile{nav}{\headcommand {\beamer@framepages {13}{13}}}
\newlabel{tab:POS}{{5}{14}{Robustness}{Doc-Start}{}}
\@writefile{snm}{\beamer@slide {tab:POS}{14}}
\@writefile{nav}{\headcommand {\slideentry {3}{0}{14}{14/14}{}{0}}}
\@writefile{nav}{\headcommand {\beamer@framepages {14}{14}}}
\newlabel{tab:POS2}{{6}{15}{Robustness}{Doc-Start}{}}
\@writefile{snm}{\beamer@slide {tab:POS2}{15}}
\@writefile{nav}{\headcommand {\slideentry {3}{0}{15}{15/15}{}{0}}}
\@writefile{nav}{\headcommand {\beamer@framepages {15}{15}}}
\newlabel{fig:eve_pos_price}{{4}{16}{Robustness}{Doc-Start}{}}
\@writefile{snm}{\beamer@slide {fig:eve_pos_price}{16}}
\@writefile{nav}{\headcommand {\slideentry {3}{0}{16}{16/16}{}{0}}}
\@writefile{nav}{\headcommand {\beamer@framepages {16}{16}}}
\newlabel{fig:eve_pos_price}{{5}{17}{Robustness}{Doc-Start}{}}
\@writefile{snm}{\beamer@slide {fig:eve_pos_price}{17}}
\@writefile{nav}{\headcommand {\slideentry {3}{0}{17}{17/17}{}{0}}}
\@writefile{nav}{\headcommand {\beamer@framepages {17}{17}}}
\@writefile{toc}{\beamer@sectionintoc {4}{Competition - Incumbent}{18}{0}{4}}
\@writefile{nav}{\headcommand {\sectionentry {4}{Competition - Incumbent}{18}{Competition - Incumbent}{0}}}
\@writefile{nav}{\headcommand {\beamer@sectionpages {12}{17}}}
\@writefile{nav}{\headcommand {\beamer@subsectionpages {12}{17}}}
\@writefile{nav}{\headcommand {\slideentry {4}{0}{18}{18/18}{}{0}}}
\@writefile{nav}{\headcommand {\beamer@framepages {18}{18}}}
\@writefile{nav}{\headcommand {\slideentry {4}{0}{19}{19/19}{}{0}}}
\@writefile{nav}{\headcommand {\beamer@framepages {19}{19}}}
\newlabel{tab:Mkt1}{{7}{20}{Competition - Incumbent}{Doc-Start}{}}
\@writefile{snm}{\beamer@slide {tab:Mkt1}{20}}
\@writefile{nav}{\headcommand {\slideentry {4}{0}{20}{20/20}{}{0}}}
\@writefile{nav}{\headcommand {\beamer@framepages {20}{20}}}
\newlabel{tab:Mkt1}{{8}{21}{Competition - Incumbent}{Doc-Start}{}}
\@writefile{snm}{\beamer@slide {tab:Mkt1}{21}}
\@writefile{nav}{\headcommand {\slideentry {4}{0}{21}{21/21}{}{0}}}
\@writefile{nav}{\headcommand {\beamer@framepages {21}{21}}}
\@writefile{toc}{\beamer@sectionintoc {5}{Competition 2}{22}{0}{5}}
\@writefile{nav}{\headcommand {\sectionentry {5}{Competition 2}{22}{Competition 2}{0}}}
\@writefile{nav}{\headcommand {\beamer@sectionpages {18}{21}}}
\@writefile{nav}{\headcommand {\beamer@subsectionpages {18}{21}}}
\@writefile{nav}{\headcommand {\slideentry {5}{0}{22}{22/22}{}{0}}}
\@writefile{nav}{\headcommand {\beamer@framepages {22}{22}}}
\@writefile{nav}{\headcommand {\slideentry {5}{0}{23}{23/23}{}{0}}}
\@writefile{nav}{\headcommand {\beamer@framepages {23}{23}}}
\newlabel{tab:Mkt1}{{9}{24}{Competition 2}{Doc-Start}{}}
\@writefile{snm}{\beamer@slide {tab:Mkt1}{24}}
\@writefile{nav}{\headcommand {\slideentry {5}{0}{24}{24/24}{}{0}}}
\@writefile{nav}{\headcommand {\beamer@framepages {24}{24}}}
\newlabel{tab:Mkt1}{{10}{25}{Competition 2}{Doc-Start}{}}
\@writefile{snm}{\beamer@slide {tab:Mkt1}{25}}
\@writefile{nav}{\headcommand {\slideentry {5}{0}{25}{25/25}{}{0}}}
\@writefile{nav}{\headcommand {\beamer@framepages {25}{25}}}
\@writefile{toc}{\beamer@sectionintoc {6}{Other measures}{26}{0}{6}}
\@writefile{nav}{\headcommand {\sectionentry {6}{Other measures}{26}{Other measures}{0}}}
\@writefile{nav}{\headcommand {\beamer@sectionpages {22}{25}}}
\@writefile{nav}{\headcommand {\beamer@subsectionpages {22}{25}}}
\@writefile{nav}{\headcommand {\slideentry {6}{0}{26}{26/26}{}{0}}}
\@writefile{nav}{\headcommand {\beamer@framepages {26}{26}}}
\@writefile{nav}{\headcommand {\slideentry {6}{0}{27}{27/27}{}{0}}}
\@writefile{nav}{\headcommand {\beamer@framepages {27}{27}}}
\newlabel{tab:Mkt1}{{11}{28}{Other measures}{Doc-Start}{}}
\@writefile{snm}{\beamer@slide {tab:Mkt1}{28}}
\@writefile{nav}{\headcommand {\slideentry {6}{0}{28}{28/28}{}{0}}}
\@writefile{nav}{\headcommand {\beamer@framepages {28}{28}}}
\newlabel{tab:Mkt1}{{12}{29}{Other measures}{Doc-Start}{}}
\@writefile{snm}{\beamer@slide {tab:Mkt1}{29}}
\@writefile{nav}{\headcommand {\slideentry {6}{0}{29}{29/29}{}{0}}}
\@writefile{nav}{\headcommand {\beamer@framepages {29}{29}}}
\@writefile{toc}{\beamer@sectionintoc {7}{Heterogeneity}{30}{0}{7}}
\@writefile{nav}{\headcommand {\sectionentry {7}{Heterogeneity}{30}{Heterogeneity}{0}}}
\@writefile{nav}{\headcommand {\beamer@sectionpages {26}{29}}}
\@writefile{nav}{\headcommand {\beamer@subsectionpages {26}{29}}}
\@writefile{nav}{\headcommand {\slideentry {7}{0}{30}{30/30}{}{0}}}
\@writefile{nav}{\headcommand {\beamer@framepages {30}{30}}}
\newlabel{tab:Mkt1}{{13}{31}{Heterogeneity}{Doc-Start}{}}
\@writefile{snm}{\beamer@slide {tab:Mkt1}{31}}
\@writefile{nav}{\headcommand {\slideentry {7}{0}{31}{31/31}{}{0}}}
\@writefile{nav}{\headcommand {\beamer@framepages {31}{31}}}
\newlabel{tab:Mkt1}{{14}{32}{Heterogeneity}{Doc-Start}{}}
\@writefile{snm}{\beamer@slide {tab:Mkt1}{32}}
\@writefile{nav}{\headcommand {\slideentry {7}{0}{32}{32/32}{}{0}}}
\@writefile{nav}{\headcommand {\beamer@framepages {32}{32}}}
\@writefile{toc}{\beamer@sectionintoc {8}{Scale}{33}{0}{8}}
\@writefile{nav}{\headcommand {\sectionentry {8}{Scale}{33}{Scale}{0}}}
\@writefile{nav}{\headcommand {\beamer@sectionpages {30}{32}}}
\@writefile{nav}{\headcommand {\beamer@subsectionpages {30}{32}}}
\@writefile{nav}{\headcommand {\slideentry {8}{0}{33}{33/33}{}{0}}}
\@writefile{nav}{\headcommand {\beamer@framepages {33}{33}}}
\newlabel{eq:original}{{1}{34}{Scale}{Doc-Start}{}}
\@writefile{snm}{\beamer@slide {eq:original}{34}}
\@writefile{nav}{\headcommand {\slideentry {8}{0}{34}{34/34}{}{0}}}
\@writefile{nav}{\headcommand {\beamer@framepages {34}{34}}}
\newlabel{tab:Mkt1}{{15}{35}{Scale}{Doc-Start}{}}
\@writefile{snm}{\beamer@slide {tab:Mkt1}{35}}
\@writefile{nav}{\headcommand {\slideentry {8}{0}{35}{35/35}{}{0}}}
\@writefile{nav}{\headcommand {\beamer@framepages {35}{35}}}
\@writefile{nav}{\headcommand {\beamer@partpages {1}{35}}}
\@writefile{nav}{\headcommand {\beamer@subsectionpages {33}{35}}}
\@writefile{nav}{\headcommand {\beamer@sectionpages {33}{35}}}
\@writefile{nav}{\headcommand {\beamer@documentpages {35}}}
\@writefile{nav}{\headcommand {\def \inserttotalframenumber {35}}}
