\relax 
\providecommand\hyper@newdestlabel[2]{}
\providecommand\HyperFirstAtBeginDocument{\AtBeginDocument}
\HyperFirstAtBeginDocument{\ifx\hyper@anchor\@undefined
\global\let\oldcontentsline\contentsline
\gdef\contentsline#1#2#3#4{\oldcontentsline{#1}{#2}{#3}}
\global\let\oldnewlabel\newlabel
\gdef\newlabel#1#2{\newlabelxx{#1}#2}
\gdef\newlabelxx#1#2#3#4#5#6{\oldnewlabel{#1}{{#2}{#3}}}
\AtEndDocument{\ifx\hyper@anchor\@undefined
\let\contentsline\oldcontentsline
\let\newlabel\oldnewlabel
\fi}
\fi}
\global\let\hyper@last\relax 
\gdef\HyperFirstAtBeginDocument#1{#1}
\providecommand\HyField@AuxAddToFields[1]{}
\providecommand\HyField@AuxAddToCoFields[2]{}
\citation{Brekke2012}
\citation{Arrow1963}
\citation{Cutler2002}
\citation{Brekke2011}
\citation{Duggan2010}
\citation{Vacca2011}
\citation{Departamento2012}
\citation{Zapata2012}
\select@language{english}
\@writefile{toc}{\select@language{english}}
\@writefile{lof}{\select@language{english}}
\@writefile{lot}{\select@language{english}}
\citation{Duggan2010}
\citation{Brekke2011}
\citation{Gaviria2013}
\bibstyle{apacite}
\bibdata{PharPrice}
\bibcite{Arrow1963}{\citeauthoryear {Arrow}{Arrow}{{\APACyear {1963}}}}
\APACbibcite{Arrow1963}{\citeauthoryear {Arrow}{Arrow}{{\APACyear {1963}}}}
\bibcite{Brekke2012}{\citeauthoryear {Brekke, Dalen,{}\ \BBA{} Str\IeC {\o }m}{Brekke\ \BOthers {.}}{{\APACyear {2012}}}}
\APACbibcite{Brekke2012}{\citeauthoryear {Brekke, Dalen,{}\ \BBA{} Str\IeC {\o }m}{Brekke\ \BOthers {.}}{{\APACyear {2012}}}}
\bibcite{Brekke2011}{\citeauthoryear {Brekke, Holmas,{}\ \BBA{} Straume}{Brekke\ \BOthers {.}}{{\APACyear {2011}}}}
\APACbibcite{Brekke2011}{\citeauthoryear {Brekke, Holmas,{}\ \BBA{} Straume}{Brekke\ \BOthers {.}}{{\APACyear {2011}}}}
\bibcite{Cutler2002}{\citeauthoryear {Cutler}{Cutler}{{\APACyear {2002}}}}
\APACbibcite{Cutler2002}{\citeauthoryear {Cutler}{Cutler}{{\APACyear {2002}}}}
\bibcite{Departamento2012}{\citeauthoryear {{Departamento Nacional de Planeacion}}{{Departamento Nacional de Planeacion}}{{\APACyear {2012}}}}
\APACbibcite{Departamento2012}{\citeauthoryear {{Departamento Nacional de Planeacion}}{{Departamento Nacional de Planeacion}}{{\APACyear {2012}}}}
\bibcite{Duggan2010}{\citeauthoryear {Duggan\ \BBA{} Scott~Morton}{Duggan\ \BBA{} Scott~Morton}{{\APACyear {2010}}}}
\APACbibcite{Duggan2010}{\citeauthoryear {Duggan\ \BBA{} Scott~Morton}{Duggan\ \BBA{} Scott~Morton}{{\APACyear {2010}}}}
\bibcite{Gaviria2013}{\citeauthoryear {Gaviria}{Gaviria}{{\APACyear {2013}}}}
\APACbibcite{Gaviria2013}{\citeauthoryear {Gaviria}{Gaviria}{{\APACyear {2013}}}}
\bibcite{Vacca2011}{\citeauthoryear {Vacca, Acosta,{}\ \BBA{} Rodriguez}{Vacca\ \BOthers {.}}{{\APACyear {2011}}}}
\APACbibcite{Vacca2011}{\citeauthoryear {Vacca, Acosta,{}\ \BBA{} Rodriguez}{Vacca\ \BOthers {.}}{{\APACyear {2011}}}}
\bibcite{Zapata2012}{\citeauthoryear {Zapata, Bernal, Castillo,{}\ \BBA{} Garzon}{Zapata\ \BOthers {.}}{{\APACyear {2012}}}}
\APACbibcite{Zapata2012}{\citeauthoryear {Zapata, Bernal, Castillo,{}\ \BBA{} Garzon}{Zapata\ \BOthers {.}}{{\APACyear {2012}}}}
\@writefile{toc}{\contentsline {section}{References}{2}{section*.6}}
