\relax 
\providecommand\hyper@newdestlabel[2]{}
\providecommand\HyperFirstAtBeginDocument{\AtBeginDocument}
\HyperFirstAtBeginDocument{\ifx\hyper@anchor\@undefined
\global\let\oldcontentsline\contentsline
\gdef\contentsline#1#2#3#4{\oldcontentsline{#1}{#2}{#3}}
\global\let\oldnewlabel\newlabel
\gdef\newlabel#1#2{\newlabelxx{#1}#2}
\gdef\newlabelxx#1#2#3#4#5#6{\oldnewlabel{#1}{{#2}{#3}}}
\AtEndDocument{\ifx\hyper@anchor\@undefined
\let\contentsline\oldcontentsline
\let\newlabel\oldnewlabel
\fi}
\fi}
\global\let\hyper@last\relax 
\gdef\HyperFirstAtBeginDocument#1{#1}
\providecommand\HyField@AuxAddToFields[1]{}
\providecommand\HyField@AuxAddToCoFields[2]{}
\citation{Tristao2014}
\citation{Glassman2012}
\citation{Duggan2006}
\citation{Giedion2009}
\citation{Brown2014}
\citation{Leu2009}
\citation{Brekke2012}
\citation{Duggan2010}
\citation{Duggan2006}
\citation{Gaviria2013}
\select@language{english}
\@writefile{toc}{\select@language{english}}
\@writefile{lof}{\select@language{english}}
\@writefile{lot}{\select@language{english}}
\citation{Giedion2009}
\citation{Castano2006}
\citation{GomezSuarez2007}
\citation{Brown2014}
\citation{Shepard2015}
\citation{Arrow1963}
\citation{Semana2014}
\citation{Vacca2011}
\citation{Departamento2012}
\citation{Zapata2012}
\@writefile{toc}{\contentsline {section}{\numberline {1}Background, Institutions and Incentives}{2}{section.1}}
\citation{Duggan2010}
\citation{Brekke2011}
\bibstyle{apacite}
\bibdata{PharPrice}
\bibcite{Arrow1963}{\citeauthoryear {Arrow}{Arrow}{{\APACyear {1963}}}}
\APACbibcite{Arrow1963}{\citeauthoryear {Arrow}{Arrow}{{\APACyear {1963}}}}
\bibcite{Brekke2012}{\citeauthoryear {Brekke, Dalen,{}\ \BBA{} Str\IeC {\o }m}{Brekke\ \BOthers {.}}{{\APACyear {2012}}}}
\APACbibcite{Brekke2012}{\citeauthoryear {Brekke, Dalen,{}\ \BBA{} Str\IeC {\o }m}{Brekke\ \BOthers {.}}{{\APACyear {2012}}}}
\bibcite{Brekke2011}{\citeauthoryear {Brekke, Holmas,{}\ \BBA{} Straume}{Brekke\ \BOthers {.}}{{\APACyear {2011}}}}
\APACbibcite{Brekke2011}{\citeauthoryear {Brekke, Holmas,{}\ \BBA{} Straume}{Brekke\ \BOthers {.}}{{\APACyear {2011}}}}
\bibcite{Brown2014}{\citeauthoryear {Brown, Duggan, Kuziemko,{}\ \BBA{} Woolston}{Brown\ \BOthers {.}}{{\APACyear {2014}}}}
\APACbibcite{Brown2014}{\citeauthoryear {Brown, Duggan, Kuziemko,{}\ \BBA{} Woolston}{Brown\ \BOthers {.}}{{\APACyear {2014}}}}
\bibcite{Castano2006}{\citeauthoryear {Castano\ \BBA{} Zambrano}{Castano\ \BBA{} Zambrano}{{\APACyear {2006}}}}
\APACbibcite{Castano2006}{\citeauthoryear {Castano\ \BBA{} Zambrano}{Castano\ \BBA{} Zambrano}{{\APACyear {2006}}}}
\bibcite{Departamento2012}{\citeauthoryear {{Departamento Nacional de Planeacion}}{{Departamento Nacional de Planeacion}}{{\APACyear {2012}}}}
\APACbibcite{Departamento2012}{\citeauthoryear {{Departamento Nacional de Planeacion}}{{Departamento Nacional de Planeacion}}{{\APACyear {2012}}}}
\bibcite{Duggan2010}{\citeauthoryear {Duggan\ \BBA{} Scott~Morton}{Duggan\ \BBA{} Scott~Morton}{{\APACyear {2010}}}}
\APACbibcite{Duggan2010}{\citeauthoryear {Duggan\ \BBA{} Scott~Morton}{Duggan\ \BBA{} Scott~Morton}{{\APACyear {2010}}}}
\bibcite{Duggan2006}{\citeauthoryear {Duggan\ \BBA{} Scott~Morton}{Duggan\ \BBA{} Scott~Morton}{{\APACyear {2006}}}}
\APACbibcite{Duggan2006}{\citeauthoryear {Duggan\ \BBA{} Scott~Morton}{Duggan\ \BBA{} Scott~Morton}{{\APACyear {2006}}}}
\bibcite{Gaviria2013}{\citeauthoryear {Gaviria}{Gaviria}{{\APACyear {2013}}}}
\APACbibcite{Gaviria2013}{\citeauthoryear {Gaviria}{Gaviria}{{\APACyear {2013}}}}
\bibcite{Giedion2009}{\citeauthoryear {Giedion\ \BBA{} Uribe}{Giedion\ \BBA{} Uribe}{{\APACyear {2009}}}}
\APACbibcite{Giedion2009}{\citeauthoryear {Giedion\ \BBA{} Uribe}{Giedion\ \BBA{} Uribe}{{\APACyear {2009}}}}
\bibcite{Glassman2012}{\citeauthoryear {Glassman\ \BOthers {.}}{Glassman\ \BOthers {.}}{{\APACyear {2012}}}}
\APACbibcite{Glassman2012}{\citeauthoryear {Glassman\ \BOthers {.}}{Glassman\ \BOthers {.}}{{\APACyear {2012}}}}
\bibcite{GomezSuarez2007}{\citeauthoryear {G\'omez-Su\'arez}{G\'omez-Su\'arez}{{\APACyear {2007}}}}
\APACbibcite{GomezSuarez2007}{\citeauthoryear {G\'omez-Su\'arez}{G\'omez-Su\'arez}{{\APACyear {2007}}}}
\@writefile{toc}{\contentsline {section}{References}{3}{section*.5}}
\bibcite{Leu2009}{\citeauthoryear {Leu, Rutten, Brouwer, Matter,{}\ \BBA{} Rutschi}{Leu\ \BOthers {.}}{{\APACyear {2009}}}}
\APACbibcite{Leu2009}{\citeauthoryear {Leu, Rutten, Brouwer, Matter,{}\ \BBA{} Rutschi}{Leu\ \BOthers {.}}{{\APACyear {2009}}}}
\bibcite{Semana2014}{\citeauthoryear {Semana}{Semana}{{\APACyear {2014}}}}
\APACbibcite{Semana2014}{\citeauthoryear {Semana}{Semana}{{\APACyear {2014}}}}
\bibcite{Shepard2015}{\citeauthoryear {Shepard}{Shepard}{{\APACyear {2015}}}}
\APACbibcite{Shepard2015}{\citeauthoryear {Shepard}{Shepard}{{\APACyear {2015}}}}
\bibcite{Tristao2014}{\citeauthoryear {Tristao\ \BOthers {.}}{Tristao\ \BOthers {.}}{{\APACyear {2014}}}}
\APACbibcite{Tristao2014}{\citeauthoryear {Tristao\ \BOthers {.}}{Tristao\ \BOthers {.}}{{\APACyear {2014}}}}
\bibcite{Vacca2011}{\citeauthoryear {Vacca, Acosta,{}\ \BBA{} Rodriguez}{Vacca\ \BOthers {.}}{{\APACyear {2011}}}}
\APACbibcite{Vacca2011}{\citeauthoryear {Vacca, Acosta,{}\ \BBA{} Rodriguez}{Vacca\ \BOthers {.}}{{\APACyear {2011}}}}
\bibcite{Zapata2012}{\citeauthoryear {Zapata, Bernal, Castillo,{}\ \BBA{} Garzon}{Zapata\ \BOthers {.}}{{\APACyear {2012}}}}
\APACbibcite{Zapata2012}{\citeauthoryear {Zapata, Bernal, Castillo,{}\ \BBA{} Garzon}{Zapata\ \BOthers {.}}{{\APACyear {2012}}}}
