\beamer@sectionintoc {1}{Motivation}{2}{0}{1}
\beamer@sectionintoc {2}{Background}{13}{0}{2}
\beamer@sectionintoc {3}{Empirics}{17}{0}{3}
\beamer@sectionintoc {4}{Closing remarks}{31}{0}{4}
\contentsline {section}{}
\beamer@sectionintoc {6}{Extra slides: Pharmaceutical prices}{36}{1}{5}
