\relax 
\providecommand\hyper@newdestlabel[2]{}
\providecommand\HyperFirstAtBeginDocument{\AtBeginDocument}
\HyperFirstAtBeginDocument{\ifx\hyper@anchor\@undefined
\global\let\oldcontentsline\contentsline
\gdef\contentsline#1#2#3#4{\oldcontentsline{#1}{#2}{#3}}
\global\let\oldnewlabel\newlabel
\gdef\newlabel#1#2{\newlabelxx{#1}#2}
\gdef\newlabelxx#1#2#3#4#5#6{\oldnewlabel{#1}{{#2}{#3}}}
\AtEndDocument{\ifx\hyper@anchor\@undefined
\let\contentsline\oldcontentsline
\let\newlabel\oldnewlabel
\fi}
\fi}
\global\let\hyper@last\relax 
\gdef\HyperFirstAtBeginDocument#1{#1}
\providecommand\HyField@AuxAddToFields[1]{}
\providecommand\HyField@AuxAddToCoFields[2]{}
\providecommand\pbs@newkey[2]{}\providecommand\pbs@seq@push@cx[2]{}\providecommand\pbs@at@end@dvi@check{}
\pbs@at@end@dvi@check
\providecommand\mix@newkey[2]{}
\pbs@newkey{pbs@last@page}{1}
\providecommand \oddpage@label [2]{}
\@writefile{nav}{\headcommand {\slideentry {0}{0}{1}{1/1}{}{0}}}
\@writefile{nav}{\headcommand {\beamer@framepages {1}{1}}}
\citation{Darby1973}
\citation{Dulleck2006}
\citation{MSH2012}
\pbs@newkey{pbs@last@page}{2}
\@writefile{toc}{\beamer@sectionintoc {1}{Motivation}{2}{0}{1}}
\@writefile{nav}{\headcommand {\sectionentry {1}{Motivation}{2}{Motivation}{0}}}
\@writefile{nav}{\headcommand {\beamer@sectionpages {1}{1}}}
\@writefile{nav}{\headcommand {\beamer@subsectionpages {1}{1}}}
\citation{Darby1973}
\citation{Dulleck2006}
\citation{MSH2012}
\pbs@newkey{pbs@last@page}{3}
\citation{Darby1973}
\citation{Dulleck2006}
\citation{MSH2012}
\pbs@newkey{pbs@last@page}{4}
\citation{Darby1973}
\citation{Dulleck2006}
\citation{MSH2012}
\pbs@newkey{pbs@last@page}{5}
\citation{Darby1973}
\citation{Dulleck2006}
\citation{MSH2012}
\pbs@newkey{pbs@last@page}{6}
\citation{Darby1973}
\citation{Dulleck2006}
\citation{MSH2012}
\pbs@newkey{pbs@last@page}{7}
\citation{Darby1973}
\citation{Dulleck2006}
\citation{MSH2012}
\pbs@newkey{pbs@last@page}{8}
\citation{Darby1973}
\citation{Dulleck2006}
\citation{MSH2012}
\pbs@newkey{pbs@last@page}{9}
\citation{Darby1973}
\citation{Dulleck2006}
\citation{MSH2012}
\pbs@newkey{pbs@last@page}{10}
\citation{Darby1973}
\citation{Dulleck2006}
\citation{MSH2012}
\pbs@newkey{pbs@last@page}{11}
\@writefile{nav}{\headcommand {\slideentry {1}{0}{1}{2/11}{}{0}}}
\@writefile{nav}{\headcommand {\beamer@framepages {2}{11}}}
\pbs@newkey{pbs@last@page}{12}
\@writefile{nav}{\headcommand {\slideentry {1}{0}{2}{12/12}{}{0}}}
\@writefile{nav}{\headcommand {\beamer@framepages {12}{12}}}
\pbs@newkey{pbs@last@page}{13}
\@writefile{toc}{\beamer@sectionintoc {2}{Background: Colombian health care system}{13}{0}{2}}
\@writefile{nav}{\headcommand {\sectionentry {2}{Background: Colombian health care system}{13}{Background: Colombian health care system}{0}}}
\@writefile{nav}{\headcommand {\beamer@sectionpages {2}{12}}}
\@writefile{nav}{\headcommand {\beamer@subsectionpages {2}{12}}}
\@writefile{nav}{\headcommand {\slideentry {2}{0}{1}{13/13}{}{0}}}
\@writefile{nav}{\headcommand {\beamer@framepages {13}{13}}}
\pbs@newkey{pbs@last@page}{14}
\@writefile{nav}{\headcommand {\slideentry {2}{0}{2}{14/14}{}{0}}}
\@writefile{nav}{\headcommand {\beamer@framepages {14}{14}}}
\pbs@newkey{pbs@last@page}{15}
\@writefile{nav}{\headcommand {\slideentry {2}{0}{3}{15/15}{}{0}}}
\@writefile{nav}{\headcommand {\beamer@framepages {15}{15}}}
\pbs@newkey{pbs@last@page}{16}
\@writefile{nav}{\headcommand {\slideentry {2}{0}{4}{16/16}{}{0}}}
\@writefile{nav}{\headcommand {\beamer@framepages {16}{16}}}
\pbs@newkey{pbs@last@page}{17}
\@writefile{toc}{\beamer@sectionintoc {3}{Empirical strategy and results}{17}{0}{3}}
\@writefile{nav}{\headcommand {\sectionentry {3}{Empirical strategy and results}{17}{Empirical strategy and results}{0}}}
\@writefile{nav}{\headcommand {\beamer@sectionpages {13}{16}}}
\@writefile{nav}{\headcommand {\beamer@subsectionpages {13}{16}}}
\@writefile{nav}{\headcommand {\slideentry {3}{0}{1}{17/17}{}{0}}}
\@writefile{nav}{\headcommand {\beamer@framepages {17}{17}}}
\pbs@newkey{pbs@last@page}{18}
\newlabel{goback0<1>}{{9}{18}{Empirical strategy and results}{Doc-Start}{}}
\@writefile{snm}{\beamer@slide {goback0<1>}{18}}
\newlabel{goback0}{{9}{18}{Empirical strategy and results}{Doc-Start}{}}
\@writefile{snm}{\beamer@slide {goback0}{18}}
\@writefile{nav}{\headcommand {\slideentry {3}{0}{2}{18/18}{}{0}}}
\@writefile{nav}{\headcommand {\beamer@framepages {18}{18}}}
\pbs@newkey{pbs@last@page}{19}
\@writefile{nav}{\headcommand {\slideentry {3}{0}{3}{19/19}{}{0}}}
\@writefile{nav}{\headcommand {\beamer@framepages {19}{19}}}
\pbs@newkey{pbs@last@page}{20}
\newlabel{eq:timing}{{1}{20}{Empirical strategy and results}{Doc-Start}{}}
\@writefile{snm}{\beamer@slide {eq:timing}{20}}
\@writefile{nav}{\headcommand {\slideentry {3}{0}{4}{20/20}{}{0}}}
\@writefile{nav}{\headcommand {\beamer@framepages {20}{20}}}
\pbs@newkey{pbs@last@page}{21}
\newlabel{goback_timing<1>}{{12}{21}{Empirical strategy and results}{Doc-Start}{}}
\@writefile{snm}{\beamer@slide {goback_timing<1>}{21}}
\newlabel{goback_timing}{{12}{21}{Empirical strategy and results}{Doc-Start}{}}
\@writefile{snm}{\beamer@slide {goback_timing}{21}}
\@writefile{nav}{\headcommand {\slideentry {3}{0}{5}{21/21}{}{0}}}
\@writefile{nav}{\headcommand {\beamer@framepages {21}{21}}}
\pbs@newkey{pbs@last@page}{22}
\newlabel{goback_timingb<1>}{{13}{22}{Empirical strategy and results}{Doc-Start}{}}
\@writefile{snm}{\beamer@slide {goback_timingb<1>}{22}}
\newlabel{goback_timingb}{{13}{22}{Empirical strategy and results}{Doc-Start}{}}
\@writefile{snm}{\beamer@slide {goback_timingb}{22}}
\@writefile{nav}{\headcommand {\slideentry {3}{0}{6}{22/22}{}{0}}}
\@writefile{nav}{\headcommand {\beamer@framepages {22}{22}}}
\pbs@newkey{pbs@last@page}{23}
\newlabel{goback_timing2<1>}{{14}{23}{Empirical strategy and results}{Doc-Start}{}}
\@writefile{snm}{\beamer@slide {goback_timing2<1>}{23}}
\newlabel{goback_timing2}{{14}{23}{Empirical strategy and results}{Doc-Start}{}}
\@writefile{snm}{\beamer@slide {goback_timing2}{23}}
\@writefile{nav}{\headcommand {\slideentry {3}{0}{7}{23/23}{}{0}}}
\@writefile{nav}{\headcommand {\beamer@framepages {23}{23}}}
\pbs@newkey{pbs@last@page}{24}
\newlabel{eq:original}{{1}{24}{Empirical strategy and results}{Doc-Start}{}}
\@writefile{snm}{\beamer@slide {eq:original}{24}}
\@writefile{nav}{\headcommand {\slideentry {3}{0}{8}{24/24}{}{0}}}
\@writefile{nav}{\headcommand {\beamer@framepages {24}{24}}}
\pbs@newkey{pbs@last@page}{25}
\newlabel{goback1<1>}{{16}{25}{Empirical strategy and results}{Doc-Start}{}}
\@writefile{snm}{\beamer@slide {goback1<1>}{25}}
\newlabel{goback1}{{16}{25}{Empirical strategy and results}{Doc-Start}{}}
\@writefile{snm}{\beamer@slide {goback1}{25}}
\@writefile{nav}{\headcommand {\slideentry {3}{0}{9}{25/25}{}{0}}}
\@writefile{nav}{\headcommand {\beamer@framepages {25}{25}}}
\pbs@newkey{pbs@last@page}{26}
\newlabel{goback2<1>}{{17}{26}{Empirical strategy and results}{Doc-Start}{}}
\@writefile{snm}{\beamer@slide {goback2<1>}{26}}
\newlabel{goback2}{{17}{26}{Empirical strategy and results}{Doc-Start}{}}
\@writefile{snm}{\beamer@slide {goback2}{26}}
\@writefile{nav}{\headcommand {\slideentry {3}{0}{10}{26/26}{}{0}}}
\@writefile{nav}{\headcommand {\beamer@framepages {26}{26}}}
\pbs@newkey{pbs@last@page}{27}
\newlabel{goback_rob<1>}{{18}{27}{Empirical strategy and results}{Doc-Start}{}}
\@writefile{snm}{\beamer@slide {goback_rob<1>}{27}}
\newlabel{goback_rob}{{18}{27}{Empirical strategy and results}{Doc-Start}{}}
\@writefile{snm}{\beamer@slide {goback_rob}{27}}
\@writefile{nav}{\headcommand {\slideentry {3}{0}{11}{27/27}{}{0}}}
\@writefile{nav}{\headcommand {\beamer@framepages {27}{27}}}
\pbs@newkey{pbs@last@page}{28}
\providecommand*\caption@xref[2]{\@setref\relax\@undefined{#1}}
\newlabel{fig:het_competencia}{{1}{28}{Effect of listing a drug by number of competitiors\relax }{Doc-Start}{}}
\@writefile{snm}{\beamer@slide {fig:het_competencia}{28}}
\@writefile{nav}{\headcommand {\slideentry {3}{0}{12}{28/28}{}{0}}}
\@writefile{nav}{\headcommand {\beamer@framepages {28}{28}}}
\pbs@newkey{pbs@last@page}{29}
\pbs@newkey{pbs@last@page}{30}
\@writefile{nav}{\headcommand {\slideentry {3}{0}{13}{29/30}{}{0}}}
\@writefile{nav}{\headcommand {\beamer@framepages {29}{30}}}
\pbs@newkey{pbs@last@page}{31}
\newlabel{tab:POS_decompose}{{1}{31}{Effect on a drug's price of including the drug to the benefit plan \relax }{Doc-Start}{}}
\@writefile{snm}{\beamer@slide {tab:POS_decompose}{31}}
\@writefile{nav}{\headcommand {\slideentry {3}{0}{14}{31/31}{}{0}}}
\@writefile{nav}{\headcommand {\beamer@framepages {31}{31}}}
\pbs@newkey{pbs@last@page}{32}
\@writefile{toc}{\beamer@sectionintoc {4}{Closing remarks}{32}{0}{4}}
\@writefile{nav}{\headcommand {\sectionentry {4}{Closing remarks}{32}{Closing remarks}{0}}}
\@writefile{nav}{\headcommand {\beamer@sectionpages {17}{31}}}
\@writefile{nav}{\headcommand {\beamer@subsectionpages {17}{31}}}
\@writefile{nav}{\headcommand {\slideentry {4}{0}{1}{32/32}{}{0}}}
\@writefile{nav}{\headcommand {\beamer@framepages {32}{32}}}
\pbs@newkey{pbs@last@page}{33}
\@writefile{nav}{\headcommand {\slideentry {4}{0}{2}{33/33}{}{0}}}
\@writefile{nav}{\headcommand {\beamer@framepages {33}{33}}}
\pbs@newkey{pbs@last@page}{34}
\@writefile{nav}{\headcommand {\slideentry {4}{0}{3}{34/34}{}{0}}}
\@writefile{nav}{\headcommand {\beamer@framepages {34}{34}}}
\pbs@newkey{pbs@last@page}{35}
\pbs@newkey{pbs@last@page}{36}
\pbs@newkey{pbs@last@page}{37}
\pbs@newkey{pbs@last@page}{38}
\pbs@newkey{pbs@last@page}{39}
\@writefile{nav}{\headcommand {\slideentry {4}{0}{4}{35/39}{}{0}}}
\@writefile{nav}{\headcommand {\beamer@framepages {35}{39}}}
\citation{NYT2015}
\pbs@newkey{pbs@last@page}{40}
\@writefile{nav}{\headcommand {\slideentry {4}{0}{5}{40/40}{}{0}}}
\@writefile{nav}{\headcommand {\beamer@framepages {40}{40}}}
\citation{NYT2015c}
\pbs@newkey{pbs@last@page}{41}
\citation{NYT2015c}
\pbs@newkey{pbs@last@page}{42}
\@writefile{nav}{\headcommand {\slideentry {4}{0}{6}{41/42}{}{0}}}
\@writefile{nav}{\headcommand {\beamer@framepages {41}{42}}}
\pbs@newkey{pbs@last@page}{43}
\@writefile{nav}{\headcommand {\slideentry {4}{0}{7}{43/43}{}{0}}}
\@writefile{nav}{\headcommand {\beamer@framepages {43}{43}}}
\bibstyle{apacite}
\bibdata{PharPrice}
\bibcite{Darby1973}{\citeauthoryear {Darby\ \BBA{} Karni}{Darby\ \BBA{} Karni}{{\APACyear {1973}}}}
\APACbibcite{Darby1973}{\citeauthoryear {Darby\ \BBA{} Karni}{Darby\ \BBA{} Karni}{{\APACyear {1973}}}}
\bibcite{Departamento2012}{\citeauthoryear {{Departamento Nacional de Planeacion}}{{Departamento Nacional de Planeacion}}{{\APACyear {2012}}}}
\APACbibcite{Departamento2012}{\citeauthoryear {{Departamento Nacional de Planeacion}}{{Departamento Nacional de Planeacion}}{{\APACyear {2012}}}}
\bibcite{Dulleck2006}{\citeauthoryear {Dulleck\ \BBA{} Kerschbamer}{Dulleck\ \BBA{} Kerschbamer}{{\APACyear {2006}}}}
\APACbibcite{Dulleck2006}{\citeauthoryear {Dulleck\ \BBA{} Kerschbamer}{Dulleck\ \BBA{} Kerschbamer}{{\APACyear {2006}}}}
\bibcite{MSH2012}{\citeauthoryear {{Management Sciences for Health}}{{Management Sciences for Health}}{{\APACyear {2012}}}}
\APACbibcite{MSH2012}{\citeauthoryear {{Management Sciences for Health}}{{Management Sciences for Health}}{{\APACyear {2012}}}}
\bibcite{NYT2015c}{\citeauthoryear {{The New York Times}}{{The New York Times}}{{\APACyear {2015}}{\APACexlab {{\BCnt {1}}}}}}
\APACbibcite{NYT2015c}{\citeauthoryear {{The New York Times}}{{The New York Times}}{{\APACyear {2015}}{\APACexlab {{\BCnt {1}}}}}}
\bibcite{NYT2015}{\citeauthoryear {{The New York Times}}{{The New York Times}}{{\APACyear {2015}}{\APACexlab {{\BCnt {2}}}}}}
\APACbibcite{NYT2015}{\citeauthoryear {{The New York Times}}{{The New York Times}}{{\APACyear {2015}}{\APACexlab {{\BCnt {2}}}}}}
\bibcite{Vacca2011}{\citeauthoryear {Vacca, Acosta,{}\ \BBA{} Rodriguez}{Vacca\ \BOthers {.}}{{\APACyear {2011}}}}
\APACbibcite{Vacca2011}{\citeauthoryear {Vacca, Acosta,{}\ \BBA{} Rodriguez}{Vacca\ \BOthers {.}}{{\APACyear {2011}}}}
\pbs@newkey{pbs@last@page}{44}
\@writefile{nav}{\headcommand {\sectionentry {5}{}{44}{}{0}}}
\@writefile{nav}{\headcommand {\beamer@sectionpages {32}{43}}}
\@writefile{nav}{\headcommand {\beamer@subsectionpages {32}{43}}}
\@writefile{toc}{\contentsline {section}{}}
\@writefile{nav}{\headcommand {\slideentry {5}{0}{0}{44/44}{}{0}}}
\@writefile{nav}{\headcommand {\beamer@framepages {44}{44}}}
\pbs@newkey{pbs@last@page}{45}
\@writefile{nav}{\headcommand {\slideentry {5}{0}{0}{44/45}{}{0}}}
\@writefile{nav}{\headcommand {\beamer@framepages {44}{45}}}
\pbs@newkey{pbs@last@page}{46}
\@writefile{nav}{\headcommand {\partentry {\translate  {Appendix}}{1}}}
\@writefile{nav}{\headcommand {\beamer@partpages {1}{45}}}
\@writefile{nav}{\headcommand {\beamer@sectionpages {32}{45}}}
\@writefile{nav}{\headcommand {\beamer@subsectionpages {32}{45}}}
\@writefile{nav}{\headcommand {\beamer@appendixpages {46}}}
\@writefile{toc}{\beamer@sectionintoc {6}{Theory}{46}{1}{5}}
\@writefile{nav}{\headcommand {\sectionentry {6}{Theory}{46}{Theory}{1}}}
\@writefile{nav}{\headcommand {\beamer@sectionpages {46}{45}}}
\@writefile{nav}{\headcommand {\beamer@subsectionpages {46}{45}}}
\@writefile{nav}{\headcommand {\slideentry {6}{0}{1}{46/46}{}{1}}}
\@writefile{nav}{\headcommand {\beamer@framepages {46}{46}}}
\pbs@newkey{pbs@last@page}{47}
\pbs@newkey{pbs@last@page}{48}
\pbs@newkey{pbs@last@page}{49}
\pbs@newkey{pbs@last@page}{50}
\@writefile{nav}{\headcommand {\slideentry {6}{0}{2}{47/50}{}{1}}}
\@writefile{nav}{\headcommand {\beamer@framepages {47}{50}}}
\pbs@newkey{pbs@last@page}{51}
\@writefile{nav}{\headcommand {\slideentry {6}{0}{3}{51/51}{}{1}}}
\@writefile{nav}{\headcommand {\beamer@framepages {51}{51}}}
\pbs@newkey{pbs@last@page}{52}
\@writefile{toc}{\beamer@sectionintoc {7}{Extra slides: Pharmaceutical prices}{52}{1}{6}}
\@writefile{nav}{\headcommand {\sectionentry {7}{Extra slides: Pharmaceutical prices}{52}{Extra slides: Pharmaceutical prices}{1}}}
\@writefile{nav}{\headcommand {\beamer@sectionpages {46}{51}}}
\@writefile{nav}{\headcommand {\beamer@subsectionpages {46}{51}}}
\@writefile{nav}{\headcommand {\slideentry {7}{0}{1}{52/52}{}{1}}}
\@writefile{nav}{\headcommand {\beamer@framepages {52}{52}}}
\pbs@newkey{pbs@last@page}{53}
\newlabel{sumstat<1>}{{35}{53}{Extra slides: Pharmaceutical prices}{Doc-Start}{}}
\@writefile{snm}{\beamer@slide {sumstat<1>}{53}}
\newlabel{sumstat}{{35}{53}{Extra slides: Pharmaceutical prices}{Doc-Start}{}}
\@writefile{snm}{\beamer@slide {sumstat}{53}}
\newlabel{tab:diff_charac}{{2}{53}{Difference between pharmaceuticals characteristics by how much price information is observed.\relax }{Doc-Start}{}}
\@writefile{snm}{\beamer@slide {tab:diff_charac}{53}}
\@writefile{nav}{\headcommand {\slideentry {7}{0}{2}{53/53}{}{1}}}
\@writefile{nav}{\headcommand {\beamer@framepages {53}{53}}}
\pbs@newkey{pbs@last@page}{54}
\newlabel{sumstat2<1>}{{36}{54}{Extra slides: Pharmaceutical prices}{Doc-Start}{}}
\@writefile{snm}{\beamer@slide {sumstat2<1>}{54}}
\newlabel{sumstat2}{{36}{54}{Extra slides: Pharmaceutical prices}{Doc-Start}{}}
\@writefile{snm}{\beamer@slide {sumstat2}{54}}
\newlabel{tab:descr2}{{3}{54}{Summary statistics for drugs with some observations and a maximum/minimum price ratio under 30\relax }{Doc-Start}{}}
\@writefile{snm}{\beamer@slide {tab:descr2}{54}}
\@writefile{nav}{\headcommand {\slideentry {7}{0}{3}{54/54}{}{1}}}
\@writefile{nav}{\headcommand {\beamer@framepages {54}{54}}}
\citation{Vacca2011}
\citation{Departamento2012}
\pbs@newkey{pbs@last@page}{55}
\newlabel{problemsismed<1>}{{37}{55}{Extra slides: Pharmaceutical prices}{Doc-Start}{}}
\@writefile{snm}{\beamer@slide {problemsismed<1>}{55}}
\newlabel{problemsismed}{{37}{55}{Extra slides: Pharmaceutical prices}{Doc-Start}{}}
\@writefile{snm}{\beamer@slide {problemsismed}{55}}
\@writefile{nav}{\headcommand {\slideentry {7}{0}{4}{55/55}{}{1}}}
\@writefile{nav}{\headcommand {\beamer@framepages {55}{55}}}
\pbs@newkey{pbs@last@page}{56}
\newlabel{reg_timing<1>}{{38}{56}{Extra slides: Pharmaceutical prices}{Doc-Start}{}}
\@writefile{snm}{\beamer@slide {reg_timing<1>}{56}}
\newlabel{reg_timing}{{38}{56}{Extra slides: Pharmaceutical prices}{Doc-Start}{}}
\@writefile{snm}{\beamer@slide {reg_timing}{56}}
\newlabel{tab:timing}{{4}{56}{Timing and other regulatory changes\relax }{Doc-Start}{}}
\@writefile{snm}{\beamer@slide {tab:timing}{56}}
\@writefile{nav}{\headcommand {\slideentry {7}{0}{5}{56/56}{}{1}}}
\@writefile{nav}{\headcommand {\beamer@framepages {56}{56}}}
\pbs@newkey{pbs@last@page}{57}
\newlabel{reg_p<1>}{{39}{57}{Extra slides: Pharmaceutical prices}{Doc-Start}{}}
\@writefile{snm}{\beamer@slide {reg_p<1>}{57}}
\newlabel{reg_p}{{39}{57}{Extra slides: Pharmaceutical prices}{Doc-Start}{}}
\@writefile{snm}{\beamer@slide {reg_p}{57}}
\newlabel{tab:POS}{{5}{57}{Effect on a drug's price of including the drug to the benefit plan \relax }{Doc-Start}{}}
\@writefile{snm}{\beamer@slide {tab:POS}{57}}
\@writefile{nav}{\headcommand {\slideentry {7}{0}{6}{57/57}{}{1}}}
\@writefile{nav}{\headcommand {\beamer@framepages {57}{57}}}
\pbs@newkey{pbs@last@page}{58}
\newlabel{reg_q<1>}{{40}{58}{Extra slides: Pharmaceutical prices}{Doc-Start}{}}
\@writefile{snm}{\beamer@slide {reg_q<1>}{58}}
\newlabel{reg_q}{{40}{58}{Extra slides: Pharmaceutical prices}{Doc-Start}{}}
\@writefile{snm}{\beamer@slide {reg_q}{58}}
\newlabel{tab:POS2}{{6}{58}{Effect of including a drug in the health plan on the quantities sold \relax }{Doc-Start}{}}
\@writefile{snm}{\beamer@slide {tab:POS2}{58}}
\@writefile{nav}{\headcommand {\slideentry {7}{0}{7}{58/58}{}{1}}}
\@writefile{nav}{\headcommand {\beamer@framepages {58}{58}}}
\pbs@newkey{pbs@last@page}{59}
\newlabel{fig2014<1>}{{41}{59}{Extra slides: Pharmaceutical prices}{Doc-Start}{}}
\@writefile{snm}{\beamer@slide {fig2014<1>}{59}}
\newlabel{fig2014}{{41}{59}{Extra slides: Pharmaceutical prices}{Doc-Start}{}}
\@writefile{snm}{\beamer@slide {fig2014}{59}}
\newlabel{fig:eve_pos_price_2011}{{2}{59}{\tiny Event study for the effect of including a pharmaceutical in the POS on its price. \textit {Source:} SISMED and INVIMA. \textit {Calculations:} Author. \relax }{Doc-Start}{}}
\@writefile{snm}{\beamer@slide {fig:eve_pos_price_2011}{59}}
\@writefile{nav}{\headcommand {\slideentry {7}{0}{8}{59/59}{}{1}}}
\@writefile{nav}{\headcommand {\beamer@framepages {59}{59}}}
\pbs@newkey{pbs@last@page}{60}
\newlabel{fig2012<1>}{{42}{60}{Extra slides: Pharmaceutical prices}{Doc-Start}{}}
\@writefile{snm}{\beamer@slide {fig2012<1>}{60}}
\newlabel{fig2012}{{42}{60}{Extra slides: Pharmaceutical prices}{Doc-Start}{}}
\@writefile{snm}{\beamer@slide {fig2012}{60}}
\newlabel{fig:eve_pos_price_2012}{{3}{60}{\tiny Event study for the effect of including a pharmaceutical in the POS on its price. \textit {Source:} SISMED and INVIMA. \textit {Calculations:} Author. \relax }{Doc-Start}{}}
\@writefile{snm}{\beamer@slide {fig:eve_pos_price_2012}{60}}
\@writefile{nav}{\headcommand {\slideentry {7}{0}{9}{60/60}{}{1}}}
\@writefile{nav}{\headcommand {\beamer@framepages {60}{60}}}
\pbs@newkey{pbs@last@page}{61}
\newlabel{fig2014_q<1>}{{43}{61}{Extra slides: Pharmaceutical prices}{Doc-Start}{}}
\@writefile{snm}{\beamer@slide {fig2014_q<1>}{61}}
\newlabel{fig2014_q}{{43}{61}{Extra slides: Pharmaceutical prices}{Doc-Start}{}}
\@writefile{snm}{\beamer@slide {fig2014_q}{61}}
\newlabel{fig:eve_pos_quantity_2011}{{4}{61}{\tiny Event study for the effect of including a pharmaceutical in the POS on its price. \textit {Source:} SISMED and INVIMA. \textit {Calculations:} Author. \relax }{Doc-Start}{}}
\@writefile{snm}{\beamer@slide {fig:eve_pos_quantity_2011}{61}}
\@writefile{nav}{\headcommand {\slideentry {7}{0}{10}{61/61}{}{1}}}
\@writefile{nav}{\headcommand {\beamer@framepages {61}{61}}}
\pbs@newkey{pbs@last@page}{62}
\newlabel{fig2012_q<1>}{{44}{62}{Extra slides: Pharmaceutical prices}{Doc-Start}{}}
\@writefile{snm}{\beamer@slide {fig2012_q<1>}{62}}
\newlabel{fig2012_q}{{44}{62}{Extra slides: Pharmaceutical prices}{Doc-Start}{}}
\@writefile{snm}{\beamer@slide {fig2012_q}{62}}
\newlabel{fig:eve_pos_quantity_2012}{{5}{62}{\tiny Event study for the effect of including a pharmaceutical in the POS on its price. \textit {Source:} SISMED and INVIMA. \textit {Calculations:} Author. \relax }{Doc-Start}{}}
\@writefile{snm}{\beamer@slide {fig:eve_pos_quantity_2012}{62}}
\@writefile{nav}{\headcommand {\slideentry {7}{0}{11}{62/62}{}{1}}}
\@writefile{nav}{\headcommand {\beamer@framepages {62}{62}}}
\pbs@newkey{pbs@last@page}{63}
\newlabel{price_scale<1>}{{45}{63}{Extra slides: Pharmaceutical prices}{Doc-Start}{}}
\@writefile{snm}{\beamer@slide {price_scale<1>}{63}}
\newlabel{price_scale}{{45}{63}{Extra slides: Pharmaceutical prices}{Doc-Start}{}}
\@writefile{snm}{\beamer@slide {price_scale}{63}}
\newlabel{tab:POS_ROB2}{{7}{63}{Effect of including a drug in the health plan for locally produced vs. imported drugs \relax }{Doc-Start}{}}
\@writefile{snm}{\beamer@slide {tab:POS_ROB2}{63}}
\@writefile{nav}{\headcommand {\slideentry {7}{0}{12}{63/63}{}{1}}}
\@writefile{nav}{\headcommand {\beamer@framepages {63}{63}}}
\pbs@newkey{pbs@last@page}{64}
\newlabel{price_otc<1>}{{46}{64}{Extra slides: Pharmaceutical prices}{Doc-Start}{}}
\@writefile{snm}{\beamer@slide {price_otc<1>}{64}}
\newlabel{price_otc}{{46}{64}{Extra slides: Pharmaceutical prices}{Doc-Start}{}}
\@writefile{snm}{\beamer@slide {price_otc}{64}}
\newlabel{tab:POS_ROB5}{{8}{64}{Effect of including a drug in the health plan by OTC/Rx status\relax }{Doc-Start}{}}
\@writefile{snm}{\beamer@slide {tab:POS_ROB5}{64}}
\@writefile{nav}{\headcommand {\slideentry {7}{0}{13}{64/64}{}{1}}}
\@writefile{nav}{\headcommand {\beamer@framepages {64}{64}}}
\pbs@newkey{pbs@last@page}{65}
\newlabel{yearATCFE<1>}{{47}{65}{Extra slides: Pharmaceutical prices}{Doc-Start}{}}
\@writefile{snm}{\beamer@slide {yearATCFE<1>}{65}}
\newlabel{yearATCFE}{{47}{65}{Extra slides: Pharmaceutical prices}{Doc-Start}{}}
\@writefile{snm}{\beamer@slide {yearATCFE}{65}}
\newlabel{fig:eve_pos_pricefe}{{6}{65}{\tiny Event study for the effect of including a pharmaceutical in the POS on its price. \textit {Source:} SISMED and INVIMA. \textit {Calculations:} Author. \relax }{Doc-Start}{}}
\@writefile{snm}{\beamer@slide {fig:eve_pos_pricefe}{65}}
\@writefile{nav}{\headcommand {\slideentry {7}{0}{14}{65/65}{}{1}}}
\@writefile{nav}{\headcommand {\beamer@framepages {65}{65}}}
\pbs@newkey{pbs@last@page}{66}
\newlabel{yearATCFE_Q<1>}{{48}{66}{Extra slides: Pharmaceutical prices}{Doc-Start}{}}
\@writefile{snm}{\beamer@slide {yearATCFE_Q<1>}{66}}
\newlabel{yearATCFE_Q}{{48}{66}{Extra slides: Pharmaceutical prices}{Doc-Start}{}}
\@writefile{snm}{\beamer@slide {yearATCFE_Q}{66}}
\newlabel{fig:eve_pos_qfe}{{7}{66}{\tiny Event study for the effect of including a pharmaceutical in the POS on its price. \textit {Source:} SISMED and INVIMA. \textit {Calculations:} Author. \relax }{Doc-Start}{}}
\@writefile{snm}{\beamer@slide {fig:eve_pos_qfe}{66}}
\@writefile{nav}{\headcommand {\slideentry {7}{0}{15}{66/66}{}{1}}}
\@writefile{nav}{\headcommand {\beamer@framepages {66}{66}}}
\pbs@newkey{pbs@last@page}{67}
\newlabel{groupcompeting<1>}{{49}{67}{Extra slides: Pharmaceutical prices}{Doc-Start}{}}
\@writefile{snm}{\beamer@slide {groupcompeting<1>}{67}}
\newlabel{groupcompeting}{{49}{67}{Extra slides: Pharmaceutical prices}{Doc-Start}{}}
\@writefile{snm}{\beamer@slide {groupcompeting}{67}}
\@writefile{nav}{\headcommand {\slideentry {7}{0}{16}{67/67}{}{1}}}
\@writefile{nav}{\headcommand {\beamer@framepages {67}{67}}}
\@writefile{nav}{\headcommand {\beamer@partpages {46}{67}}}
\@writefile{nav}{\headcommand {\beamer@subsectionpages {52}{67}}}
\@writefile{nav}{\headcommand {\beamer@sectionpages {52}{67}}}
\@writefile{nav}{\headcommand {\beamer@documentpages {67}}}
\@writefile{nav}{\headcommand {\def \inserttotalframenumber {49}}}
