\relax 
\providecommand\hyper@newdestlabel[2]{}
\providecommand\zref@newlabel[2]{}
\providecommand\HyperFirstAtBeginDocument{\AtBeginDocument}
\HyperFirstAtBeginDocument{\ifx\hyper@anchor\@undefined
\global\let\oldcontentsline\contentsline
\gdef\contentsline#1#2#3#4{\oldcontentsline{#1}{#2}{#3}}
\global\let\oldnewlabel\newlabel
\gdef\newlabel#1#2{\newlabelxx{#1}#2}
\gdef\newlabelxx#1#2#3#4#5#6{\oldnewlabel{#1}{{#2}{#3}}}
\AtEndDocument{\ifx\hyper@anchor\@undefined
\let\contentsline\oldcontentsline
\let\newlabel\oldnewlabel
\fi}
\fi}
\global\let\hyper@last\relax 
\gdef\HyperFirstAtBeginDocument#1{#1}
\providecommand\HyField@AuxAddToFields[1]{}
\providecommand\HyField@AuxAddToCoFields[2]{}
\providecommand\AtEndDvi@Check{}
\AtEndDvi@Check
\providecommand \oddpage@label [2]{}
\@writefile{toc}{\beamer@endinputifotherversion {3.36pt}}
\@writefile{nav}{\beamer@endinputifotherversion {3.36pt}}
\@writefile{nav}{\headcommand {\slideentry {0}{0}{1}{1/1}{}{0}}}
\@writefile{nav}{\headcommand {\beamer@framepages {1}{1}}}
\citation{Darby1973}
\citation{MSH2012}
\@writefile{toc}{\beamer@sectionintoc {1}{Motivation}{2}{0}{1}}
\@writefile{nav}{\headcommand {\sectionentry {1}{Motivation}{2}{Motivation}{0}}}
\@writefile{nav}{\headcommand {\beamer@sectionpages {1}{1}}}
\@writefile{nav}{\headcommand {\beamer@subsectionpages {1}{1}}}
\citation{Darby1973}
\citation{MSH2012}
\citation{Darby1973}
\citation{MSH2012}
\citation{Darby1973}
\citation{MSH2012}
\citation{Darby1973}
\citation{MSH2012}
\citation{Darby1973}
\citation{MSH2012}
\citation{Darby1973}
\citation{MSH2012}
\citation{Darby1973}
\citation{MSH2012}
\citation{Darby1973}
\citation{MSH2012}
\citation{Darby1973}
\citation{MSH2012}
\citation{Darby1973}
\citation{MSH2012}
\@writefile{nav}{\headcommand {\slideentry {1}{0}{1}{2/12}{}{0}}}
\@writefile{nav}{\headcommand {\beamer@framepages {2}{12}}}
\@writefile{nav}{\headcommand {\slideentry {1}{0}{2}{13/13}{}{0}}}
\@writefile{nav}{\headcommand {\beamer@framepages {13}{13}}}
\@writefile{nav}{\headcommand {\slideentry {1}{0}{3}{14/17}{}{0}}}
\@writefile{nav}{\headcommand {\beamer@framepages {14}{17}}}
\@writefile{toc}{\beamer@sectionintoc {2}{Background}{18}{0}{2}}
\@writefile{nav}{\headcommand {\sectionentry {2}{Background}{18}{Background}{0}}}
\@writefile{nav}{\headcommand {\beamer@sectionpages {2}{17}}}
\@writefile{nav}{\headcommand {\beamer@subsectionpages {2}{17}}}
\@writefile{nav}{\headcommand {\slideentry {2}{0}{1}{18/18}{}{0}}}
\@writefile{nav}{\headcommand {\beamer@framepages {18}{18}}}
\@writefile{nav}{\headcommand {\slideentry {2}{0}{2}{19/19}{}{0}}}
\@writefile{nav}{\headcommand {\beamer@framepages {19}{19}}}
\@writefile{nav}{\headcommand {\slideentry {2}{0}{3}{20/20}{}{0}}}
\@writefile{nav}{\headcommand {\beamer@framepages {20}{20}}}
\providecommand*\caption@xref[2]{\@setref\relax\@undefined{#1}}
\newlabel{fig:add_pos}{{1}{21}{Number of drugs introduced into the POS by year. \textit {Source:} SISMED and INVIMA. \textit {Calculations:} Author.\relax }{Doc-Start}{}}
\@writefile{snm}{\beamer@slide {fig:add_pos}{21}}
\@writefile{nav}{\headcommand {\slideentry {2}{0}{4}{21/21}{}{0}}}
\@writefile{nav}{\headcommand {\beamer@framepages {21}{21}}}
\@writefile{toc}{\beamer@sectionintoc {3}{Theory}{22}{0}{3}}
\@writefile{nav}{\headcommand {\sectionentry {3}{Theory}{22}{Theory}{0}}}
\@writefile{nav}{\headcommand {\beamer@sectionpages {18}{21}}}
\@writefile{nav}{\headcommand {\beamer@subsectionpages {18}{21}}}
\@writefile{nav}{\headcommand {\slideentry {3}{0}{1}{22/22}{}{0}}}
\@writefile{nav}{\headcommand {\beamer@framepages {22}{22}}}
\@writefile{nav}{\headcommand {\slideentry {3}{0}{2}{23/26}{}{0}}}
\@writefile{nav}{\headcommand {\beamer@framepages {23}{26}}}
\@writefile{nav}{\headcommand {\slideentry {3}{0}{3}{27/27}{}{0}}}
\@writefile{nav}{\headcommand {\beamer@framepages {27}{27}}}
\@writefile{toc}{\beamer@sectionintoc {4}{Empirics}{28}{0}{4}}
\@writefile{nav}{\headcommand {\sectionentry {4}{Empirics}{28}{Empirics}{0}}}
\@writefile{nav}{\headcommand {\beamer@sectionpages {22}{27}}}
\@writefile{nav}{\headcommand {\beamer@subsectionpages {22}{27}}}
\@writefile{nav}{\headcommand {\slideentry {4}{0}{1}{28/28}{}{0}}}
\@writefile{nav}{\headcommand {\beamer@framepages {28}{28}}}
\newlabel{goback0<1>}{{13}{29}{Empirics}{Doc-Start}{}}
\@writefile{snm}{\beamer@slide {goback0<1>}{29}}
\newlabel{goback0}{{13}{29}{Empirics}{Doc-Start}{}}
\@writefile{snm}{\beamer@slide {goback0}{29}}
\@writefile{nav}{\headcommand {\slideentry {4}{0}{2}{29/29}{}{0}}}
\@writefile{nav}{\headcommand {\beamer@framepages {29}{29}}}
\@writefile{nav}{\headcommand {\slideentry {4}{0}{3}{30/30}{}{0}}}
\@writefile{nav}{\headcommand {\beamer@framepages {30}{30}}}
\newlabel{eq:timing}{{6}{31}{Empirics}{Doc-Start}{}}
\@writefile{snm}{\beamer@slide {eq:timing}{31}}
\@writefile{nav}{\headcommand {\slideentry {4}{0}{4}{31/31}{}{0}}}
\@writefile{nav}{\headcommand {\beamer@framepages {31}{31}}}
\newlabel{goback_timing<1>}{{16}{32}{Empirics}{Doc-Start}{}}
\@writefile{snm}{\beamer@slide {goback_timing<1>}{32}}
\newlabel{goback_timing}{{16}{32}{Empirics}{Doc-Start}{}}
\@writefile{snm}{\beamer@slide {goback_timing}{32}}
\newlabel{fig:timing2}{{2}{32}{Competitors\relax }{Doc-Start}{}}
\@writefile{snm}{\beamer@slide {fig:timing2}{32}}
\@writefile{nav}{\headcommand {\slideentry {4}{0}{5}{32/32}{}{0}}}
\@writefile{nav}{\headcommand {\beamer@framepages {32}{32}}}
\newlabel{eq:original}{{6}{33}{Empirics}{Doc-Start}{}}
\@writefile{snm}{\beamer@slide {eq:original}{33}}
\@writefile{nav}{\headcommand {\slideentry {4}{0}{6}{33/33}{}{0}}}
\@writefile{nav}{\headcommand {\beamer@framepages {33}{33}}}
\newlabel{goback1<1>}{{18}{34}{Empirics}{Doc-Start}{}}
\@writefile{snm}{\beamer@slide {goback1<1>}{34}}
\newlabel{goback1}{{18}{34}{Empirics}{Doc-Start}{}}
\@writefile{snm}{\beamer@slide {goback1}{34}}
\newlabel{fig:eve_pos_price}{{3}{34}{\tiny Event study for the effect of including a pharmaceutical in the POS on its price. \textit {Source:} SISMED and INVIMA. \textit {Calculations:} Author. \relax }{Doc-Start}{}}
\@writefile{snm}{\beamer@slide {fig:eve_pos_price}{34}}
\@writefile{nav}{\headcommand {\slideentry {4}{0}{7}{34/34}{}{0}}}
\@writefile{nav}{\headcommand {\beamer@framepages {34}{34}}}
\newlabel{goback2<1>}{{19}{35}{Empirics}{Doc-Start}{}}
\@writefile{snm}{\beamer@slide {goback2<1>}{35}}
\newlabel{goback2}{{19}{35}{Empirics}{Doc-Start}{}}
\@writefile{snm}{\beamer@slide {goback2}{35}}
\newlabel{fig:eve_pos_quantity}{{4}{35}{\tiny Event study for the effect of including a pharmaceutical in the POS on the quantities. \textit {Source:} SISMED and INVIMA. \textit {Calculations:} Author. \relax }{Doc-Start}{}}
\@writefile{snm}{\beamer@slide {fig:eve_pos_quantity}{35}}
\@writefile{nav}{\headcommand {\slideentry {4}{0}{8}{35/35}{}{0}}}
\@writefile{nav}{\headcommand {\beamer@framepages {35}{35}}}
\newlabel{price_competition<1>}{{20}{36}{Empirics}{Doc-Start}{}}
\@writefile{snm}{\beamer@slide {price_competition<1>}{36}}
\newlabel{price_competition}{{20}{36}{Empirics}{Doc-Start}{}}
\@writefile{snm}{\beamer@slide {price_competition}{36}}
\newlabel{tab:POS_ROB3}{{1}{36}{Effect of including a drug in the health plan by competition in the market \relax }{Doc-Start}{}}
\@writefile{snm}{\beamer@slide {tab:POS_ROB3}{36}}
\@writefile{nav}{\headcommand {\slideentry {4}{0}{9}{36/36}{}{0}}}
\@writefile{nav}{\headcommand {\beamer@framepages {36}{36}}}
\newlabel{goback_rob<1>}{{21}{37}{Empirics}{Doc-Start}{}}
\@writefile{snm}{\beamer@slide {goback_rob<1>}{37}}
\newlabel{goback_rob}{{21}{37}{Empirics}{Doc-Start}{}}
\@writefile{snm}{\beamer@slide {goback_rob}{37}}
\@writefile{nav}{\headcommand {\slideentry {4}{0}{10}{37/37}{}{0}}}
\@writefile{nav}{\headcommand {\beamer@framepages {37}{37}}}
\newlabel{eq:NOPOS}{{6}{38}{Empirics}{Doc-Start}{}}
\@writefile{snm}{\beamer@slide {eq:NOPOS}{38}}
\@writefile{nav}{\headcommand {\slideentry {4}{0}{11}{38/38}{}{0}}}
\@writefile{nav}{\headcommand {\beamer@framepages {38}{38}}}
\newlabel{tab:competitors_NOPOS}{{2}{39}{Effect of including a drug in the benefit plan on the price of therapeutic substitutes that are not in the plan\relax }{Doc-Start}{}}
\@writefile{snm}{\beamer@slide {tab:competitors_NOPOS}{39}}
\@writefile{nav}{\headcommand {\slideentry {4}{0}{12}{39/39}{}{0}}}
\@writefile{nav}{\headcommand {\beamer@framepages {39}{39}}}
\@writefile{toc}{\beamer@sectionintoc {5}{Closing remarks}{40}{0}{5}}
\@writefile{nav}{\headcommand {\sectionentry {5}{Closing remarks}{40}{Closing remarks}{0}}}
\@writefile{nav}{\headcommand {\beamer@sectionpages {28}{39}}}
\@writefile{nav}{\headcommand {\beamer@subsectionpages {28}{39}}}
\@writefile{nav}{\headcommand {\slideentry {5}{0}{1}{40/40}{}{0}}}
\@writefile{nav}{\headcommand {\beamer@framepages {40}{40}}}
\citation{NYT2015}
\@writefile{nav}{\headcommand {\slideentry {5}{0}{2}{41/41}{}{0}}}
\@writefile{nav}{\headcommand {\beamer@framepages {41}{41}}}
\@writefile{nav}{\headcommand {\slideentry {5}{0}{3}{42/42}{}{0}}}
\@writefile{nav}{\headcommand {\beamer@framepages {42}{42}}}
\bibstyle{apacite}
\bibdata{PharPrice}
\bibcite{Darby1973}{\citeauthoryear {Darby\ \BBA{} Karni}{Darby\ \BBA{} Karni}{{\APACyear {1973}}}}
\APACbibcite{Darby1973}{\citeauthoryear {Darby\ \BBA{} Karni}{Darby\ \BBA{} Karni}{{\APACyear {1973}}}}
\bibcite{Departamento2012}{\citeauthoryear {{Departamento Nacional de Planeacion}}{{Departamento Nacional de Planeacion}}{{\APACyear {2012}}}}
\APACbibcite{Departamento2012}{\citeauthoryear {{Departamento Nacional de Planeacion}}{{Departamento Nacional de Planeacion}}{{\APACyear {2012}}}}
\bibcite{MSH2012}{\citeauthoryear {{Management Sciences for Health}}{{Management Sciences for Health}}{{\APACyear {2012}}}}
\APACbibcite{MSH2012}{\citeauthoryear {{Management Sciences for Health}}{{Management Sciences for Health}}{{\APACyear {2012}}}}
\bibcite{NYT2015}{\citeauthoryear {{The New York Times}}{{The New York Times}}{{\APACyear {2015}}}}
\APACbibcite{NYT2015}{\citeauthoryear {{The New York Times}}{{The New York Times}}{{\APACyear {2015}}}}
\bibcite{Vacca2011}{\citeauthoryear {Vacca, Acosta,{}\ \BBA{} Rodriguez}{Vacca\ \BOthers {.}}{{\APACyear {2011}}}}
\APACbibcite{Vacca2011}{\citeauthoryear {Vacca, Acosta,{}\ \BBA{} Rodriguez}{Vacca\ \BOthers {.}}{{\APACyear {2011}}}}
\@writefile{nav}{\headcommand {\sectionentry {6}{}{43}{}{0}}}
\@writefile{nav}{\headcommand {\beamer@sectionpages {40}{42}}}
\@writefile{nav}{\headcommand {\beamer@subsectionpages {40}{42}}}
\@writefile{toc}{\contentsline {section}{}}
\@writefile{nav}{\headcommand {\slideentry {6}{0}{0}{43/43}{}{0}}}
\@writefile{nav}{\headcommand {\beamer@framepages {43}{43}}}
\@writefile{nav}{\headcommand {\slideentry {6}{0}{0}{43/44}{}{0}}}
\@writefile{nav}{\headcommand {\beamer@framepages {43}{44}}}
\@writefile{nav}{\headcommand {\partentry {\translate  {Appendix}}{1}}}
\@writefile{nav}{\headcommand {\beamer@partpages {1}{44}}}
\@writefile{nav}{\headcommand {\beamer@sectionpages {40}{44}}}
\@writefile{nav}{\headcommand {\beamer@subsectionpages {40}{44}}}
\@writefile{nav}{\headcommand {\beamer@appendixpages {45}}}
\@writefile{toc}{\beamer@sectionintoc {7}{Extra slides: Pharmaceutical prices}{45}{1}{6}}
\@writefile{nav}{\headcommand {\sectionentry {7}{Extra slides: Pharmaceutical prices}{45}{Extra slides: Pharmaceutical prices}{1}}}
\@writefile{nav}{\headcommand {\beamer@sectionpages {45}{44}}}
\@writefile{nav}{\headcommand {\beamer@subsectionpages {45}{44}}}
\@writefile{nav}{\headcommand {\slideentry {7}{0}{1}{45/45}{}{1}}}
\@writefile{nav}{\headcommand {\beamer@framepages {45}{45}}}
\newlabel{sumstat<1>}{{30}{46}{Extra slides: Pharmaceutical prices}{Doc-Start}{}}
\@writefile{snm}{\beamer@slide {sumstat<1>}{46}}
\newlabel{sumstat}{{30}{46}{Extra slides: Pharmaceutical prices}{Doc-Start}{}}
\@writefile{snm}{\beamer@slide {sumstat}{46}}
\newlabel{tab:diff_charac}{{3}{46}{Difference between pharmaceuticals characteristics by how much price information is observed.\relax }{Doc-Start}{}}
\@writefile{snm}{\beamer@slide {tab:diff_charac}{46}}
\@writefile{nav}{\headcommand {\slideentry {7}{0}{2}{46/46}{}{1}}}
\@writefile{nav}{\headcommand {\beamer@framepages {46}{46}}}
\citation{Vacca2011}
\citation{Departamento2012}
\newlabel{problemsismed<1>}{{31}{47}{Extra slides: Pharmaceutical prices}{Doc-Start}{}}
\@writefile{snm}{\beamer@slide {problemsismed<1>}{47}}
\newlabel{problemsismed}{{31}{47}{Extra slides: Pharmaceutical prices}{Doc-Start}{}}
\@writefile{snm}{\beamer@slide {problemsismed}{47}}
\@writefile{nav}{\headcommand {\slideentry {7}{0}{3}{47/47}{}{1}}}
\@writefile{nav}{\headcommand {\beamer@framepages {47}{47}}}
\newlabel{reg_timing<1>}{{32}{48}{Extra slides: Pharmaceutical prices}{Doc-Start}{}}
\@writefile{snm}{\beamer@slide {reg_timing<1>}{48}}
\newlabel{reg_timing}{{32}{48}{Extra slides: Pharmaceutical prices}{Doc-Start}{}}
\@writefile{snm}{\beamer@slide {reg_timing}{48}}
\newlabel{tab:timing}{{4}{48}{Timing and other regulatory changes\relax }{Doc-Start}{}}
\@writefile{snm}{\beamer@slide {tab:timing}{48}}
\@writefile{nav}{\headcommand {\slideentry {7}{0}{4}{48/48}{}{1}}}
\@writefile{nav}{\headcommand {\beamer@framepages {48}{48}}}
\newlabel{reg_p<1>}{{33}{49}{Extra slides: Pharmaceutical prices}{Doc-Start}{}}
\@writefile{snm}{\beamer@slide {reg_p<1>}{49}}
\newlabel{reg_p}{{33}{49}{Extra slides: Pharmaceutical prices}{Doc-Start}{}}
\@writefile{snm}{\beamer@slide {reg_p}{49}}
\newlabel{tab:POS}{{5}{49}{Effect on a drug's price of including the drug to the benefit plan \relax }{Doc-Start}{}}
\@writefile{snm}{\beamer@slide {tab:POS}{49}}
\@writefile{nav}{\headcommand {\slideentry {7}{0}{5}{49/49}{}{1}}}
\@writefile{nav}{\headcommand {\beamer@framepages {49}{49}}}
\newlabel{reg_q<1>}{{34}{50}{Extra slides: Pharmaceutical prices}{Doc-Start}{}}
\@writefile{snm}{\beamer@slide {reg_q<1>}{50}}
\newlabel{reg_q}{{34}{50}{Extra slides: Pharmaceutical prices}{Doc-Start}{}}
\@writefile{snm}{\beamer@slide {reg_q}{50}}
\newlabel{tab:POS2}{{6}{50}{Effect of including a drug in the health plan on the quantities sold \relax }{Doc-Start}{}}
\@writefile{snm}{\beamer@slide {tab:POS2}{50}}
\@writefile{nav}{\headcommand {\slideentry {7}{0}{6}{50/50}{}{1}}}
\@writefile{nav}{\headcommand {\beamer@framepages {50}{50}}}
\newlabel{fig2011<1>}{{35}{51}{Extra slides: Pharmaceutical prices}{Doc-Start}{}}
\@writefile{snm}{\beamer@slide {fig2011<1>}{51}}
\newlabel{fig2011}{{35}{51}{Extra slides: Pharmaceutical prices}{Doc-Start}{}}
\@writefile{snm}{\beamer@slide {fig2011}{51}}
\newlabel{fig:eve_pos_price_2011}{{5}{51}{\tiny Event study for the effect of including a pharmaceutical in the POS on its price. \textit {Source:} SISMED and INVIMA. \textit {Calculations:} Author. \relax }{Doc-Start}{}}
\@writefile{snm}{\beamer@slide {fig:eve_pos_price_2011}{51}}
\@writefile{nav}{\headcommand {\slideentry {7}{0}{7}{51/51}{}{1}}}
\@writefile{nav}{\headcommand {\beamer@framepages {51}{51}}}
\newlabel{fig2012<1>}{{36}{52}{Extra slides: Pharmaceutical prices}{Doc-Start}{}}
\@writefile{snm}{\beamer@slide {fig2012<1>}{52}}
\newlabel{fig2012}{{36}{52}{Extra slides: Pharmaceutical prices}{Doc-Start}{}}
\@writefile{snm}{\beamer@slide {fig2012}{52}}
\newlabel{fig:eve_pos_price_2012}{{6}{52}{\tiny Event study for the effect of including a pharmaceutical in the POS on its price. \textit {Source:} SISMED and INVIMA. \textit {Calculations:} Author. \relax }{Doc-Start}{}}
\@writefile{snm}{\beamer@slide {fig:eve_pos_price_2012}{52}}
\@writefile{nav}{\headcommand {\slideentry {7}{0}{8}{52/52}{}{1}}}
\@writefile{nav}{\headcommand {\beamer@framepages {52}{52}}}
\newlabel{fig2011_q<1>}{{37}{53}{Extra slides: Pharmaceutical prices}{Doc-Start}{}}
\@writefile{snm}{\beamer@slide {fig2011_q<1>}{53}}
\newlabel{fig2011_q}{{37}{53}{Extra slides: Pharmaceutical prices}{Doc-Start}{}}
\@writefile{snm}{\beamer@slide {fig2011_q}{53}}
\newlabel{fig:eve_pos_quantity_2011}{{7}{53}{\tiny Event study for the effect of including a pharmaceutical in the POS on its price. \textit {Source:} SISMED and INVIMA. \textit {Calculations:} Author. \relax }{Doc-Start}{}}
\@writefile{snm}{\beamer@slide {fig:eve_pos_quantity_2011}{53}}
\@writefile{nav}{\headcommand {\slideentry {7}{0}{9}{53/53}{}{1}}}
\@writefile{nav}{\headcommand {\beamer@framepages {53}{53}}}
\newlabel{fig2012_q<1>}{{38}{54}{Extra slides: Pharmaceutical prices}{Doc-Start}{}}
\@writefile{snm}{\beamer@slide {fig2012_q<1>}{54}}
\newlabel{fig2012_q}{{38}{54}{Extra slides: Pharmaceutical prices}{Doc-Start}{}}
\@writefile{snm}{\beamer@slide {fig2012_q}{54}}
\newlabel{fig:eve_pos_quantity_2012}{{8}{54}{\tiny Event study for the effect of including a pharmaceutical in the POS on its price. \textit {Source:} SISMED and INVIMA. \textit {Calculations:} Author. \relax }{Doc-Start}{}}
\@writefile{snm}{\beamer@slide {fig:eve_pos_quantity_2012}{54}}
\@writefile{nav}{\headcommand {\slideentry {7}{0}{10}{54/54}{}{1}}}
\@writefile{nav}{\headcommand {\beamer@framepages {54}{54}}}
\newlabel{price_scale<1>}{{39}{55}{Extra slides: Pharmaceutical prices}{Doc-Start}{}}
\@writefile{snm}{\beamer@slide {price_scale<1>}{55}}
\newlabel{price_scale}{{39}{55}{Extra slides: Pharmaceutical prices}{Doc-Start}{}}
\@writefile{snm}{\beamer@slide {price_scale}{55}}
\newlabel{tab:POS_ROB2}{{7}{55}{Effect of including a drug in the health plan for locally produced vs. imported drugs \relax }{Doc-Start}{}}
\@writefile{snm}{\beamer@slide {tab:POS_ROB2}{55}}
\@writefile{nav}{\headcommand {\slideentry {7}{0}{11}{55/55}{}{1}}}
\@writefile{nav}{\headcommand {\beamer@framepages {55}{55}}}
\newlabel{price_otc<1>}{{40}{56}{Extra slides: Pharmaceutical prices}{Doc-Start}{}}
\@writefile{snm}{\beamer@slide {price_otc<1>}{56}}
\newlabel{price_otc}{{40}{56}{Extra slides: Pharmaceutical prices}{Doc-Start}{}}
\@writefile{snm}{\beamer@slide {price_otc}{56}}
\newlabel{tab:POS_ROB5}{{8}{56}{Effect of including a drug in the health plan by OTC/Rx status\relax }{Doc-Start}{}}
\@writefile{snm}{\beamer@slide {tab:POS_ROB5}{56}}
\@writefile{nav}{\headcommand {\slideentry {7}{0}{12}{56/56}{}{1}}}
\@writefile{nav}{\headcommand {\beamer@framepages {56}{56}}}
\newlabel{price_generic<1>}{{41}{57}{Extra slides: Pharmaceutical prices}{Doc-Start}{}}
\@writefile{snm}{\beamer@slide {price_generic<1>}{57}}
\newlabel{price_generic}{{41}{57}{Extra slides: Pharmaceutical prices}{Doc-Start}{}}
\@writefile{snm}{\beamer@slide {price_generic}{57}}
\newlabel{tab:POS_ROB6}{{9}{57}{Effect of including a drug in the health plan by generic competition\relax }{Doc-Start}{}}
\@writefile{snm}{\beamer@slide {tab:POS_ROB6}{57}}
\@writefile{nav}{\headcommand {\slideentry {7}{0}{13}{57/57}{}{1}}}
\@writefile{nav}{\headcommand {\beamer@framepages {57}{57}}}
\newlabel{years_mkt<1>}{{42}{58}{Extra slides: Pharmaceutical prices}{Doc-Start}{}}
\@writefile{snm}{\beamer@slide {years_mkt<1>}{58}}
\newlabel{years_mkt}{{42}{58}{Extra slides: Pharmaceutical prices}{Doc-Start}{}}
\@writefile{snm}{\beamer@slide {years_mkt}{58}}
\newlabel{tab:POS_ROB4}{{10}{58}{Effect of including a drug in the health plan by age\relax }{Doc-Start}{}}
\@writefile{snm}{\beamer@slide {tab:POS_ROB4}{58}}
\@writefile{nav}{\headcommand {\slideentry {7}{0}{14}{58/58}{}{1}}}
\@writefile{nav}{\headcommand {\beamer@framepages {58}{58}}}
\@writefile{nav}{\headcommand {\beamer@partpages {45}{58}}}
\@writefile{nav}{\headcommand {\beamer@subsectionpages {45}{58}}}
\@writefile{nav}{\headcommand {\beamer@sectionpages {45}{58}}}
\@writefile{nav}{\headcommand {\beamer@documentpages {58}}}
\@writefile{nav}{\headcommand {\def \inserttotalframenumber {42}}}
\zref@newlabel{LastPage}{\default{7}\page{58}\abspage{58}}
