This is BibTeX, Version 0.99dThe top-level auxiliary file: Romero_PharmaPrices_AEJPolicy.aux
The style file: aea.bst
Database file #1: PharPrice.bib
Warning--entry type for "Semana2014" isn't style-file defined
--line 1295 of file PharPrice.bib
Warning--entry type for "NYT2015" isn't style-file defined
--line 1340 of file PharPrice.bib
Warning--entry type for "NYT2015a" isn't style-file defined
--line 1352 of file PharPrice.bib
Warning--entry type for "NYT2015b" isn't style-file defined
--line 1364 of file PharPrice.bib
Warning--entry type for "NYT2015c" isn't style-file defined
--line 1376 of file PharPrice.bib
Warning--entry type for "WorldBank2013" isn't style-file defined
--line 1489 of file PharPrice.bib
Warning--I didn't find a database entry for ""
Warning--empty journal in Busse2007
Warning--empty publisher in Departamento2012
Warning--empty publisher in UnitedStatesCode2006
(There were 10 warnings)
