This is BibTeX, Version 0.99dThe top-level auxiliary file: Romero_Pharma_Blind.aux
The style file: apacite.bst
Database file #1: PharPrice.bib
Warning--entry type for "Semana2014" isn't style-file defined
--line 1359 of file PharPrice.bib
Warning--entry type for "NYT2015" isn't style-file defined
--line 1404 of file PharPrice.bib
Warning--entry type for "NYT2015a" isn't style-file defined
--line 1416 of file PharPrice.bib
Warning--entry type for "NYT2015b" isn't style-file defined
--line 1428 of file PharPrice.bib
Warning--entry type for "NYT2015c" isn't style-file defined
--line 1440 of file PharPrice.bib
Warning--entry type for "WorldBank2013" isn't style-file defined
--line 1553 of file PharPrice.bib
apacite.bst [2013/07/21 v6.03 APA bibliography style]
Warning--No journal in Busse2007
(There were 7 warnings)
