\beamer@endinputifotherversion {3.36pt}
\beamer@sectionintoc {1}{Motivation}{2}{0}{1}
\beamer@sectionintoc {2}{Background}{20}{0}{2}
\beamer@sectionintoc {3}{Theory}{31}{0}{3}
\beamer@sectionintoc {4}{Empirics}{47}{0}{4}
\beamer@sectionintoc {5}{Closing remarks}{61}{0}{5}
\contentsline {section}{}
\beamer@sectionintoc {7}{Extra slides: Pharmaceutical prices}{70}{1}{6}
