\relax 
\providecommand\hyper@newdestlabel[2]{}
\providecommand\zref@newlabel[2]{}
\providecommand\HyperFirstAtBeginDocument{\AtBeginDocument}
\HyperFirstAtBeginDocument{\ifx\hyper@anchor\@undefined
\global\let\oldcontentsline\contentsline
\gdef\contentsline#1#2#3#4{\oldcontentsline{#1}{#2}{#3}}
\global\let\oldnewlabel\newlabel
\gdef\newlabel#1#2{\newlabelxx{#1}#2}
\gdef\newlabelxx#1#2#3#4#5#6{\oldnewlabel{#1}{{#2}{#3}}}
\AtEndDocument{\ifx\hyper@anchor\@undefined
\let\contentsline\oldcontentsline
\let\newlabel\oldnewlabel
\fi}
\fi}
\global\let\hyper@last\relax 
\gdef\HyperFirstAtBeginDocument#1{#1}
\providecommand\HyField@AuxAddToFields[1]{}
\providecommand\HyField@AuxAddToCoFields[2]{}
\providecommand\AtEndDvi@Check{}
\AtEndDvi@Check
\providecommand \oddpage@label [2]{}
\@writefile{toc}{\beamer@endinputifotherversion {3.36pt}}
\@writefile{nav}{\beamer@endinputifotherversion {3.36pt}}
\@writefile{nav}{\headcommand {\slideentry {0}{0}{1}{1/1}{}{0}}}
\@writefile{nav}{\headcommand {\beamer@framepages {1}{1}}}
\citation{MSH2012}
\@writefile{toc}{\beamer@sectionintoc {1}{Motivation}{2}{0}{1}}
\@writefile{nav}{\headcommand {\sectionentry {1}{Motivation}{2}{Motivation}{0}}}
\@writefile{nav}{\headcommand {\beamer@sectionpages {1}{1}}}
\@writefile{nav}{\headcommand {\beamer@subsectionpages {1}{1}}}
\citation{MSH2012}
\citation{MSH2012}
\citation{MSH2012}
\citation{MSH2012}
\citation{MSH2012}
\citation{MSH2012}
\citation{MSH2012}
\citation{MSH2012}
\citation{MSH2012}
\@writefile{nav}{\headcommand {\slideentry {1}{0}{1}{2/11}{}{0}}}
\@writefile{nav}{\headcommand {\beamer@framepages {2}{11}}}
\@writefile{nav}{\headcommand {\slideentry {1}{0}{2}{12/12}{}{0}}}
\@writefile{nav}{\headcommand {\beamer@framepages {12}{12}}}
\@writefile{nav}{\headcommand {\slideentry {1}{0}{3}{13/13}{}{0}}}
\@writefile{nav}{\headcommand {\beamer@framepages {13}{13}}}
\@writefile{toc}{\beamer@sectionintoc {2}{Background}{14}{0}{2}}
\@writefile{nav}{\headcommand {\sectionentry {2}{Background}{14}{Background}{0}}}
\@writefile{nav}{\headcommand {\beamer@sectionpages {2}{13}}}
\@writefile{nav}{\headcommand {\beamer@subsectionpages {2}{13}}}
\@writefile{nav}{\headcommand {\slideentry {2}{0}{1}{14/14}{}{0}}}
\@writefile{nav}{\headcommand {\beamer@framepages {14}{14}}}
\@writefile{nav}{\headcommand {\slideentry {2}{0}{2}{15/15}{}{0}}}
\@writefile{nav}{\headcommand {\beamer@framepages {15}{15}}}
\@writefile{nav}{\headcommand {\slideentry {2}{0}{3}{16/16}{}{0}}}
\@writefile{nav}{\headcommand {\beamer@framepages {16}{16}}}
\providecommand*\caption@xref[2]{\@setref\relax\@undefined{#1}}
\newlabel{fig:add_pos}{{1}{17}{Number of drugs introduced into the POS by year. \textit {Source:} SISMED and INVIMA. \textit {Calculations:} Author.\relax }{Doc-Start}{}}
\@writefile{snm}{\beamer@slide {fig:add_pos}{17}}
\@writefile{nav}{\headcommand {\slideentry {2}{0}{4}{17/17}{}{0}}}
\@writefile{nav}{\headcommand {\beamer@framepages {17}{17}}}
\@writefile{toc}{\beamer@sectionintoc {3}{Theory}{18}{0}{3}}
\@writefile{nav}{\headcommand {\sectionentry {3}{Theory}{18}{Theory}{0}}}
\@writefile{nav}{\headcommand {\beamer@sectionpages {14}{17}}}
\@writefile{nav}{\headcommand {\beamer@subsectionpages {14}{17}}}
\@writefile{nav}{\headcommand {\slideentry {3}{0}{1}{18/18}{}{0}}}
\@writefile{nav}{\headcommand {\beamer@framepages {18}{18}}}
\@writefile{nav}{\headcommand {\slideentry {3}{0}{2}{19/21}{}{0}}}
\@writefile{nav}{\headcommand {\beamer@framepages {19}{21}}}
\@writefile{nav}{\headcommand {\slideentry {3}{0}{3}{22/22}{}{0}}}
\@writefile{nav}{\headcommand {\beamer@framepages {22}{22}}}
\@writefile{toc}{\beamer@sectionintoc {4}{Empirics}{23}{0}{4}}
\@writefile{nav}{\headcommand {\sectionentry {4}{Empirics}{23}{Empirics}{0}}}
\@writefile{nav}{\headcommand {\beamer@sectionpages {18}{22}}}
\@writefile{nav}{\headcommand {\beamer@subsectionpages {18}{22}}}
\@writefile{nav}{\headcommand {\slideentry {4}{0}{1}{23/23}{}{0}}}
\@writefile{nav}{\headcommand {\beamer@framepages {23}{23}}}
\newlabel{goback0<1>}{{13}{24}{Empirics}{Doc-Start}{}}
\@writefile{snm}{\beamer@slide {goback0<1>}{24}}
\newlabel{goback0}{{13}{24}{Empirics}{Doc-Start}{}}
\@writefile{snm}{\beamer@slide {goback0}{24}}
\@writefile{nav}{\headcommand {\slideentry {4}{0}{2}{24/24}{}{0}}}
\@writefile{nav}{\headcommand {\beamer@framepages {24}{24}}}
\@writefile{nav}{\headcommand {\slideentry {4}{0}{3}{25/25}{}{0}}}
\@writefile{nav}{\headcommand {\beamer@framepages {25}{25}}}
\newlabel{eq:timing}{{1}{26}{Empirics}{Doc-Start}{}}
\@writefile{snm}{\beamer@slide {eq:timing}{26}}
\@writefile{nav}{\headcommand {\slideentry {4}{0}{4}{26/26}{}{0}}}
\@writefile{nav}{\headcommand {\beamer@framepages {26}{26}}}
\newlabel{goback_timing<1>}{{16}{27}{Empirics}{Doc-Start}{}}
\@writefile{snm}{\beamer@slide {goback_timing<1>}{27}}
\newlabel{goback_timing}{{16}{27}{Empirics}{Doc-Start}{}}
\@writefile{snm}{\beamer@slide {goback_timing}{27}}
\newlabel{fig:timing1}{{2a}{27}{Generic\relax }{Doc-Start}{}}
\@writefile{snm}{\beamer@slide {fig:timing1}{27}}
\newlabel{sub@fig:timing1}{{a}{27}{Generic\relax }{Doc-Start}{}}
\@writefile{snm}{\beamer@slide {sub@fig:timing1}{27}}
\newlabel{fig:timing2}{{2b}{27}{Competitors\relax }{Doc-Start}{}}
\@writefile{snm}{\beamer@slide {fig:timing2}{27}}
\newlabel{sub@fig:timing2}{{b}{27}{Competitors\relax }{Doc-Start}{}}
\@writefile{snm}{\beamer@slide {sub@fig:timing2}{27}}
\newlabel{fig:timing3}{{2c}{27}{Price regulation\relax }{Doc-Start}{}}
\@writefile{snm}{\beamer@slide {fig:timing3}{27}}
\newlabel{sub@fig:timing3}{{c}{27}{Price regulation\relax }{Doc-Start}{}}
\@writefile{snm}{\beamer@slide {sub@fig:timing3}{27}}
\@writefile{nav}{\headcommand {\slideentry {4}{0}{5}{27/27}{}{0}}}
\@writefile{nav}{\headcommand {\beamer@framepages {27}{27}}}
\newlabel{eq:original}{{1}{28}{Empirics}{Doc-Start}{}}
\@writefile{snm}{\beamer@slide {eq:original}{28}}
\@writefile{nav}{\headcommand {\slideentry {4}{0}{6}{28/28}{}{0}}}
\@writefile{nav}{\headcommand {\beamer@framepages {28}{28}}}
\newlabel{goback1<1>}{{18}{29}{Empirics}{Doc-Start}{}}
\@writefile{snm}{\beamer@slide {goback1<1>}{29}}
\newlabel{goback1}{{18}{29}{Empirics}{Doc-Start}{}}
\@writefile{snm}{\beamer@slide {goback1}{29}}
\newlabel{fig:eve_pos_price}{{3}{29}{\tiny Event study for the effect of including a pharmaceutical in the POS on its price. \textit {Source:} SISMED and INVIMA. \textit {Calculations:} Author. \relax }{Doc-Start}{}}
\@writefile{snm}{\beamer@slide {fig:eve_pos_price}{29}}
\@writefile{nav}{\headcommand {\slideentry {4}{0}{7}{29/29}{}{0}}}
\@writefile{nav}{\headcommand {\beamer@framepages {29}{29}}}
\newlabel{goback2<1>}{{19}{30}{Empirics}{Doc-Start}{}}
\@writefile{snm}{\beamer@slide {goback2<1>}{30}}
\newlabel{goback2}{{19}{30}{Empirics}{Doc-Start}{}}
\@writefile{snm}{\beamer@slide {goback2}{30}}
\newlabel{fig:eve_pos_quantity}{{4}{30}{\tiny Event study for the effect of including a pharmaceutical in the POS on the quantities. \textit {Source:} SISMED and INVIMA. \textit {Calculations:} Author. \relax }{Doc-Start}{}}
\@writefile{snm}{\beamer@slide {fig:eve_pos_quantity}{30}}
\@writefile{nav}{\headcommand {\slideentry {4}{0}{8}{30/30}{}{0}}}
\@writefile{nav}{\headcommand {\beamer@framepages {30}{30}}}
\newlabel{eq:NOPOS}{{1}{31}{Empirics}{Doc-Start}{}}
\@writefile{snm}{\beamer@slide {eq:NOPOS}{31}}
\@writefile{nav}{\headcommand {\slideentry {4}{0}{9}{31/31}{}{0}}}
\@writefile{nav}{\headcommand {\beamer@framepages {31}{31}}}
\newlabel{tab:competitors_NOPOS}{{1}{32}{Effect of including a drug in the benefit plan on the price of therapeutic substitutes that are not in the plan\relax }{Doc-Start}{}}
\@writefile{snm}{\beamer@slide {tab:competitors_NOPOS}{32}}
\@writefile{nav}{\headcommand {\slideentry {4}{0}{10}{32/32}{}{0}}}
\@writefile{nav}{\headcommand {\beamer@framepages {32}{32}}}
\newlabel{eq:POS}{{1}{33}{Empirics}{Doc-Start}{}}
\@writefile{snm}{\beamer@slide {eq:POS}{33}}
\@writefile{nav}{\headcommand {\slideentry {4}{0}{11}{33/33}{}{0}}}
\@writefile{nav}{\headcommand {\beamer@framepages {33}{33}}}
\newlabel{tab:competitors_POS}{{2}{34}{Effect of including a drug in the benefit plan on the price of therapeutic substitutes that are not in the plan\relax }{Doc-Start}{}}
\@writefile{snm}{\beamer@slide {tab:competitors_POS}{34}}
\@writefile{nav}{\headcommand {\slideentry {4}{0}{12}{34/34}{}{0}}}
\@writefile{nav}{\headcommand {\beamer@framepages {34}{34}}}
\@writefile{toc}{\beamer@sectionintoc {5}{Closing remarks}{35}{0}{5}}
\@writefile{nav}{\headcommand {\sectionentry {5}{Closing remarks}{35}{Closing remarks}{0}}}
\@writefile{nav}{\headcommand {\beamer@sectionpages {23}{34}}}
\@writefile{nav}{\headcommand {\beamer@subsectionpages {23}{34}}}
\@writefile{nav}{\headcommand {\slideentry {5}{0}{1}{35/35}{}{0}}}
\@writefile{nav}{\headcommand {\beamer@framepages {35}{35}}}
\citation{NYT2015c}
\@writefile{nav}{\headcommand {\slideentry {5}{0}{2}{36/36}{}{0}}}
\@writefile{nav}{\headcommand {\beamer@framepages {36}{36}}}
\@writefile{nav}{\headcommand {\slideentry {5}{0}{3}{37/37}{}{0}}}
\@writefile{nav}{\headcommand {\beamer@framepages {37}{37}}}
\bibstyle{apacite}
\bibdata{PharPrice}
\bibcite{Departamento2012}{\citeauthoryear {{Departamento Nacional de Planeacion}}{{Departamento Nacional de Planeacion}}{{\APACyear {2012}}}}
\APACbibcite{Departamento2012}{\citeauthoryear {{Departamento Nacional de Planeacion}}{{Departamento Nacional de Planeacion}}{{\APACyear {2012}}}}
\bibcite{MSH2012}{\citeauthoryear {{Management Sciences for Health}}{{Management Sciences for Health}}{{\APACyear {2012}}}}
\APACbibcite{MSH2012}{\citeauthoryear {{Management Sciences for Health}}{{Management Sciences for Health}}{{\APACyear {2012}}}}
\bibcite{NYT2015c}{\citeauthoryear {{The New York Times}}{{The New York Times}}{{\APACyear {2015}}}}
\APACbibcite{NYT2015c}{\citeauthoryear {{The New York Times}}{{The New York Times}}{{\APACyear {2015}}}}
\bibcite{Vacca2011}{\citeauthoryear {Vacca, Acosta,{}\ \BBA{} Rodriguez}{Vacca\ \BOthers {.}}{{\APACyear {2011}}}}
\APACbibcite{Vacca2011}{\citeauthoryear {Vacca, Acosta,{}\ \BBA{} Rodriguez}{Vacca\ \BOthers {.}}{{\APACyear {2011}}}}
\@writefile{nav}{\headcommand {\sectionentry {6}{}{38}{}{0}}}
\@writefile{nav}{\headcommand {\beamer@sectionpages {35}{37}}}
\@writefile{nav}{\headcommand {\beamer@subsectionpages {35}{37}}}
\@writefile{toc}{\contentsline {section}{}}
\@writefile{nav}{\headcommand {\slideentry {6}{0}{0}{38/38}{}{0}}}
\@writefile{nav}{\headcommand {\beamer@framepages {38}{38}}}
\@writefile{nav}{\headcommand {\slideentry {6}{0}{0}{38/39}{}{0}}}
\@writefile{nav}{\headcommand {\beamer@framepages {38}{39}}}
\@writefile{nav}{\headcommand {\partentry {\translate  {Appendix}}{1}}}
\@writefile{nav}{\headcommand {\beamer@partpages {1}{39}}}
\@writefile{nav}{\headcommand {\beamer@sectionpages {35}{39}}}
\@writefile{nav}{\headcommand {\beamer@subsectionpages {35}{39}}}
\@writefile{nav}{\headcommand {\beamer@appendixpages {40}}}
\@writefile{toc}{\beamer@sectionintoc {7}{Extra slides: Pharmaceutical prices}{40}{1}{6}}
\@writefile{nav}{\headcommand {\sectionentry {7}{Extra slides: Pharmaceutical prices}{40}{Extra slides: Pharmaceutical prices}{1}}}
\@writefile{nav}{\headcommand {\beamer@sectionpages {40}{39}}}
\@writefile{nav}{\headcommand {\beamer@subsectionpages {40}{39}}}
\@writefile{nav}{\headcommand {\slideentry {7}{0}{1}{40/40}{}{1}}}
\@writefile{nav}{\headcommand {\beamer@framepages {40}{40}}}
\newlabel{sumstat<1>}{{30}{41}{Extra slides: Pharmaceutical prices}{Doc-Start}{}}
\@writefile{snm}{\beamer@slide {sumstat<1>}{41}}
\newlabel{sumstat}{{30}{41}{Extra slides: Pharmaceutical prices}{Doc-Start}{}}
\@writefile{snm}{\beamer@slide {sumstat}{41}}
\newlabel{tab:diff_charac}{{3}{41}{Difference between pharmaceuticals characteristics by how much price information is observed.\relax }{Doc-Start}{}}
\@writefile{snm}{\beamer@slide {tab:diff_charac}{41}}
\@writefile{nav}{\headcommand {\slideentry {7}{0}{2}{41/41}{}{1}}}
\@writefile{nav}{\headcommand {\beamer@framepages {41}{41}}}
\newlabel{sumstat2<1>}{{31}{42}{Extra slides: Pharmaceutical prices}{Doc-Start}{}}
\@writefile{snm}{\beamer@slide {sumstat2<1>}{42}}
\newlabel{sumstat2}{{31}{42}{Extra slides: Pharmaceutical prices}{Doc-Start}{}}
\@writefile{snm}{\beamer@slide {sumstat2}{42}}
\newlabel{tab:descr2}{{4}{42}{Summary statistics for drugs with some observations and a maximum/minimum price ratio under 30\relax }{Doc-Start}{}}
\@writefile{snm}{\beamer@slide {tab:descr2}{42}}
\@writefile{nav}{\headcommand {\slideentry {7}{0}{3}{42/42}{}{1}}}
\@writefile{nav}{\headcommand {\beamer@framepages {42}{42}}}
\citation{Vacca2011}
\citation{Departamento2012}
\newlabel{problemsismed<1>}{{32}{43}{Extra slides: Pharmaceutical prices}{Doc-Start}{}}
\@writefile{snm}{\beamer@slide {problemsismed<1>}{43}}
\newlabel{problemsismed}{{32}{43}{Extra slides: Pharmaceutical prices}{Doc-Start}{}}
\@writefile{snm}{\beamer@slide {problemsismed}{43}}
\@writefile{nav}{\headcommand {\slideentry {7}{0}{4}{43/43}{}{1}}}
\@writefile{nav}{\headcommand {\beamer@framepages {43}{43}}}
\newlabel{reg_timing<1>}{{33}{44}{Extra slides: Pharmaceutical prices}{Doc-Start}{}}
\@writefile{snm}{\beamer@slide {reg_timing<1>}{44}}
\newlabel{reg_timing}{{33}{44}{Extra slides: Pharmaceutical prices}{Doc-Start}{}}
\@writefile{snm}{\beamer@slide {reg_timing}{44}}
\newlabel{tab:timing}{{5}{44}{Timing and other regulatory changes\relax }{Doc-Start}{}}
\@writefile{snm}{\beamer@slide {tab:timing}{44}}
\@writefile{nav}{\headcommand {\slideentry {7}{0}{5}{44/44}{}{1}}}
\@writefile{nav}{\headcommand {\beamer@framepages {44}{44}}}
\newlabel{reg_p<1>}{{34}{45}{Extra slides: Pharmaceutical prices}{Doc-Start}{}}
\@writefile{snm}{\beamer@slide {reg_p<1>}{45}}
\newlabel{reg_p}{{34}{45}{Extra slides: Pharmaceutical prices}{Doc-Start}{}}
\@writefile{snm}{\beamer@slide {reg_p}{45}}
\newlabel{tab:POS}{{6}{45}{Effect on a drug's price of including the drug to the benefit plan \relax }{Doc-Start}{}}
\@writefile{snm}{\beamer@slide {tab:POS}{45}}
\@writefile{nav}{\headcommand {\slideentry {7}{0}{6}{45/45}{}{1}}}
\@writefile{nav}{\headcommand {\beamer@framepages {45}{45}}}
\newlabel{reg_q<1>}{{35}{46}{Extra slides: Pharmaceutical prices}{Doc-Start}{}}
\@writefile{snm}{\beamer@slide {reg_q<1>}{46}}
\newlabel{reg_q}{{35}{46}{Extra slides: Pharmaceutical prices}{Doc-Start}{}}
\@writefile{snm}{\beamer@slide {reg_q}{46}}
\newlabel{tab:POS2}{{7}{46}{Effect of including a drug in the health plan on the quantities sold \relax }{Doc-Start}{}}
\@writefile{snm}{\beamer@slide {tab:POS2}{46}}
\@writefile{nav}{\headcommand {\slideentry {7}{0}{7}{46/46}{}{1}}}
\@writefile{nav}{\headcommand {\beamer@framepages {46}{46}}}
\newlabel{fig2011<1>}{{36}{47}{Extra slides: Pharmaceutical prices}{Doc-Start}{}}
\@writefile{snm}{\beamer@slide {fig2011<1>}{47}}
\newlabel{fig2011}{{36}{47}{Extra slides: Pharmaceutical prices}{Doc-Start}{}}
\@writefile{snm}{\beamer@slide {fig2011}{47}}
\newlabel{fig:eve_pos_price_2011}{{5}{47}{\tiny Event study for the effect of including a pharmaceutical in the POS on its price. \textit {Source:} SISMED and INVIMA. \textit {Calculations:} Author. \relax }{Doc-Start}{}}
\@writefile{snm}{\beamer@slide {fig:eve_pos_price_2011}{47}}
\@writefile{nav}{\headcommand {\slideentry {7}{0}{8}{47/47}{}{1}}}
\@writefile{nav}{\headcommand {\beamer@framepages {47}{47}}}
\newlabel{fig2012<1>}{{37}{48}{Extra slides: Pharmaceutical prices}{Doc-Start}{}}
\@writefile{snm}{\beamer@slide {fig2012<1>}{48}}
\newlabel{fig2012}{{37}{48}{Extra slides: Pharmaceutical prices}{Doc-Start}{}}
\@writefile{snm}{\beamer@slide {fig2012}{48}}
\newlabel{fig:eve_pos_price_2012}{{6}{48}{\tiny Event study for the effect of including a pharmaceutical in the POS on its price. \textit {Source:} SISMED and INVIMA. \textit {Calculations:} Author. \relax }{Doc-Start}{}}
\@writefile{snm}{\beamer@slide {fig:eve_pos_price_2012}{48}}
\@writefile{nav}{\headcommand {\slideentry {7}{0}{9}{48/48}{}{1}}}
\@writefile{nav}{\headcommand {\beamer@framepages {48}{48}}}
\newlabel{fig2011_q<1>}{{38}{49}{Extra slides: Pharmaceutical prices}{Doc-Start}{}}
\@writefile{snm}{\beamer@slide {fig2011_q<1>}{49}}
\newlabel{fig2011_q}{{38}{49}{Extra slides: Pharmaceutical prices}{Doc-Start}{}}
\@writefile{snm}{\beamer@slide {fig2011_q}{49}}
\newlabel{fig:eve_pos_quantity_2011}{{7}{49}{\tiny Event study for the effect of including a pharmaceutical in the POS on its price. \textit {Source:} SISMED and INVIMA. \textit {Calculations:} Author. \relax }{Doc-Start}{}}
\@writefile{snm}{\beamer@slide {fig:eve_pos_quantity_2011}{49}}
\@writefile{nav}{\headcommand {\slideentry {7}{0}{10}{49/49}{}{1}}}
\@writefile{nav}{\headcommand {\beamer@framepages {49}{49}}}
\newlabel{fig2012_q<1>}{{39}{50}{Extra slides: Pharmaceutical prices}{Doc-Start}{}}
\@writefile{snm}{\beamer@slide {fig2012_q<1>}{50}}
\newlabel{fig2012_q}{{39}{50}{Extra slides: Pharmaceutical prices}{Doc-Start}{}}
\@writefile{snm}{\beamer@slide {fig2012_q}{50}}
\newlabel{fig:eve_pos_quantity_2012}{{8}{50}{\tiny Event study for the effect of including a pharmaceutical in the POS on its price. \textit {Source:} SISMED and INVIMA. \textit {Calculations:} Author. \relax }{Doc-Start}{}}
\@writefile{snm}{\beamer@slide {fig:eve_pos_quantity_2012}{50}}
\@writefile{nav}{\headcommand {\slideentry {7}{0}{11}{50/50}{}{1}}}
\@writefile{nav}{\headcommand {\beamer@framepages {50}{50}}}
\newlabel{price_scale<1>}{{40}{51}{Extra slides: Pharmaceutical prices}{Doc-Start}{}}
\@writefile{snm}{\beamer@slide {price_scale<1>}{51}}
\newlabel{price_scale}{{40}{51}{Extra slides: Pharmaceutical prices}{Doc-Start}{}}
\@writefile{snm}{\beamer@slide {price_scale}{51}}
\newlabel{tab:POS_ROB2}{{8}{51}{Effect of including a drug in the health plan for locally produced vs. imported drugs \relax }{Doc-Start}{}}
\@writefile{snm}{\beamer@slide {tab:POS_ROB2}{51}}
\@writefile{nav}{\headcommand {\slideentry {7}{0}{12}{51/51}{}{1}}}
\@writefile{nav}{\headcommand {\beamer@framepages {51}{51}}}
\newlabel{years_mkt<1>}{{41}{52}{Extra slides: Pharmaceutical prices}{Doc-Start}{}}
\@writefile{snm}{\beamer@slide {years_mkt<1>}{52}}
\newlabel{years_mkt}{{41}{52}{Extra slides: Pharmaceutical prices}{Doc-Start}{}}
\@writefile{snm}{\beamer@slide {years_mkt}{52}}
\newlabel{tab:POS_ROB3}{{9}{52}{Effect of including a drug in the health plan by age\relax }{Doc-Start}{}}
\@writefile{snm}{\beamer@slide {tab:POS_ROB3}{52}}
\@writefile{nav}{\headcommand {\slideentry {7}{0}{13}{52/52}{}{1}}}
\@writefile{nav}{\headcommand {\beamer@framepages {52}{52}}}
\@writefile{nav}{\headcommand {\beamer@partpages {40}{52}}}
\@writefile{nav}{\headcommand {\beamer@subsectionpages {40}{52}}}
\@writefile{nav}{\headcommand {\beamer@sectionpages {40}{52}}}
\@writefile{nav}{\headcommand {\beamer@documentpages {52}}}
\@writefile{nav}{\headcommand {\def \inserttotalframenumber {41}}}
\zref@newlabel{LastPage}{\default{7}\page{52}\abspage{52}}
