\relax 
\providecommand\hyper@newdestlabel[2]{}
\providecommand\HyperFirstAtBeginDocument{\AtBeginDocument}
\HyperFirstAtBeginDocument{\ifx\hyper@anchor\@undefined
\global\let\oldcontentsline\contentsline
\gdef\contentsline#1#2#3#4{\oldcontentsline{#1}{#2}{#3}}
\global\let\oldnewlabel\newlabel
\gdef\newlabel#1#2{\newlabelxx{#1}#2}
\gdef\newlabelxx#1#2#3#4#5#6{\oldnewlabel{#1}{{#2}{#3}}}
\AtEndDocument{\ifx\hyper@anchor\@undefined
\let\contentsline\oldcontentsline
\let\newlabel\oldnewlabel
\fi}
\fi}
\global\let\hyper@last\relax 
\gdef\HyperFirstAtBeginDocument#1{#1}
\providecommand\HyField@AuxAddToFields[1]{}
\providecommand\HyField@AuxAddToCoFields[2]{}
\babel@aux{english}{}
\citation{Roberts2011}
\citation{MSH2012}
\citation{MSH2012}
\citation{Arrow1963}
\citation{Busse2007}
\citation{WorldBank2013}
\citation{Giedion2014}
\citation{Duggan2006}
\@writefile{toc}{\contentsline {section}{\numberline {1}Introduction}{1}{section.1}\protected@file@percent }
\citation{Giedion2009}
\citation{Brown2014}
\citation{Leu2009}
\citation{Duggan2010}
\citation{Duggan2010}
\citation{Duggan2006}
\citation{Clemens2013}
\citation{Brekke2011}
\citation{Clemens2014}
\citation{Iizuka2012}
\citation{Gruber1996}
\citation{Webster2012}
\citation{UnitedStatesCode2006}
\@writefile{toc}{\contentsline {section}{\numberline {2}Background, institutions, and incentives}{5}{section.2}\protected@file@percent }
\@writefile{toc}{\contentsline {subsection}{\numberline {2.1}Terminology}{5}{subsection.2.1}\protected@file@percent }
\citation{Gaviria2013}
\citation{Giedion2009}
\@writefile{toc}{\contentsline {subsection}{\numberline {2.2}Background}{7}{subsection.2.2}\protected@file@percent }
\newlabel{sec:background}{{2.2}{7}{Background}{subsection.2.2}{}}
\citation{CONSEJONACIONALDESEGURIDADSOCIALENSALUD2006}
\citation{CONSEJONACIONALDESEGURIDADSOCIALENSALUD2006a}
\citation{CONSEJONACIONALDESEGURIDADSOCIALENSALUD2007a}
\citation{CONSEJONACIONALDESEGURIDADSOCIALENSALUD2007}
\citation{COMISINDEREGULACINENSALUD2009}
\citation{COMISINDEREGULACINENSALUD2009a}
\citation{COMISINDEREGULACINENSALUD2010}
\citation{COMISINDEREGULACINENSALUD2011}
\citation{COMISINDEREGULACINENSALUD2011a}
\citation{COMISINDEREGULACINENSALUD2011b}
\citation{COMISINDEREGULACINENSALUD2012}
\citation{MINISTERIODESALUDYPROTECCINSOCIAL2013}
\citation{MINISTERIODESALUDYPROTECCINSOCIAL2014}
\citation{MINISTERIODESALUDYPROTECCINSOCIAL2015}
\citation{CONSEJONACIONALDESEGURIDADSOCIALENSALUD2006}
\citation{CONSEJONACIONALDESEGURIDADSOCIALENSALUD2006a}
\citation{CONSEJONACIONALDESEGURIDADSOCIALENSALUD2007a}
\citation{CONSEJONACIONALDESEGURIDADSOCIALENSALUD2007}
\citation{COMISINDEREGULACINENSALUD2009}
\citation{COMISINDEREGULACINENSALUD2009a}
\citation{COMISINDEREGULACINENSALUD2010}
\citation{COMISINDEREGULACINENSALUD2011}
\citation{COMISINDEREGULACINENSALUD2011a}
\citation{COMISINDEREGULACINENSALUD2011b}
\citation{COMISINDEREGULACINENSALUD2012}
\citation{MINISTERIODESALUDYPROTECCINSOCIAL2013}
\citation{MINISTERIODESALUDYPROTECCINSOCIAL2014}
\citation{MINISTERIODESALUDYPROTECCINSOCIAL2015}
\citation{RePEc:col:000094:014087}
\citation{Duggan2010}
\citation{Clemens2014}
\citation{Castano2006}
\citation{GomezSuarez2007}
\citation{Brown2014}
\citation{Shepard2015}
\@writefile{lof}{\contentsline {figure}{\numberline {1}{\ignorespaces Drugs added to the benefit each year.\relax }}{9}{figure.caption.1}\protected@file@percent }
\providecommand*\caption@xref[2]{\@setref\relax\@undefined{#1}}
\newlabel{fig:add_pos}{{1}{9}{Drugs added to the benefit each year.\relax }{figure.caption.1}{}}
\citation{Arrow1963}
\citation{Semana2014}
\citation{Clemens2014}
\citation{Iizuka2012}
\citation{Iizuka2007}
\citation{Gruber1996}
\@writefile{toc}{\contentsline {subsection}{\numberline {2.3}Incentives}{10}{subsection.2.3}\protected@file@percent }
\@writefile{toc}{\contentsline {section}{\numberline {3}Theory}{11}{section.3}\protected@file@percent }
\newlabel{sec:theory}{{3}{11}{Theory}{section.3}{}}
\@writefile{toc}{\contentsline {subsection}{\numberline {3.1}Basic model}{11}{subsection.3.1}\protected@file@percent }
\newlabel{eq:price}{{10}{12}{Basic model}{equation.3.10}{}}
\citation{Milgrom1990}
\@writefile{toc}{\contentsline {subsection}{\numberline {3.2}Comparative statics}{13}{subsection.3.2}\protected@file@percent }
\citation{Vacca2011}
\citation{Departamento2012}
\citation{Zapata2012}
\citation{Vacca2011}
\citation{Departamento2012}
\@writefile{toc}{\contentsline {section}{\numberline {4}Data}{14}{section.4}\protected@file@percent }
\newlabel{sec:dat}{{4}{14}{Data}{section.4}{}}
\@writefile{toc}{\contentsline {subsection}{\numberline {4.1}Summary statistics}{15}{subsection.4.1}\protected@file@percent }
\@writefile{lot}{\contentsline {table}{\numberline {1}{\ignorespaces Summary statistics for drugs with some observations and a maximum/minimum price ratio under 30\relax }}{17}{table.caption.2}\protected@file@percent }
\newlabel{tab:descr2}{{1}{17}{Summary statistics for drugs with some observations and a maximum/minimum price ratio under 30\relax }{table.caption.2}{}}
\@writefile{toc}{\contentsline {section}{\numberline {5}Empirical analysis}{17}{section.5}\protected@file@percent }
\newlabel{sec:emp}{{5}{17}{Empirical analysis}{section.5}{}}
\@writefile{toc}{\contentsline {subsection}{\numberline {5.1}Timing of inclusion in the benefit plan}{17}{subsection.5.1}\protected@file@percent }
\newlabel{sec:timing}{{5.1}{17}{Timing of inclusion in the benefit plan}{subsection.5.1}{}}
\@writefile{lof}{\contentsline {figure}{\numberline {2}{\ignorespaces Endogenous timing of inclusion\relax }}{19}{figure.caption.4}\protected@file@percent }
\newlabel{fig:timing1}{{2a}{19}{Generic\relax }{figure.caption.4}{}}
\newlabel{sub@fig:timing1}{{a}{19}{Generic\relax }{figure.caption.4}{}}
\newlabel{fig:timing3}{{2b}{19}{Price regulation\relax }{figure.caption.4}{}}
\newlabel{sub@fig:timing3}{{b}{19}{Price regulation\relax }{figure.caption.4}{}}
\newlabel{fig:timing2}{{2c}{19}{Competitors\relax }{figure.caption.4}{}}
\newlabel{sub@fig:timing2}{{c}{19}{Competitors\relax }{figure.caption.4}{}}
\@writefile{lot}{\contentsline {table}{\numberline {2}{\ignorespaces Timing and other regulatory changes\relax }}{20}{table.caption.5}\protected@file@percent }
\newlabel{tab:timing}{{2}{20}{Timing and other regulatory changes\relax }{table.caption.5}{}}
\@writefile{toc}{\contentsline {subsection}{\numberline {5.2}Net effect on prices and drug sales}{21}{subsection.5.2}\protected@file@percent }
\newlabel{eq:original}{{23}{21}{Net effect on prices and drug sales}{equation.5.23}{}}
\@writefile{lot}{\contentsline {table}{\numberline {3}{\ignorespaces Effect of benefit plan inclusion on price \relax }}{22}{table.caption.7}\protected@file@percent }
\newlabel{tab:POS}{{3}{22}{Effect of benefit plan inclusion on price \relax }{table.caption.7}{}}
\@writefile{lot}{\contentsline {table}{\numberline {4}{\ignorespaces Effect of benefit plan inclusion on quantities sold \relax }}{23}{table.caption.9}\protected@file@percent }
\newlabel{tab:POS2}{{4}{23}{Effect of benefit plan inclusion on quantities sold \relax }{table.caption.9}{}}
\@writefile{lot}{\contentsline {table}{\numberline {5}{\ignorespaces Effect of benefit plan inclusion on market concentration \relax }}{24}{table.caption.11}\protected@file@percent }
\newlabel{tab:POS3}{{5}{24}{Effect of benefit plan inclusion on market concentration \relax }{table.caption.11}{}}
\@writefile{toc}{\contentsline {subsection}{\numberline {5.3}Event studies}{24}{subsection.5.3}\protected@file@percent }
\newlabel{sec:event}{{5.3}{24}{Event studies}{subsection.5.3}{}}
\newlabel{fig:eve_pos_price}{{3a}{25}{Price\relax }{figure.caption.13}{}}
\newlabel{sub@fig:eve_pos_price}{{a}{25}{Price\relax }{figure.caption.13}{}}
\newlabel{fig:eve_pos_quantity}{{3b}{25}{Quantity\relax }{figure.caption.13}{}}
\newlabel{sub@fig:eve_pos_quantity}{{b}{25}{Quantity\relax }{figure.caption.13}{}}
\@writefile{lof}{\contentsline {figure}{\numberline {3}{\ignorespaces Event studies\relax }}{25}{figure.caption.13}\protected@file@percent }
\@writefile{toc}{\contentsline {subsection}{\numberline {5.4}Other robustness checks}{26}{subsection.5.4}\protected@file@percent }
\@writefile{lot}{\contentsline {table}{\numberline {6}{\ignorespaces Effect of including a drug in the health plan for locally produced vs. imported drugs \relax }}{27}{table.caption.14}\protected@file@percent }
\newlabel{tab:POS_ROB2}{{6}{27}{Effect of including a drug in the health plan for locally produced vs. imported drugs \relax }{table.caption.14}{}}
\@writefile{lot}{\contentsline {table}{\numberline {7}{\ignorespaces Effect of including a drug in the health plan for over-the-counter (OTC) vs. prescription (Rx) drugs\relax }}{28}{table.caption.16}\protected@file@percent }
\newlabel{tab:POS_ROB5}{{7}{28}{Effect of including a drug in the health plan for over-the-counter (OTC) vs. prescription (Rx) drugs\relax }{table.caption.16}{}}
\@writefile{toc}{\contentsline {subsection}{\numberline {5.5}Competition and listed drugs}{28}{subsection.5.5}\protected@file@percent }
\newlabel{eq:het_competencia}{{25}{29}{Competition and listed drugs}{equation.5.25}{}}
\@writefile{lof}{\contentsline {figure}{\numberline {4}{\ignorespaces The effect of competition\relax }}{29}{figure.caption.18}\protected@file@percent }
\newlabel{fig:het_competencia}{{4}{29}{The effect of competition\relax }{figure.caption.18}{}}
\@writefile{toc}{\contentsline {subsection}{\numberline {5.6}Effect on therapeutic substitutes}{29}{subsection.5.6}\protected@file@percent }
\@writefile{lot}{\contentsline {table}{\numberline {8}{\ignorespaces Effect of including a drug in the benefit plan on the price of therapeutic substitutes which are not in the plan\relax }}{30}{table.caption.19}\protected@file@percent }
\newlabel{tab:competitors_NOPOS}{{8}{30}{Effect of including a drug in the benefit plan on the price of therapeutic substitutes which are not in the plan\relax }{table.caption.19}{}}
\citation{Roberts2011}
\citation{Busse2007}
\citation{WorldBank2013}
\citation{Giedion2014}
\citation{Duggan2006}
\@writefile{lot}{\contentsline {table}{\numberline {9}{\ignorespaces Effect on a drug's price of including the drug to the benefit plan \relax }}{31}{table.caption.21}\protected@file@percent }
\newlabel{tab:POS_decompose}{{9}{31}{Effect on a drug's price of including the drug to the benefit plan \relax }{table.caption.21}{}}
\@writefile{toc}{\contentsline {section}{\numberline {6}Conclusions}{31}{section.6}\protected@file@percent }
\newlabel{sec:conc}{{6}{31}{Conclusions}{section.6}{}}
\citation{Duggan2006}
\citation{Duggan2010}
\citation{Brekke2011}
\citation{Clemens2013}
\citation{Webster2012}
\citation{NYT2015}
\citation{NYT2015a}
\citation{NYT2015b}
\citation{NYT2015c}
\citation{NYT2015}
\bibstyle{apacite}
\bibdata{PharPrice}
\bibcite{Arrow1963}{\citeauthoryear {Arrow}{Arrow}{{\APACyear {1963}}}}
\APACbibcite{Arrow1963}{\citeauthoryear {Arrow}{Arrow}{{\APACyear {1963}}}}
\bibcite{Brekke2011}{\citeauthoryear {Brekke, Holmas,{}\ \BBA{} Straume}{Brekke\ \BOthers {.}}{{\APACyear {2011}}}}
\APACbibcite{Brekke2011}{\citeauthoryear {Brekke, Holmas,{}\ \BBA{} Straume}{Brekke\ \BOthers {.}}{{\APACyear {2011}}}}
\bibcite{Brown2014}{\citeauthoryear {Brown, Duggan, Kuziemko,{}\ \BBA{} Woolston}{Brown\ \BOthers {.}}{{\APACyear {2014}}}}
\APACbibcite{Brown2014}{\citeauthoryear {Brown, Duggan, Kuziemko,{}\ \BBA{} Woolston}{Brown\ \BOthers {.}}{{\APACyear {2014}}}}
\bibcite{Busse2007}{\citeauthoryear {Busse, Schrey{\"o}gg,{}\ \BBA{} Gericke}{Busse\ \BOthers {.}}{{\APACyear {2007}}}}
\APACbibcite{Busse2007}{\citeauthoryear {Busse, Schrey{\"o}gg,{}\ \BBA{} Gericke}{Busse\ \BOthers {.}}{{\APACyear {2007}}}}
\bibcite{RePEc:col:000094:014087}{\citeauthoryear {Carranza, Riascos,{}\ \BBA{} Serna}{Carranza\ \BOthers {.}}{{\APACyear {2015}}}}
\APACbibcite{RePEc:col:000094:014087}{\citeauthoryear {Carranza, Riascos,{}\ \BBA{} Serna}{Carranza\ \BOthers {.}}{{\APACyear {2015}}}}
\bibcite{Castano2006}{\citeauthoryear {Castano\ \BBA{} Zambrano}{Castano\ \BBA{} Zambrano}{{\APACyear {2006}}}}
\APACbibcite{Castano2006}{\citeauthoryear {Castano\ \BBA{} Zambrano}{Castano\ \BBA{} Zambrano}{{\APACyear {2006}}}}
\bibcite{Clemens2013}{\citeauthoryear {Clemens\ \BBA{} Gottlieb}{Clemens\ \BBA{} Gottlieb}{{\APACyear {2013}}}}
\APACbibcite{Clemens2013}{\citeauthoryear {Clemens\ \BBA{} Gottlieb}{Clemens\ \BBA{} Gottlieb}{{\APACyear {2013}}}}
\@writefile{toc}{\contentsline {section}{References}{33}{section*.23}\protected@file@percent }
\bibcite{Clemens2014}{\citeauthoryear {Clemens\ \BBA{} Gottlieb}{Clemens\ \BBA{} Gottlieb}{{\APACyear {2014}}}}
\APACbibcite{Clemens2014}{\citeauthoryear {Clemens\ \BBA{} Gottlieb}{Clemens\ \BBA{} Gottlieb}{{\APACyear {2014}}}}
\bibcite{CNPM2010}{\citeauthoryear {{Comisi\'on Nacional de Precios de Medicamentos }}{{Comisi\'on Nacional de Precios de Medicamentos }}{{\APACyear {2010}}}}
\APACbibcite{CNPM2010}{\citeauthoryear {{Comisi\'on Nacional de Precios de Medicamentos }}{{Comisi\'on Nacional de Precios de Medicamentos }}{{\APACyear {2010}}}}
\bibcite{CNPM2011}{\citeauthoryear {{Comisi\'on Nacional de Precios de Medicamentos y Dispositivos M\'edicos}}{{Comisi\'on Nacional de Precios de Medicamentos y Dispositivos M\'edicos}}{{\APACyear {2011}}}}
\APACbibcite{CNPM2011}{\citeauthoryear {{Comisi\'on Nacional de Precios de Medicamentos y Dispositivos M\'edicos}}{{Comisi\'on Nacional de Precios de Medicamentos y Dispositivos M\'edicos}}{{\APACyear {2011}}}}
\bibcite{CNPM2012}{\citeauthoryear {{Comisi\'on Nacional de Precios de Medicamentos y Dispositivos M\'edicos}}{{Comisi\'on Nacional de Precios de Medicamentos y Dispositivos M\'edicos}}{{\APACyear {2012}}{\APACexlab {{\BCnt {1}}}}}}
\APACbibcite{CNPM2012}{\citeauthoryear {{Comisi\'on Nacional de Precios de Medicamentos y Dispositivos M\'edicos}}{{Comisi\'on Nacional de Precios de Medicamentos y Dispositivos M\'edicos}}{{\APACyear {2012}}{\APACexlab {{\BCnt {1}}}}}}
\bibcite{CNPM2012a}{\citeauthoryear {{Comisi\'on Nacional de Precios de Medicamentos y Dispositivos M\'edicos}}{{Comisi\'on Nacional de Precios de Medicamentos y Dispositivos M\'edicos}}{{\APACyear {2012}}{\APACexlab {{\BCnt {2}}}}}}
\APACbibcite{CNPM2012a}{\citeauthoryear {{Comisi\'on Nacional de Precios de Medicamentos y Dispositivos M\'edicos}}{{Comisi\'on Nacional de Precios de Medicamentos y Dispositivos M\'edicos}}{{\APACyear {2012}}{\APACexlab {{\BCnt {2}}}}}}
\bibcite{CNPM2012b}{\citeauthoryear {{Comisi\'on Nacional de Precios de Medicamentos y Dispositivos M\'edicos}}{{Comisi\'on Nacional de Precios de Medicamentos y Dispositivos M\'edicos}}{{\APACyear {2012}}{\APACexlab {{\BCnt {3}}}}}}
\APACbibcite{CNPM2012b}{\citeauthoryear {{Comisi\'on Nacional de Precios de Medicamentos y Dispositivos M\'edicos}}{{Comisi\'on Nacional de Precios de Medicamentos y Dispositivos M\'edicos}}{{\APACyear {2012}}{\APACexlab {{\BCnt {3}}}}}}
\bibcite{CNPM2013}{\citeauthoryear {{Comisi\'on Nacional de Precios de Medicamentos y Dispositivos M\'edicos}}{{Comisi\'on Nacional de Precios de Medicamentos y Dispositivos M\'edicos}}{{\APACyear {2013}}{\APACexlab {{\BCnt {1}}}}}}
\APACbibcite{CNPM2013}{\citeauthoryear {{Comisi\'on Nacional de Precios de Medicamentos y Dispositivos M\'edicos}}{{Comisi\'on Nacional de Precios de Medicamentos y Dispositivos M\'edicos}}{{\APACyear {2013}}{\APACexlab {{\BCnt {1}}}}}}
\bibcite{CNPM2013a}{\citeauthoryear {{Comisi\'on Nacional de Precios de Medicamentos y Dispositivos M\'edicos}}{{Comisi\'on Nacional de Precios de Medicamentos y Dispositivos M\'edicos}}{{\APACyear {2013}}{\APACexlab {{\BCnt {2}}}}}}
\APACbibcite{CNPM2013a}{\citeauthoryear {{Comisi\'on Nacional de Precios de Medicamentos y Dispositivos M\'edicos}}{{Comisi\'on Nacional de Precios de Medicamentos y Dispositivos M\'edicos}}{{\APACyear {2013}}{\APACexlab {{\BCnt {2}}}}}}
\bibcite{CNPM2013c}{\citeauthoryear {{Comisi\'on Nacional de Precios de Medicamentos y Dispositivos M\'edicos}}{{Comisi\'on Nacional de Precios de Medicamentos y Dispositivos M\'edicos}}{{\APACyear {2013}}{\APACexlab {{\BCnt {3}}}}}}
\APACbibcite{CNPM2013c}{\citeauthoryear {{Comisi\'on Nacional de Precios de Medicamentos y Dispositivos M\'edicos}}{{Comisi\'on Nacional de Precios de Medicamentos y Dispositivos M\'edicos}}{{\APACyear {2013}}{\APACexlab {{\BCnt {3}}}}}}
\bibcite{CNPM2013b}{\citeauthoryear {{Comisi\'on Nacional de Precios de Medicamentos y Dispositivos M\'edicos}}{{Comisi\'on Nacional de Precios de Medicamentos y Dispositivos M\'edicos}}{{\APACyear {2013}}{\APACexlab {{\BCnt {4}}}}}}
\APACbibcite{CNPM2013b}{\citeauthoryear {{Comisi\'on Nacional de Precios de Medicamentos y Dispositivos M\'edicos}}{{Comisi\'on Nacional de Precios de Medicamentos y Dispositivos M\'edicos}}{{\APACyear {2013}}{\APACexlab {{\BCnt {4}}}}}}
\bibcite{CNPM2014}{\citeauthoryear {{Comisi\'on Nacional de Precios de Medicamentos y Dispositivos M\'edicos}}{{Comisi\'on Nacional de Precios de Medicamentos y Dispositivos M\'edicos}}{{\APACyear {2014}}}}
\APACbibcite{CNPM2014}{\citeauthoryear {{Comisi\'on Nacional de Precios de Medicamentos y Dispositivos M\'edicos}}{{Comisi\'on Nacional de Precios de Medicamentos y Dispositivos M\'edicos}}{{\APACyear {2014}}}}
\bibcite{CNPM2016}{\citeauthoryear {{Comisi\'on Nacional de Precios de Medicamentos y Dispositivos M\'edicos}}{{Comisi\'on Nacional de Precios de Medicamentos y Dispositivos M\'edicos}}{{\APACyear {2016}}{\APACexlab {{\BCnt {1}}}}}}
\APACbibcite{CNPM2016}{\citeauthoryear {{Comisi\'on Nacional de Precios de Medicamentos y Dispositivos M\'edicos}}{{Comisi\'on Nacional de Precios de Medicamentos y Dispositivos M\'edicos}}{{\APACyear {2016}}{\APACexlab {{\BCnt {1}}}}}}
\bibcite{CNPM2016a}{\citeauthoryear {{Comisi\'on Nacional de Precios de Medicamentos y Dispositivos M\'edicos}}{{Comisi\'on Nacional de Precios de Medicamentos y Dispositivos M\'edicos}}{{\APACyear {2016}}{\APACexlab {{\BCnt {2}}}}}}
\APACbibcite{CNPM2016a}{\citeauthoryear {{Comisi\'on Nacional de Precios de Medicamentos y Dispositivos M\'edicos}}{{Comisi\'on Nacional de Precios de Medicamentos y Dispositivos M\'edicos}}{{\APACyear {2016}}{\APACexlab {{\BCnt {2}}}}}}
\bibcite{COMISINDEREGULACINENSALUD2009}{\citeauthoryear {{Comision de Regulacion en Salud}}{{Comision de Regulacion en Salud}}{{\APACyear {2009}}{\APACexlab {{\BCnt {1}}}}}}
\APACbibcite{COMISINDEREGULACINENSALUD2009}{\citeauthoryear {{Comision de Regulacion en Salud}}{{Comision de Regulacion en Salud}}{{\APACyear {2009}}{\APACexlab {{\BCnt {1}}}}}}
\bibcite{COMISINDEREGULACINENSALUD2009a}{\citeauthoryear {{Comision de Regulacion en Salud}}{{Comision de Regulacion en Salud}}{{\APACyear {2009}}{\APACexlab {{\BCnt {2}}}}}}
\APACbibcite{COMISINDEREGULACINENSALUD2009a}{\citeauthoryear {{Comision de Regulacion en Salud}}{{Comision de Regulacion en Salud}}{{\APACyear {2009}}{\APACexlab {{\BCnt {2}}}}}}
\bibcite{COMISINDEREGULACINENSALUD2010}{\citeauthoryear {{Comision de Regulacion en Salud}}{{Comision de Regulacion en Salud}}{{\APACyear {2010}}}}
\APACbibcite{COMISINDEREGULACINENSALUD2010}{\citeauthoryear {{Comision de Regulacion en Salud}}{{Comision de Regulacion en Salud}}{{\APACyear {2010}}}}
\bibcite{COMISINDEREGULACINENSALUD2011}{\citeauthoryear {{Comision de Regulacion en Salud}}{{Comision de Regulacion en Salud}}{{\APACyear {2011}}{\APACexlab {{\BCnt {1}}}}}}
\APACbibcite{COMISINDEREGULACINENSALUD2011}{\citeauthoryear {{Comision de Regulacion en Salud}}{{Comision de Regulacion en Salud}}{{\APACyear {2011}}{\APACexlab {{\BCnt {1}}}}}}
\bibcite{COMISINDEREGULACINENSALUD2011a}{\citeauthoryear {{Comision de Regulacion en Salud}}{{Comision de Regulacion en Salud}}{{\APACyear {2011}}{\APACexlab {{\BCnt {2}}}}}}
\APACbibcite{COMISINDEREGULACINENSALUD2011a}{\citeauthoryear {{Comision de Regulacion en Salud}}{{Comision de Regulacion en Salud}}{{\APACyear {2011}}{\APACexlab {{\BCnt {2}}}}}}
\bibcite{COMISINDEREGULACINENSALUD2011b}{\citeauthoryear {{Comision de Regulacion en Salud}}{{Comision de Regulacion en Salud}}{{\APACyear {2011}}{\APACexlab {{\BCnt {3}}}}}}
\APACbibcite{COMISINDEREGULACINENSALUD2011b}{\citeauthoryear {{Comision de Regulacion en Salud}}{{Comision de Regulacion en Salud}}{{\APACyear {2011}}{\APACexlab {{\BCnt {3}}}}}}
\bibcite{COMISINDEREGULACINENSALUD2012}{\citeauthoryear {{Comision de Regulacion en Salud}}{{Comision de Regulacion en Salud}}{{\APACyear {2012}}}}
\APACbibcite{COMISINDEREGULACINENSALUD2012}{\citeauthoryear {{Comision de Regulacion en Salud}}{{Comision de Regulacion en Salud}}{{\APACyear {2012}}}}
\bibcite{CONSEJONACIONALDESEGURIDADSOCIALENSALUD2006a}{\citeauthoryear {{Consejo Nacional de Seguridad Social en Salud}}{{Consejo Nacional de Seguridad Social en Salud}}{{\APACyear {2006}}{\APACexlab {{\BCnt {1}}}}}}
\APACbibcite{CONSEJONACIONALDESEGURIDADSOCIALENSALUD2006a}{\citeauthoryear {{Consejo Nacional de Seguridad Social en Salud}}{{Consejo Nacional de Seguridad Social en Salud}}{{\APACyear {2006}}{\APACexlab {{\BCnt {1}}}}}}
\bibcite{CONSEJONACIONALDESEGURIDADSOCIALENSALUD2006}{\citeauthoryear {{Consejo Nacional de Seguridad Social en Salud}}{{Consejo Nacional de Seguridad Social en Salud}}{{\APACyear {2006}}{\APACexlab {{\BCnt {2}}}}}}
\APACbibcite{CONSEJONACIONALDESEGURIDADSOCIALENSALUD2006}{\citeauthoryear {{Consejo Nacional de Seguridad Social en Salud}}{{Consejo Nacional de Seguridad Social en Salud}}{{\APACyear {2006}}{\APACexlab {{\BCnt {2}}}}}}
\bibcite{CONSEJONACIONALDESEGURIDADSOCIALENSALUD2007a}{\citeauthoryear {{Consejo Nacional de Seguridad Social en Salud}}{{Consejo Nacional de Seguridad Social en Salud}}{{\APACyear {2007}}{\APACexlab {{\BCnt {1}}}}}}
\APACbibcite{CONSEJONACIONALDESEGURIDADSOCIALENSALUD2007a}{\citeauthoryear {{Consejo Nacional de Seguridad Social en Salud}}{{Consejo Nacional de Seguridad Social en Salud}}{{\APACyear {2007}}{\APACexlab {{\BCnt {1}}}}}}
\bibcite{CONSEJONACIONALDESEGURIDADSOCIALENSALUD2007}{\citeauthoryear {{Consejo Nacional de Seguridad Social en Salud}}{{Consejo Nacional de Seguridad Social en Salud}}{{\APACyear {2007}}{\APACexlab {{\BCnt {2}}}}}}
\APACbibcite{CONSEJONACIONALDESEGURIDADSOCIALENSALUD2007}{\citeauthoryear {{Consejo Nacional de Seguridad Social en Salud}}{{Consejo Nacional de Seguridad Social en Salud}}{{\APACyear {2007}}{\APACexlab {{\BCnt {2}}}}}}
\bibcite{Departamento2012}{\citeauthoryear {{Departamento Nacional de Planeacion}}{{Departamento Nacional de Planeacion}}{{\APACyear {2012}}}}
\APACbibcite{Departamento2012}{\citeauthoryear {{Departamento Nacional de Planeacion}}{{Departamento Nacional de Planeacion}}{{\APACyear {2012}}}}
\bibcite{Duggan2010}{\citeauthoryear {Duggan\ \BBA{} Scott~Morton}{Duggan\ \BBA{} Scott~Morton}{{\APACyear {2010}}}}
\APACbibcite{Duggan2010}{\citeauthoryear {Duggan\ \BBA{} Scott~Morton}{Duggan\ \BBA{} Scott~Morton}{{\APACyear {2010}}}}
\bibcite{Duggan2006}{\citeauthoryear {Duggan\ \BBA{} Scott~Morton}{Duggan\ \BBA{} Scott~Morton}{{\APACyear {2006}}}}
\APACbibcite{Duggan2006}{\citeauthoryear {Duggan\ \BBA{} Scott~Morton}{Duggan\ \BBA{} Scott~Morton}{{\APACyear {2006}}}}
\bibcite{Gaviria2013}{\citeauthoryear {Gaviria}{Gaviria}{{\APACyear {2013}}}}
\APACbibcite{Gaviria2013}{\citeauthoryear {Gaviria}{Gaviria}{{\APACyear {2013}}}}
\bibcite{Giedion2014}{\citeauthoryear {Giedion\ \BOthers {.}}{Giedion\ \BOthers {.}}{{\APACyear {2014}}}}
\APACbibcite{Giedion2014}{\citeauthoryear {Giedion\ \BOthers {.}}{Giedion\ \BOthers {.}}{{\APACyear {2014}}}}
\bibcite{Giedion2009}{\citeauthoryear {Giedion\ \BBA{} Uribe}{Giedion\ \BBA{} Uribe}{{\APACyear {2009}}}}
\APACbibcite{Giedion2009}{\citeauthoryear {Giedion\ \BBA{} Uribe}{Giedion\ \BBA{} Uribe}{{\APACyear {2009}}}}
\bibcite{GomezSuarez2007}{\citeauthoryear {G\'omez-Su\'arez}{G\'omez-Su\'arez}{{\APACyear {2007}}}}
\APACbibcite{GomezSuarez2007}{\citeauthoryear {G\'omez-Su\'arez}{G\'omez-Su\'arez}{{\APACyear {2007}}}}
\bibcite{Gruber1996}{\citeauthoryear {Gruber\ \BBA{} Owings}{Gruber\ \BBA{} Owings}{{\APACyear {1996}}}}
\APACbibcite{Gruber1996}{\citeauthoryear {Gruber\ \BBA{} Owings}{Gruber\ \BBA{} Owings}{{\APACyear {1996}}}}
\bibcite{Iizuka2007}{\citeauthoryear {Iizuka}{Iizuka}{{\APACyear {2007}}}}
\APACbibcite{Iizuka2007}{\citeauthoryear {Iizuka}{Iizuka}{{\APACyear {2007}}}}
\bibcite{Iizuka2012}{\citeauthoryear {Iizuka}{Iizuka}{{\APACyear {2012}}}}
\APACbibcite{Iizuka2012}{\citeauthoryear {Iizuka}{Iizuka}{{\APACyear {2012}}}}
\bibcite{Leu2009}{\citeauthoryear {Leu, Rutten, Brouwer, Matter,{}\ \BBA{} Rutschi}{Leu\ \BOthers {.}}{{\APACyear {2009}}}}
\APACbibcite{Leu2009}{\citeauthoryear {Leu, Rutten, Brouwer, Matter,{}\ \BBA{} Rutschi}{Leu\ \BOthers {.}}{{\APACyear {2009}}}}
\bibcite{MSH2012}{\citeauthoryear {{Management Sciences for Health}}{{Management Sciences for Health}}{{\APACyear {2012}}}}
\APACbibcite{MSH2012}{\citeauthoryear {{Management Sciences for Health}}{{Management Sciences for Health}}{{\APACyear {2012}}}}
\bibcite{Milgrom1990}{\citeauthoryear {Milgrom}{Milgrom}{{\APACyear {1990}}}}
\APACbibcite{Milgrom1990}{\citeauthoryear {Milgrom}{Milgrom}{{\APACyear {1990}}}}
\bibcite{MINISTERIODESALUDYPROTECCINSOCIAL2010}{\citeauthoryear {{Ministerio de Salud y Proteccion Social}}{{Ministerio de Salud y Proteccion Social}}{{\APACyear {2010}}}}
\APACbibcite{MINISTERIODESALUDYPROTECCINSOCIAL2010}{\citeauthoryear {{Ministerio de Salud y Proteccion Social}}{{Ministerio de Salud y Proteccion Social}}{{\APACyear {2010}}}}
\bibcite{MINISTERIODESALUDYPROTECCINSOCIAL2011a}{\citeauthoryear {{Ministerio de Salud y Proteccion Social}}{{Ministerio de Salud y Proteccion Social}}{{\APACyear {2011}}{\APACexlab {{\BCnt {1}}}}}}
\APACbibcite{MINISTERIODESALUDYPROTECCINSOCIAL2011a}{\citeauthoryear {{Ministerio de Salud y Proteccion Social}}{{Ministerio de Salud y Proteccion Social}}{{\APACyear {2011}}{\APACexlab {{\BCnt {1}}}}}}
\bibcite{MINISTERIODESALUDYPROTECCINSOCIAL2011b}{\citeauthoryear {{Ministerio de Salud y Proteccion Social}}{{Ministerio de Salud y Proteccion Social}}{{\APACyear {2011}}{\APACexlab {{\BCnt {2}}}}}}
\APACbibcite{MINISTERIODESALUDYPROTECCINSOCIAL2011b}{\citeauthoryear {{Ministerio de Salud y Proteccion Social}}{{Ministerio de Salud y Proteccion Social}}{{\APACyear {2011}}{\APACexlab {{\BCnt {2}}}}}}
\bibcite{MINISTERIODESALUDYPROTECCINSOCIAL2011c}{\citeauthoryear {{Ministerio de Salud y Proteccion Social}}{{Ministerio de Salud y Proteccion Social}}{{\APACyear {2011}}{\APACexlab {{\BCnt {3}}}}}}
\APACbibcite{MINISTERIODESALUDYPROTECCINSOCIAL2011c}{\citeauthoryear {{Ministerio de Salud y Proteccion Social}}{{Ministerio de Salud y Proteccion Social}}{{\APACyear {2011}}{\APACexlab {{\BCnt {3}}}}}}
\bibcite{MINISTERIODESALUDYPROTECCINSOCIAL2011d}{\citeauthoryear {{Ministerio de Salud y Proteccion Social}}{{Ministerio de Salud y Proteccion Social}}{{\APACyear {2011}}{\APACexlab {{\BCnt {4}}}}}}
\APACbibcite{MINISTERIODESALUDYPROTECCINSOCIAL2011d}{\citeauthoryear {{Ministerio de Salud y Proteccion Social}}{{Ministerio de Salud y Proteccion Social}}{{\APACyear {2011}}{\APACexlab {{\BCnt {4}}}}}}
\bibcite{MINISTERIODESALUDYPROTECCINSOCIAL2011e}{\citeauthoryear {{Ministerio de Salud y Proteccion Social}}{{Ministerio de Salud y Proteccion Social}}{{\APACyear {2011}}{\APACexlab {{\BCnt {5}}}}}}
\APACbibcite{MINISTERIODESALUDYPROTECCINSOCIAL2011e}{\citeauthoryear {{Ministerio de Salud y Proteccion Social}}{{Ministerio de Salud y Proteccion Social}}{{\APACyear {2011}}{\APACexlab {{\BCnt {5}}}}}}
\bibcite{MINISTERIODESALUDYPROTECCINSOCIAL2011}{\citeauthoryear {{Ministerio de Salud y Proteccion Social}}{{Ministerio de Salud y Proteccion Social}}{{\APACyear {2011}}{\APACexlab {{\BCnt {6}}}}}}
\APACbibcite{MINISTERIODESALUDYPROTECCINSOCIAL2011}{\citeauthoryear {{Ministerio de Salud y Proteccion Social}}{{Ministerio de Salud y Proteccion Social}}{{\APACyear {2011}}{\APACexlab {{\BCnt {6}}}}}}
\bibcite{MINISTERIODESALUDYPROTECCINSOCIAL2012}{\citeauthoryear {{Ministerio de Salud y Proteccion Social}}{{Ministerio de Salud y Proteccion Social}}{{\APACyear {2012}}}}
\APACbibcite{MINISTERIODESALUDYPROTECCINSOCIAL2012}{\citeauthoryear {{Ministerio de Salud y Proteccion Social}}{{Ministerio de Salud y Proteccion Social}}{{\APACyear {2012}}}}
\bibcite{MINISTERIODESALUDYPROTECCINSOCIAL2013}{\citeauthoryear {{Ministerio de Salud y Proteccion Social}}{{Ministerio de Salud y Proteccion Social}}{{\APACyear {2013}}}}
\APACbibcite{MINISTERIODESALUDYPROTECCINSOCIAL2013}{\citeauthoryear {{Ministerio de Salud y Proteccion Social}}{{Ministerio de Salud y Proteccion Social}}{{\APACyear {2013}}}}
\bibcite{MINISTERIODESALUDYPROTECCINSOCIAL2014}{\citeauthoryear {{Ministerio de Salud y Proteccion Social}}{{Ministerio de Salud y Proteccion Social}}{{\APACyear {2014}}}}
\APACbibcite{MINISTERIODESALUDYPROTECCINSOCIAL2014}{\citeauthoryear {{Ministerio de Salud y Proteccion Social}}{{Ministerio de Salud y Proteccion Social}}{{\APACyear {2014}}}}
\bibcite{MINISTERIODESALUDYPROTECCINSOCIAL2015a}{\citeauthoryear {{Ministerio de Salud y Proteccion Social}}{{Ministerio de Salud y Proteccion Social}}{{\APACyear {2015}}{\APACexlab {{\BCnt {1}}}}}}
\APACbibcite{MINISTERIODESALUDYPROTECCINSOCIAL2015a}{\citeauthoryear {{Ministerio de Salud y Proteccion Social}}{{Ministerio de Salud y Proteccion Social}}{{\APACyear {2015}}{\APACexlab {{\BCnt {1}}}}}}
\bibcite{MINISTERIODESALUDYPROTECCINSOCIAL2015}{\citeauthoryear {{Ministerio de Salud y Proteccion Social}}{{Ministerio de Salud y Proteccion Social}}{{\APACyear {2015}}{\APACexlab {{\BCnt {2}}}}}}
\APACbibcite{MINISTERIODESALUDYPROTECCINSOCIAL2015}{\citeauthoryear {{Ministerio de Salud y Proteccion Social}}{{Ministerio de Salud y Proteccion Social}}{{\APACyear {2015}}{\APACexlab {{\BCnt {2}}}}}}
\bibcite{Roberts2011}{\citeauthoryear {Roberts\ \BBA{} Reich}{Roberts\ \BBA{} Reich}{{\APACyear {2011}}}}
\APACbibcite{Roberts2011}{\citeauthoryear {Roberts\ \BBA{} Reich}{Roberts\ \BBA{} Reich}{{\APACyear {2011}}}}
\bibcite{Semana2014}{\citeauthoryear {Semana}{Semana}{{\APACyear {2014}}}}
\APACbibcite{Semana2014}{\citeauthoryear {Semana}{Semana}{{\APACyear {2014}}}}
\bibcite{Shepard2015}{\citeauthoryear {Shepard}{Shepard}{{\APACyear {2015}}}}
\APACbibcite{Shepard2015}{\citeauthoryear {Shepard}{Shepard}{{\APACyear {2015}}}}
\bibcite{NYT2015b}{\citeauthoryear {{The New York Times}}{{The New York Times}}{{\APACyear {2015}}{\APACexlab {{\BCnt {1}}}}}}
\APACbibcite{NYT2015b}{\citeauthoryear {{The New York Times}}{{The New York Times}}{{\APACyear {2015}}{\APACexlab {{\BCnt {1}}}}}}
\bibcite{NYT2015c}{\citeauthoryear {{The New York Times}}{{The New York Times}}{{\APACyear {2015}}{\APACexlab {{\BCnt {2}}}}}}
\APACbibcite{NYT2015c}{\citeauthoryear {{The New York Times}}{{The New York Times}}{{\APACyear {2015}}{\APACexlab {{\BCnt {2}}}}}}
\bibcite{NYT2015}{\citeauthoryear {{The New York Times}}{{The New York Times}}{{\APACyear {2015}}{\APACexlab {{\BCnt {3}}}}}}
\APACbibcite{NYT2015}{\citeauthoryear {{The New York Times}}{{The New York Times}}{{\APACyear {2015}}{\APACexlab {{\BCnt {3}}}}}}
\bibcite{NYT2015a}{\citeauthoryear {{The New York Times}}{{The New York Times}}{{\APACyear {2015}}{\APACexlab {{\BCnt {4}}}}}}
\APACbibcite{NYT2015a}{\citeauthoryear {{The New York Times}}{{The New York Times}}{{\APACyear {2015}}{\APACexlab {{\BCnt {4}}}}}}
\bibcite{UnitedStatesCode2006}{\citeauthoryear {{United States Congress}}{{United States Congress}}{{\APACyear {2006}}}}
\APACbibcite{UnitedStatesCode2006}{\citeauthoryear {{United States Congress}}{{United States Congress}}{{\APACyear {2006}}}}
\bibcite{Vacca2011}{\citeauthoryear {Vacca, Acosta,{}\ \BBA{} Rodriguez}{Vacca\ \BOthers {.}}{{\APACyear {2011}}}}
\APACbibcite{Vacca2011}{\citeauthoryear {Vacca, Acosta,{}\ \BBA{} Rodriguez}{Vacca\ \BOthers {.}}{{\APACyear {2011}}}}
\bibcite{Webster2012}{\citeauthoryear {Webster}{Webster}{{\APACyear {2012}}}}
\APACbibcite{Webster2012}{\citeauthoryear {Webster}{Webster}{{\APACyear {2012}}}}
\bibcite{WorldBank2013}{\citeauthoryear {{World Bank}}{{World Bank}}{{\APACyear {2013}}}}
\APACbibcite{WorldBank2013}{\citeauthoryear {{World Bank}}{{World Bank}}{{\APACyear {2013}}}}
\bibcite{Zapata2012}{\citeauthoryear {Zapata, Bernal, Castillo,{}\ \BBA{} Garzon}{Zapata\ \BOthers {.}}{{\APACyear {2012}}}}
\APACbibcite{Zapata2012}{\citeauthoryear {Zapata, Bernal, Castillo,{}\ \BBA{} Garzon}{Zapata\ \BOthers {.}}{{\APACyear {2012}}}}
\@writefile{toc}{\contentsline {section}{\numberline {A}Average price across presentations}{B.1}{appendix.A}\protected@file@percent }
\newlabel{appendix:average_price}{{A}{B.1}{Average price across presentations}{appendix.A}{}}
\@writefile{lot}{\contentsline {table}{\numberline {A.1}{\ignorespaces Different presentations for Ibuprofeno MK\textregistered \ and their standardized price.\relax }}{B.1}{table.caption.24}\protected@file@percent }
\newlabel{tab:standPrice}{{A.1}{B.1}{Different presentations for Ibuprofeno MK\textregistered \ and their standardized price.\relax }{table.caption.24}{}}
\@writefile{toc}{\contentsline {section}{\numberline {B}Extra tables}{B.2}{appendix.B}\protected@file@percent }
\newlabel{sec:extra_tables}{{B}{B.2}{Extra tables}{appendix.B}{}}
\@writefile{lot}{\contentsline {table}{\numberline {B.2}{\ignorespaces Types of drugs and availability of price information\relax }}{B.2}{table.caption.26}\protected@file@percent }
\newlabel{tab:diff_charac}{{B.2}{B.2}{Types of drugs and availability of price information\relax }{table.caption.26}{}}
\@writefile{lot}{\contentsline {table}{\numberline {B.3}{\ignorespaces Summary statistics for drugs with some observations with some observations\relax }}{B.2}{table.caption.28}\protected@file@percent }
\newlabel{tab:descr}{{B.3}{B.2}{Summary statistics for drugs with some observations with some observations\relax }{table.caption.28}{}}
\@writefile{lot}{\contentsline {table}{\numberline {B.4}{\ignorespaces Summary statistics for drugs with some observations and a maximum,/minimum price ratio under 10\relax }}{B.3}{table.caption.30}\protected@file@percent }
\newlabel{tab:descr3}{{B.4}{B.3}{Summary statistics for drugs with some observations and a maximum,/minimum price ratio under 10\relax }{table.caption.30}{}}
\@writefile{lot}{\contentsline {table}{\numberline {B.5}{\ignorespaces Effect on a drug's price of including the drug to the benefit plan \relax }}{C.4}{table.caption.32}\protected@file@percent }
\newlabel{tab:POS_early_late}{{B.5}{C.4}{Effect on a drug's price of including the drug to the benefit plan \relax }{table.caption.32}{}}
\@writefile{toc}{\contentsline {section}{\numberline {C}Extra figures}{C.5}{appendix.C}\protected@file@percent }
\newlabel{sec:extra_fig}{{C}{C.5}{Extra figures}{appendix.C}{}}
\newlabel{fig:eve_pos_price_FE}{{C.1a}{C.5}{Price\relax }{figure.caption.34}{}}
\newlabel{sub@fig:eve_pos_price_FE}{{a}{C.5}{Price\relax }{figure.caption.34}{}}
\newlabel{fig:eve_pos_quantity_FE}{{C.1b}{C.5}{Quantity\relax }{figure.caption.34}{}}
\newlabel{sub@fig:eve_pos_quantity_FE}{{b}{C.5}{Quantity\relax }{figure.caption.34}{}}
\@writefile{lof}{\contentsline {figure}{\numberline {C.1}{\ignorespaces Event studies with ATC-year fixed effects\relax }}{C.5}{figure.caption.34}\protected@file@percent }
\@writefile{lof}{\contentsline {figure}{\numberline {C.2}{\ignorespaces Event study for the effect of including a drug in the POS on its price for 2012 entrants\relax }}{C.6}{figure.caption.35}\protected@file@percent }
\newlabel{fig:eve_pos_price_2012}{{C.2}{C.6}{Event study for the effect of including a drug in the POS on its price for 2012 entrants\relax }{figure.caption.35}{}}
\@writefile{lof}{\contentsline {figure}{\numberline {C.3}{\ignorespaces Event study for the effect of including a drug in the POS on its price for 2014 entrants\relax }}{C.7}{figure.caption.36}\protected@file@percent }
\newlabel{fig:eve_pos_price_2014}{{C.3}{C.7}{Event study for the effect of including a drug in the POS on its price for 2014 entrants\relax }{figure.caption.36}{}}
\@writefile{lof}{\contentsline {figure}{\numberline {C.4}{\ignorespaces Event study for the effect of including a drug in the POS on its quantity for 2012 entrants\relax }}{C.8}{figure.caption.37}\protected@file@percent }
\newlabel{fig:eve_pos_quantity_2012}{{C.4}{C.8}{Event study for the effect of including a drug in the POS on its quantity for 2012 entrants\relax }{figure.caption.37}{}}
\@writefile{lof}{\contentsline {figure}{\numberline {C.5}{\ignorespaces Event study for the effect of including a drug in the POS on its quantity for 2014 entrants\relax }}{D.9}{figure.caption.38}\protected@file@percent }
\newlabel{fig:eve_pos_quantity_2014}{{C.5}{D.9}{Event study for the effect of including a drug in the POS on its quantity for 2014 entrants\relax }{figure.caption.38}{}}
\@writefile{toc}{\contentsline {section}{\numberline {D}Mathematical Derivations - Model Alt}{D.9}{appendix.D}\protected@file@percent }
\newlabel{appendix:algebra}{{D}{D.9}{Mathematical Derivations - Model Alt}{appendix.D}{}}
\citation{Milgrom1990}
\citation{CONSEJONACIONALDESEGURIDADSOCIALENSALUD2006}
\citation{CONSEJONACIONALDESEGURIDADSOCIALENSALUD2006a}
\citation{CONSEJONACIONALDESEGURIDADSOCIALENSALUD2007a}
\citation{CONSEJONACIONALDESEGURIDADSOCIALENSALUD2007}
\citation{COMISINDEREGULACINENSALUD2009}
\citation{COMISINDEREGULACINENSALUD2009a}
\citation{COMISINDEREGULACINENSALUD2010}
\citation{COMISINDEREGULACINENSALUD2011}
\citation{COMISINDEREGULACINENSALUD2011a}
\citation{COMISINDEREGULACINENSALUD2011b}
\citation{COMISINDEREGULACINENSALUD2012}
\citation{MINISTERIODESALUDYPROTECCINSOCIAL2013}
\citation{MINISTERIODESALUDYPROTECCINSOCIAL2014}
\citation{MINISTERIODESALUDYPROTECCINSOCIAL2015}
\citation{CNPM2010}
\citation{MINISTERIODESALUDYPROTECCINSOCIAL2010}
\citation{MINISTERIODESALUDYPROTECCINSOCIAL2011}
\citation{MINISTERIODESALUDYPROTECCINSOCIAL2011a}
\citation{MINISTERIODESALUDYPROTECCINSOCIAL2011b}
\citation{MINISTERIODESALUDYPROTECCINSOCIAL2011c}
\citation{MINISTERIODESALUDYPROTECCINSOCIAL2011d}
\citation{MINISTERIODESALUDYPROTECCINSOCIAL2011e}
\citation{MINISTERIODESALUDYPROTECCINSOCIAL2012}
\citation{CNPM2013}
\citation{CNPM2013a}
\citation{CNPM2013b}
\citation{CNPM2011}
\citation{CNPM2012}
\citation{CNPM2012a}
\citation{CNPM2012b}
\citation{CNPM2013}
\citation{CNPM2013a}
\citation{CNPM2013c}
\citation{CNPM2013b}
\citation{CNPM2014}
\citation{MINISTERIODESALUDYPROTECCINSOCIAL2015a}
\citation{CNPM2016}
\citation{CNPM2016a}
\@writefile{toc}{\contentsline {section}{\numberline {E}Data Appendix}{E.14}{appendix.E}\protected@file@percent }
\newlabel{sec:data_details}{{E}{E.14}{Data Appendix}{appendix.E}{}}
\@writefile{toc}{\contentsline {section}{\numberline {F}Additional Institutional Details}{F.16}{appendix.F}\protected@file@percent }
\newlabel{sec:add_inst_details}{{F}{F.16}{Additional Institutional Details}{appendix.F}{}}
