\headcommand {\slideentry {0}{0}{1}{1/1}{}{0}}
\headcommand {\beamer@framepages {1}{1}}
\headcommand {\sectionentry {1}{Motivation}{2}{Motivation}{0}}
\headcommand {\beamer@sectionpages {1}{1}}
\headcommand {\beamer@subsectionpages {1}{1}}
\headcommand {\slideentry {1}{0}{1}{2/11}{}{0}}
\headcommand {\beamer@framepages {2}{11}}
\headcommand {\slideentry {1}{0}{2}{12/12}{}{0}}
\headcommand {\beamer@framepages {12}{12}}
\headcommand {\sectionentry {2}{Background: Colombian health care system}{13}{Background: Colombian health care system}{0}}
\headcommand {\beamer@sectionpages {2}{12}}
\headcommand {\beamer@subsectionpages {2}{12}}
\headcommand {\slideentry {2}{0}{1}{13/13}{}{0}}
\headcommand {\beamer@framepages {13}{13}}
\headcommand {\slideentry {2}{0}{2}{14/14}{}{0}}
\headcommand {\beamer@framepages {14}{14}}
\headcommand {\slideentry {2}{0}{3}{15/15}{}{0}}
\headcommand {\beamer@framepages {15}{15}}
\headcommand {\slideentry {2}{0}{4}{16/16}{}{0}}
\headcommand {\beamer@framepages {16}{16}}
\headcommand {\sectionentry {3}{Empirical strategy and results}{17}{Empirical strategy and results}{0}}
\headcommand {\beamer@sectionpages {13}{16}}
\headcommand {\beamer@subsectionpages {13}{16}}
\headcommand {\slideentry {3}{0}{1}{17/17}{}{0}}
\headcommand {\beamer@framepages {17}{17}}
\headcommand {\slideentry {3}{0}{2}{18/18}{}{0}}
\headcommand {\beamer@framepages {18}{18}}
\headcommand {\slideentry {3}{0}{3}{19/19}{}{0}}
\headcommand {\beamer@framepages {19}{19}}
\headcommand {\slideentry {3}{0}{4}{20/20}{}{0}}
\headcommand {\beamer@framepages {20}{20}}
\headcommand {\slideentry {3}{0}{5}{21/21}{}{0}}
\headcommand {\beamer@framepages {21}{21}}
\headcommand {\slideentry {3}{0}{6}{22/22}{}{0}}
\headcommand {\beamer@framepages {22}{22}}
\headcommand {\slideentry {3}{0}{7}{23/23}{}{0}}
\headcommand {\beamer@framepages {23}{23}}
\headcommand {\slideentry {3}{0}{8}{24/24}{}{0}}
\headcommand {\beamer@framepages {24}{24}}
\headcommand {\slideentry {3}{0}{9}{25/25}{}{0}}
\headcommand {\beamer@framepages {25}{25}}
\headcommand {\slideentry {3}{0}{10}{26/26}{}{0}}
\headcommand {\beamer@framepages {26}{26}}
\headcommand {\slideentry {3}{0}{11}{27/27}{}{0}}
\headcommand {\beamer@framepages {27}{27}}
\headcommand {\slideentry {3}{0}{12}{28/28}{}{0}}
\headcommand {\beamer@framepages {28}{28}}
\headcommand {\slideentry {3}{0}{13}{29/30}{}{0}}
\headcommand {\beamer@framepages {29}{30}}
\headcommand {\slideentry {3}{0}{14}{31/31}{}{0}}
\headcommand {\beamer@framepages {31}{31}}
\headcommand {\sectionentry {4}{Closing remarks}{32}{Closing remarks}{0}}
\headcommand {\beamer@sectionpages {17}{31}}
\headcommand {\beamer@subsectionpages {17}{31}}
\headcommand {\slideentry {4}{0}{1}{32/32}{}{0}}
\headcommand {\beamer@framepages {32}{32}}
\headcommand {\slideentry {4}{0}{2}{33/33}{}{0}}
\headcommand {\beamer@framepages {33}{33}}
\headcommand {\slideentry {4}{0}{3}{34/34}{}{0}}
\headcommand {\beamer@framepages {34}{34}}
\headcommand {\slideentry {4}{0}{4}{35/39}{}{0}}
\headcommand {\beamer@framepages {35}{39}}
\headcommand {\slideentry {4}{0}{5}{40/40}{}{0}}
\headcommand {\beamer@framepages {40}{40}}
\headcommand {\slideentry {4}{0}{6}{41/42}{}{0}}
\headcommand {\beamer@framepages {41}{42}}
\headcommand {\slideentry {4}{0}{7}{43/43}{}{0}}
\headcommand {\beamer@framepages {43}{43}}
\headcommand {\sectionentry {5}{}{44}{}{0}}
\headcommand {\beamer@sectionpages {32}{43}}
\headcommand {\beamer@subsectionpages {32}{43}}
\headcommand {\slideentry {5}{0}{0}{44/44}{}{0}}
\headcommand {\beamer@framepages {44}{44}}
\headcommand {\slideentry {5}{0}{0}{44/45}{}{0}}
\headcommand {\beamer@framepages {44}{45}}
\headcommand {\partentry {\translate {Appendix}}{1}}
\headcommand {\beamer@partpages {1}{45}}
\headcommand {\beamer@sectionpages {32}{45}}
\headcommand {\beamer@subsectionpages {32}{45}}
\headcommand {\beamer@appendixpages {46}}
\headcommand {\sectionentry {6}{Theory}{46}{Theory}{1}}
\headcommand {\beamer@sectionpages {46}{45}}
\headcommand {\beamer@subsectionpages {46}{45}}
\headcommand {\slideentry {6}{0}{1}{46/46}{}{1}}
\headcommand {\beamer@framepages {46}{46}}
\headcommand {\slideentry {6}{0}{2}{47/50}{}{1}}
\headcommand {\beamer@framepages {47}{50}}
\headcommand {\slideentry {6}{0}{3}{51/51}{}{1}}
\headcommand {\beamer@framepages {51}{51}}
\headcommand {\sectionentry {7}{Extra slides: Pharmaceutical prices}{52}{Extra slides: Pharmaceutical prices}{1}}
\headcommand {\beamer@sectionpages {46}{51}}
\headcommand {\beamer@subsectionpages {46}{51}}
\headcommand {\slideentry {7}{0}{1}{52/52}{}{1}}
\headcommand {\beamer@framepages {52}{52}}
\headcommand {\slideentry {7}{0}{2}{53/53}{}{1}}
\headcommand {\beamer@framepages {53}{53}}
\headcommand {\slideentry {7}{0}{3}{54/54}{}{1}}
\headcommand {\beamer@framepages {54}{54}}
\headcommand {\slideentry {7}{0}{4}{55/55}{}{1}}
\headcommand {\beamer@framepages {55}{55}}
\headcommand {\slideentry {7}{0}{5}{56/56}{}{1}}
\headcommand {\beamer@framepages {56}{56}}
\headcommand {\slideentry {7}{0}{6}{57/57}{}{1}}
\headcommand {\beamer@framepages {57}{57}}
\headcommand {\slideentry {7}{0}{7}{58/58}{}{1}}
\headcommand {\beamer@framepages {58}{58}}
\headcommand {\slideentry {7}{0}{8}{59/59}{}{1}}
\headcommand {\beamer@framepages {59}{59}}
\headcommand {\slideentry {7}{0}{9}{60/60}{}{1}}
\headcommand {\beamer@framepages {60}{60}}
\headcommand {\slideentry {7}{0}{10}{61/61}{}{1}}
\headcommand {\beamer@framepages {61}{61}}
\headcommand {\slideentry {7}{0}{11}{62/62}{}{1}}
\headcommand {\beamer@framepages {62}{62}}
\headcommand {\slideentry {7}{0}{12}{63/63}{}{1}}
\headcommand {\beamer@framepages {63}{63}}
\headcommand {\slideentry {7}{0}{13}{64/64}{}{1}}
\headcommand {\beamer@framepages {64}{64}}
\headcommand {\slideentry {7}{0}{14}{65/65}{}{1}}
\headcommand {\beamer@framepages {65}{65}}
\headcommand {\slideentry {7}{0}{15}{66/66}{}{1}}
\headcommand {\beamer@framepages {66}{66}}
\headcommand {\slideentry {7}{0}{16}{67/67}{}{1}}
\headcommand {\beamer@framepages {67}{67}}
\headcommand {\beamer@partpages {46}{67}}
\headcommand {\beamer@subsectionpages {52}{67}}
\headcommand {\beamer@sectionpages {52}{67}}
\headcommand {\beamer@documentpages {67}}
\headcommand {\def \inserttotalframenumber {49}}
