\beamer@sectionintoc {1}{Motivation}{2}{0}{1}
\beamer@sectionintoc {2}{Background: Colombian health care system}{13}{0}{2}
\beamer@sectionintoc {3}{Empirical strategy and results}{17}{0}{3}
\beamer@sectionintoc {4}{Closing remarks}{32}{0}{4}
\contentsline {section}{}
\beamer@sectionintoc {6}{Theory}{46}{1}{5}
\beamer@sectionintoc {7}{Extra slides: Pharmaceutical prices}{52}{1}{6}
