\relax 
\providecommand\hyper@newdestlabel[2]{}
\providecommand\HyperFirstAtBeginDocument{\AtBeginDocument}
\HyperFirstAtBeginDocument{\ifx\hyper@anchor\@undefined
\global\let\oldcontentsline\contentsline
\gdef\contentsline#1#2#3#4{\oldcontentsline{#1}{#2}{#3}}
\global\let\oldnewlabel\newlabel
\gdef\newlabel#1#2{\newlabelxx{#1}#2}
\gdef\newlabelxx#1#2#3#4#5#6{\oldnewlabel{#1}{{#2}{#3}}}
\AtEndDocument{\ifx\hyper@anchor\@undefined
\let\contentsline\oldcontentsline
\let\newlabel\oldnewlabel
\fi}
\fi}
\global\let\hyper@last\relax 
\gdef\HyperFirstAtBeginDocument#1{#1}
\providecommand\HyField@AuxAddToFields[1]{}
\providecommand\HyField@AuxAddToCoFields[2]{}
\providecommand\pbs@newkey[2]{}\providecommand\pbs@seq@push@cx[2]{}\providecommand\pbs@at@end@dvi@check{}
\pbs@at@end@dvi@check
\providecommand\mix@newkey[2]{}
\pbs@newkey{pbs@last@page}{1}
\providecommand \oddpage@label [2]{}
\@writefile{nav}{\headcommand {\slideentry {0}{0}{1}{1/1}{}{0}}}
\@writefile{nav}{\headcommand {\beamer@framepages {1}{1}}}
\citation{Darby1973}
\citation{Dulleck2006}
\citation{MSH2012}
\pbs@newkey{pbs@last@page}{2}
\@writefile{toc}{\beamer@sectionintoc {1}{Motivation}{2}{0}{1}}
\@writefile{nav}{\headcommand {\sectionentry {1}{Motivation}{2}{Motivation}{0}}}
\@writefile{nav}{\headcommand {\beamer@sectionpages {1}{1}}}
\@writefile{nav}{\headcommand {\beamer@subsectionpages {1}{1}}}
\citation{Darby1973}
\citation{Dulleck2006}
\citation{MSH2012}
\pbs@newkey{pbs@last@page}{3}
\citation{Darby1973}
\citation{Dulleck2006}
\citation{MSH2012}
\pbs@newkey{pbs@last@page}{4}
\citation{Darby1973}
\citation{Dulleck2006}
\citation{MSH2012}
\pbs@newkey{pbs@last@page}{5}
\citation{Darby1973}
\citation{Dulleck2006}
\citation{MSH2012}
\pbs@newkey{pbs@last@page}{6}
\citation{Darby1973}
\citation{Dulleck2006}
\citation{MSH2012}
\pbs@newkey{pbs@last@page}{7}
\citation{Darby1973}
\citation{Dulleck2006}
\citation{MSH2012}
\pbs@newkey{pbs@last@page}{8}
\citation{Darby1973}
\citation{Dulleck2006}
\citation{MSH2012}
\pbs@newkey{pbs@last@page}{9}
\citation{Darby1973}
\citation{Dulleck2006}
\citation{MSH2012}
\pbs@newkey{pbs@last@page}{10}
\citation{Darby1973}
\citation{Dulleck2006}
\citation{MSH2012}
\pbs@newkey{pbs@last@page}{11}
\@writefile{nav}{\headcommand {\slideentry {1}{0}{1}{2/11}{}{0}}}
\@writefile{nav}{\headcommand {\beamer@framepages {2}{11}}}
\pbs@newkey{pbs@last@page}{12}
\@writefile{nav}{\headcommand {\slideentry {1}{0}{2}{12/12}{}{0}}}
\@writefile{nav}{\headcommand {\beamer@framepages {12}{12}}}
\pbs@newkey{pbs@last@page}{13}
\@writefile{toc}{\beamer@sectionintoc {2}{Background}{13}{0}{2}}
\@writefile{nav}{\headcommand {\sectionentry {2}{Background}{13}{Background}{0}}}
\@writefile{nav}{\headcommand {\beamer@sectionpages {2}{12}}}
\@writefile{nav}{\headcommand {\beamer@subsectionpages {2}{12}}}
\@writefile{nav}{\headcommand {\slideentry {2}{0}{1}{13/13}{}{0}}}
\@writefile{nav}{\headcommand {\beamer@framepages {13}{13}}}
\pbs@newkey{pbs@last@page}{14}
\@writefile{nav}{\headcommand {\slideentry {2}{0}{2}{14/14}{}{0}}}
\@writefile{nav}{\headcommand {\beamer@framepages {14}{14}}}
\pbs@newkey{pbs@last@page}{15}
\@writefile{nav}{\headcommand {\slideentry {2}{0}{3}{15/15}{}{0}}}
\@writefile{nav}{\headcommand {\beamer@framepages {15}{15}}}
\pbs@newkey{pbs@last@page}{16}
\providecommand*\caption@xref[2]{\@setref\relax\@undefined{#1}}
\newlabel{fig:add_pos}{{1}{16}{Number of drugs introduced into the POS by year. \textit {Source:} SISMED and INVIMA. \textit {Calculations:} Author.\relax }{Doc-Start}{}}
\@writefile{snm}{\beamer@slide {fig:add_pos}{16}}
\@writefile{nav}{\headcommand {\slideentry {2}{0}{4}{16/16}{}{0}}}
\@writefile{nav}{\headcommand {\beamer@framepages {16}{16}}}
\pbs@newkey{pbs@last@page}{17}
\@writefile{toc}{\beamer@sectionintoc {3}{Theory}{17}{0}{3}}
\@writefile{nav}{\headcommand {\sectionentry {3}{Theory}{17}{Theory}{0}}}
\@writefile{nav}{\headcommand {\beamer@sectionpages {13}{16}}}
\@writefile{nav}{\headcommand {\beamer@subsectionpages {13}{16}}}
\@writefile{nav}{\headcommand {\slideentry {3}{0}{1}{17/17}{}{0}}}
\@writefile{nav}{\headcommand {\beamer@framepages {17}{17}}}
\pbs@newkey{pbs@last@page}{18}
\pbs@newkey{pbs@last@page}{19}
\pbs@newkey{pbs@last@page}{20}
\pbs@newkey{pbs@last@page}{21}
\@writefile{nav}{\headcommand {\slideentry {3}{0}{2}{18/21}{}{0}}}
\@writefile{nav}{\headcommand {\beamer@framepages {18}{21}}}
\pbs@newkey{pbs@last@page}{22}
\@writefile{nav}{\headcommand {\slideentry {3}{0}{3}{22/22}{}{0}}}
\@writefile{nav}{\headcommand {\beamer@framepages {22}{22}}}
\pbs@newkey{pbs@last@page}{23}
\@writefile{toc}{\beamer@sectionintoc {4}{Empirics}{23}{0}{4}}
\@writefile{nav}{\headcommand {\sectionentry {4}{Empirics}{23}{Empirics}{0}}}
\@writefile{nav}{\headcommand {\beamer@sectionpages {17}{22}}}
\@writefile{nav}{\headcommand {\beamer@subsectionpages {17}{22}}}
\@writefile{nav}{\headcommand {\slideentry {4}{0}{1}{23/23}{}{0}}}
\@writefile{nav}{\headcommand {\beamer@framepages {23}{23}}}
\pbs@newkey{pbs@last@page}{24}
\newlabel{goback0<1>}{{12}{24}{Empirics}{Doc-Start}{}}
\@writefile{snm}{\beamer@slide {goback0<1>}{24}}
\newlabel{goback0}{{12}{24}{Empirics}{Doc-Start}{}}
\@writefile{snm}{\beamer@slide {goback0}{24}}
\@writefile{nav}{\headcommand {\slideentry {4}{0}{2}{24/24}{}{0}}}
\@writefile{nav}{\headcommand {\beamer@framepages {24}{24}}}
\pbs@newkey{pbs@last@page}{25}
\@writefile{nav}{\headcommand {\slideentry {4}{0}{3}{25/25}{}{0}}}
\@writefile{nav}{\headcommand {\beamer@framepages {25}{25}}}
\pbs@newkey{pbs@last@page}{26}
\newlabel{eq:timing}{{5}{26}{Empirics}{Doc-Start}{}}
\@writefile{snm}{\beamer@slide {eq:timing}{26}}
\@writefile{nav}{\headcommand {\slideentry {4}{0}{4}{26/26}{}{0}}}
\@writefile{nav}{\headcommand {\beamer@framepages {26}{26}}}
\pbs@newkey{pbs@last@page}{27}
\newlabel{goback_timing<1>}{{15}{27}{Empirics}{Doc-Start}{}}
\@writefile{snm}{\beamer@slide {goback_timing<1>}{27}}
\newlabel{goback_timing}{{15}{27}{Empirics}{Doc-Start}{}}
\@writefile{snm}{\beamer@slide {goback_timing}{27}}
\@writefile{nav}{\headcommand {\slideentry {4}{0}{5}{27/27}{}{0}}}
\@writefile{nav}{\headcommand {\beamer@framepages {27}{27}}}
\pbs@newkey{pbs@last@page}{28}
\newlabel{goback_timing2<1>}{{16}{28}{Empirics}{Doc-Start}{}}
\@writefile{snm}{\beamer@slide {goback_timing2<1>}{28}}
\newlabel{goback_timing2}{{16}{28}{Empirics}{Doc-Start}{}}
\@writefile{snm}{\beamer@slide {goback_timing2}{28}}
\@writefile{nav}{\headcommand {\slideentry {4}{0}{6}{28/28}{}{0}}}
\@writefile{nav}{\headcommand {\beamer@framepages {28}{28}}}
\pbs@newkey{pbs@last@page}{29}
\newlabel{eq:original}{{5}{29}{Empirics}{Doc-Start}{}}
\@writefile{snm}{\beamer@slide {eq:original}{29}}
\@writefile{nav}{\headcommand {\slideentry {4}{0}{7}{29/29}{}{0}}}
\@writefile{nav}{\headcommand {\beamer@framepages {29}{29}}}
\pbs@newkey{pbs@last@page}{30}
\newlabel{goback1<1>}{{18}{30}{Empirics}{Doc-Start}{}}
\@writefile{snm}{\beamer@slide {goback1<1>}{30}}
\newlabel{goback1}{{18}{30}{Empirics}{Doc-Start}{}}
\@writefile{snm}{\beamer@slide {goback1}{30}}
\newlabel{fig:eve_pos_price}{{2}{30}{\tiny Event study for the effect of including a pharmaceutical in the POS on its price. \textit {Source:} SISMED and INVIMA. \textit {Calculations:} Author. \relax }{Doc-Start}{}}
\@writefile{snm}{\beamer@slide {fig:eve_pos_price}{30}}
\@writefile{nav}{\headcommand {\slideentry {4}{0}{8}{30/30}{}{0}}}
\@writefile{nav}{\headcommand {\beamer@framepages {30}{30}}}
\pbs@newkey{pbs@last@page}{31}
\newlabel{goback2<1>}{{19}{31}{Empirics}{Doc-Start}{}}
\@writefile{snm}{\beamer@slide {goback2<1>}{31}}
\newlabel{goback2}{{19}{31}{Empirics}{Doc-Start}{}}
\@writefile{snm}{\beamer@slide {goback2}{31}}
\newlabel{fig:eve_pos_quantity}{{3}{31}{\tiny Event study for the effect of including a pharmaceutical in the POS on the quantities. \textit {Source:} SISMED and INVIMA. \textit {Calculations:} Author. \relax }{Doc-Start}{}}
\@writefile{snm}{\beamer@slide {fig:eve_pos_quantity}{31}}
\@writefile{nav}{\headcommand {\slideentry {4}{0}{9}{31/31}{}{0}}}
\@writefile{nav}{\headcommand {\beamer@framepages {31}{31}}}
\pbs@newkey{pbs@last@page}{32}
\newlabel{goback_rob<1>}{{20}{32}{Empirics}{Doc-Start}{}}
\@writefile{snm}{\beamer@slide {goback_rob<1>}{32}}
\newlabel{goback_rob}{{20}{32}{Empirics}{Doc-Start}{}}
\@writefile{snm}{\beamer@slide {goback_rob}{32}}
\@writefile{nav}{\headcommand {\slideentry {4}{0}{10}{32/32}{}{0}}}
\@writefile{nav}{\headcommand {\beamer@framepages {32}{32}}}
\pbs@newkey{pbs@last@page}{33}
\newlabel{fig:het_competencia}{{4}{33}{Effect of listing a drug by number of competitiors\relax }{Doc-Start}{}}
\@writefile{snm}{\beamer@slide {fig:het_competencia}{33}}
\@writefile{nav}{\headcommand {\slideentry {4}{0}{11}{33/33}{}{0}}}
\@writefile{nav}{\headcommand {\beamer@framepages {33}{33}}}
\pbs@newkey{pbs@last@page}{34}
\pbs@newkey{pbs@last@page}{35}
\@writefile{nav}{\headcommand {\slideentry {4}{0}{12}{34/35}{}{0}}}
\@writefile{nav}{\headcommand {\beamer@framepages {34}{35}}}
\pbs@newkey{pbs@last@page}{36}
\newlabel{tab:POS_decompose}{{1}{36}{Effect on a drug's price of including the drug to the benefit plan \relax }{Doc-Start}{}}
\@writefile{snm}{\beamer@slide {tab:POS_decompose}{36}}
\@writefile{nav}{\headcommand {\slideentry {4}{0}{13}{36/36}{}{0}}}
\@writefile{nav}{\headcommand {\beamer@framepages {36}{36}}}
\pbs@newkey{pbs@last@page}{37}
\@writefile{toc}{\beamer@sectionintoc {5}{Closing remarks}{37}{0}{5}}
\@writefile{nav}{\headcommand {\sectionentry {5}{Closing remarks}{37}{Closing remarks}{0}}}
\@writefile{nav}{\headcommand {\beamer@sectionpages {23}{36}}}
\@writefile{nav}{\headcommand {\beamer@subsectionpages {23}{36}}}
\@writefile{nav}{\headcommand {\slideentry {5}{0}{1}{37/37}{}{0}}}
\@writefile{nav}{\headcommand {\beamer@framepages {37}{37}}}
\citation{NYT2015}
\pbs@newkey{pbs@last@page}{38}
\@writefile{nav}{\headcommand {\slideentry {5}{0}{2}{38/38}{}{0}}}
\@writefile{nav}{\headcommand {\beamer@framepages {38}{38}}}
\citation{NYT2015c}
\pbs@newkey{pbs@last@page}{39}
\@writefile{nav}{\headcommand {\slideentry {5}{0}{3}{39/39}{}{0}}}
\@writefile{nav}{\headcommand {\beamer@framepages {39}{39}}}
\pbs@newkey{pbs@last@page}{40}
\@writefile{nav}{\headcommand {\slideentry {5}{0}{4}{40/40}{}{0}}}
\@writefile{nav}{\headcommand {\beamer@framepages {40}{40}}}
\bibstyle{apacite}
\bibdata{PharPrice}
\bibcite{Darby1973}{\citeauthoryear {Darby\ \BBA{} Karni}{Darby\ \BBA{} Karni}{{\APACyear {1973}}}}
\APACbibcite{Darby1973}{\citeauthoryear {Darby\ \BBA{} Karni}{Darby\ \BBA{} Karni}{{\APACyear {1973}}}}
\bibcite{Departamento2012}{\citeauthoryear {{Departamento Nacional de Planeacion}}{{Departamento Nacional de Planeacion}}{{\APACyear {2012}}}}
\APACbibcite{Departamento2012}{\citeauthoryear {{Departamento Nacional de Planeacion}}{{Departamento Nacional de Planeacion}}{{\APACyear {2012}}}}
\bibcite{Dulleck2006}{\citeauthoryear {Dulleck\ \BBA{} Kerschbamer}{Dulleck\ \BBA{} Kerschbamer}{{\APACyear {2006}}}}
\APACbibcite{Dulleck2006}{\citeauthoryear {Dulleck\ \BBA{} Kerschbamer}{Dulleck\ \BBA{} Kerschbamer}{{\APACyear {2006}}}}
\bibcite{MSH2012}{\citeauthoryear {{Management Sciences for Health}}{{Management Sciences for Health}}{{\APACyear {2012}}}}
\APACbibcite{MSH2012}{\citeauthoryear {{Management Sciences for Health}}{{Management Sciences for Health}}{{\APACyear {2012}}}}
\bibcite{NYT2015c}{\citeauthoryear {{The New York Times}}{{The New York Times}}{{\APACyear {2015}}{\APACexlab {{\BCnt {1}}}}}}
\APACbibcite{NYT2015c}{\citeauthoryear {{The New York Times}}{{The New York Times}}{{\APACyear {2015}}{\APACexlab {{\BCnt {1}}}}}}
\bibcite{NYT2015}{\citeauthoryear {{The New York Times}}{{The New York Times}}{{\APACyear {2015}}{\APACexlab {{\BCnt {2}}}}}}
\APACbibcite{NYT2015}{\citeauthoryear {{The New York Times}}{{The New York Times}}{{\APACyear {2015}}{\APACexlab {{\BCnt {2}}}}}}
\bibcite{Vacca2011}{\citeauthoryear {Vacca, Acosta,{}\ \BBA{} Rodriguez}{Vacca\ \BOthers {.}}{{\APACyear {2011}}}}
\APACbibcite{Vacca2011}{\citeauthoryear {Vacca, Acosta,{}\ \BBA{} Rodriguez}{Vacca\ \BOthers {.}}{{\APACyear {2011}}}}
\pbs@newkey{pbs@last@page}{41}
\@writefile{nav}{\headcommand {\sectionentry {6}{}{41}{}{0}}}
\@writefile{nav}{\headcommand {\beamer@sectionpages {37}{40}}}
\@writefile{nav}{\headcommand {\beamer@subsectionpages {37}{40}}}
\@writefile{toc}{\contentsline {section}{}}
\@writefile{nav}{\headcommand {\slideentry {6}{0}{0}{41/41}{}{0}}}
\@writefile{nav}{\headcommand {\beamer@framepages {41}{41}}}
\pbs@newkey{pbs@last@page}{42}
\@writefile{nav}{\headcommand {\slideentry {6}{0}{0}{41/42}{}{0}}}
\@writefile{nav}{\headcommand {\beamer@framepages {41}{42}}}
\pbs@newkey{pbs@last@page}{43}
\@writefile{nav}{\headcommand {\partentry {\translate  {Appendix}}{1}}}
\@writefile{nav}{\headcommand {\beamer@partpages {1}{42}}}
\@writefile{nav}{\headcommand {\beamer@sectionpages {37}{42}}}
\@writefile{nav}{\headcommand {\beamer@subsectionpages {37}{42}}}
\@writefile{nav}{\headcommand {\beamer@appendixpages {43}}}
\@writefile{toc}{\beamer@sectionintoc {7}{Extra slides: Pharmaceutical prices}{43}{1}{6}}
\@writefile{nav}{\headcommand {\sectionentry {7}{Extra slides: Pharmaceutical prices}{43}{Extra slides: Pharmaceutical prices}{1}}}
\@writefile{nav}{\headcommand {\beamer@sectionpages {43}{42}}}
\@writefile{nav}{\headcommand {\beamer@subsectionpages {43}{42}}}
\@writefile{nav}{\headcommand {\slideentry {7}{0}{1}{43/43}{}{1}}}
\@writefile{nav}{\headcommand {\beamer@framepages {43}{43}}}
\pbs@newkey{pbs@last@page}{44}
\newlabel{sumstat<1>}{{31}{44}{Extra slides: Pharmaceutical prices}{Doc-Start}{}}
\@writefile{snm}{\beamer@slide {sumstat<1>}{44}}
\newlabel{sumstat}{{31}{44}{Extra slides: Pharmaceutical prices}{Doc-Start}{}}
\@writefile{snm}{\beamer@slide {sumstat}{44}}
\newlabel{tab:diff_charac}{{2}{44}{Difference between pharmaceuticals characteristics by how much price information is observed.\relax }{Doc-Start}{}}
\@writefile{snm}{\beamer@slide {tab:diff_charac}{44}}
\@writefile{nav}{\headcommand {\slideentry {7}{0}{2}{44/44}{}{1}}}
\@writefile{nav}{\headcommand {\beamer@framepages {44}{44}}}
\pbs@newkey{pbs@last@page}{45}
\newlabel{sumstat2<1>}{{32}{45}{Extra slides: Pharmaceutical prices}{Doc-Start}{}}
\@writefile{snm}{\beamer@slide {sumstat2<1>}{45}}
\newlabel{sumstat2}{{32}{45}{Extra slides: Pharmaceutical prices}{Doc-Start}{}}
\@writefile{snm}{\beamer@slide {sumstat2}{45}}
\newlabel{tab:descr2}{{3}{45}{Summary statistics for drugs with some observations and a maximum/minimum price ratio under 30\relax }{Doc-Start}{}}
\@writefile{snm}{\beamer@slide {tab:descr2}{45}}
\@writefile{nav}{\headcommand {\slideentry {7}{0}{3}{45/45}{}{1}}}
\@writefile{nav}{\headcommand {\beamer@framepages {45}{45}}}
\citation{Vacca2011}
\citation{Departamento2012}
\pbs@newkey{pbs@last@page}{46}
\newlabel{problemsismed<1>}{{33}{46}{Extra slides: Pharmaceutical prices}{Doc-Start}{}}
\@writefile{snm}{\beamer@slide {problemsismed<1>}{46}}
\newlabel{problemsismed}{{33}{46}{Extra slides: Pharmaceutical prices}{Doc-Start}{}}
\@writefile{snm}{\beamer@slide {problemsismed}{46}}
\@writefile{nav}{\headcommand {\slideentry {7}{0}{4}{46/46}{}{1}}}
\@writefile{nav}{\headcommand {\beamer@framepages {46}{46}}}
\pbs@newkey{pbs@last@page}{47}
\newlabel{reg_timing<1>}{{34}{47}{Extra slides: Pharmaceutical prices}{Doc-Start}{}}
\@writefile{snm}{\beamer@slide {reg_timing<1>}{47}}
\newlabel{reg_timing}{{34}{47}{Extra slides: Pharmaceutical prices}{Doc-Start}{}}
\@writefile{snm}{\beamer@slide {reg_timing}{47}}
\newlabel{tab:timing}{{4}{47}{Timing and other regulatory changes\relax }{Doc-Start}{}}
\@writefile{snm}{\beamer@slide {tab:timing}{47}}
\@writefile{nav}{\headcommand {\slideentry {7}{0}{5}{47/47}{}{1}}}
\@writefile{nav}{\headcommand {\beamer@framepages {47}{47}}}
\pbs@newkey{pbs@last@page}{48}
\newlabel{reg_p<1>}{{35}{48}{Extra slides: Pharmaceutical prices}{Doc-Start}{}}
\@writefile{snm}{\beamer@slide {reg_p<1>}{48}}
\newlabel{reg_p}{{35}{48}{Extra slides: Pharmaceutical prices}{Doc-Start}{}}
\@writefile{snm}{\beamer@slide {reg_p}{48}}
\newlabel{tab:POS}{{5}{48}{Effect on a drug's price of including the drug to the benefit plan \relax }{Doc-Start}{}}
\@writefile{snm}{\beamer@slide {tab:POS}{48}}
\@writefile{nav}{\headcommand {\slideentry {7}{0}{6}{48/48}{}{1}}}
\@writefile{nav}{\headcommand {\beamer@framepages {48}{48}}}
\pbs@newkey{pbs@last@page}{49}
\newlabel{reg_q<1>}{{36}{49}{Extra slides: Pharmaceutical prices}{Doc-Start}{}}
\@writefile{snm}{\beamer@slide {reg_q<1>}{49}}
\newlabel{reg_q}{{36}{49}{Extra slides: Pharmaceutical prices}{Doc-Start}{}}
\@writefile{snm}{\beamer@slide {reg_q}{49}}
\newlabel{tab:POS2}{{6}{49}{Effect of including a drug in the health plan on the quantities sold \relax }{Doc-Start}{}}
\@writefile{snm}{\beamer@slide {tab:POS2}{49}}
\@writefile{nav}{\headcommand {\slideentry {7}{0}{7}{49/49}{}{1}}}
\@writefile{nav}{\headcommand {\beamer@framepages {49}{49}}}
\pbs@newkey{pbs@last@page}{50}
\newlabel{fig2014<1>}{{37}{50}{Extra slides: Pharmaceutical prices}{Doc-Start}{}}
\@writefile{snm}{\beamer@slide {fig2014<1>}{50}}
\newlabel{fig2014}{{37}{50}{Extra slides: Pharmaceutical prices}{Doc-Start}{}}
\@writefile{snm}{\beamer@slide {fig2014}{50}}
\newlabel{fig:eve_pos_price_2011}{{5}{50}{\tiny Event study for the effect of including a pharmaceutical in the POS on its price. \textit {Source:} SISMED and INVIMA. \textit {Calculations:} Author. \relax }{Doc-Start}{}}
\@writefile{snm}{\beamer@slide {fig:eve_pos_price_2011}{50}}
\@writefile{nav}{\headcommand {\slideentry {7}{0}{8}{50/50}{}{1}}}
\@writefile{nav}{\headcommand {\beamer@framepages {50}{50}}}
\pbs@newkey{pbs@last@page}{51}
\newlabel{fig2012<1>}{{38}{51}{Extra slides: Pharmaceutical prices}{Doc-Start}{}}
\@writefile{snm}{\beamer@slide {fig2012<1>}{51}}
\newlabel{fig2012}{{38}{51}{Extra slides: Pharmaceutical prices}{Doc-Start}{}}
\@writefile{snm}{\beamer@slide {fig2012}{51}}
\newlabel{fig:eve_pos_price_2012}{{6}{51}{\tiny Event study for the effect of including a pharmaceutical in the POS on its price. \textit {Source:} SISMED and INVIMA. \textit {Calculations:} Author. \relax }{Doc-Start}{}}
\@writefile{snm}{\beamer@slide {fig:eve_pos_price_2012}{51}}
\@writefile{nav}{\headcommand {\slideentry {7}{0}{9}{51/51}{}{1}}}
\@writefile{nav}{\headcommand {\beamer@framepages {51}{51}}}
\pbs@newkey{pbs@last@page}{52}
\newlabel{fig2014_q<1>}{{39}{52}{Extra slides: Pharmaceutical prices}{Doc-Start}{}}
\@writefile{snm}{\beamer@slide {fig2014_q<1>}{52}}
\newlabel{fig2014_q}{{39}{52}{Extra slides: Pharmaceutical prices}{Doc-Start}{}}
\@writefile{snm}{\beamer@slide {fig2014_q}{52}}
\newlabel{fig:eve_pos_quantity_2011}{{7}{52}{\tiny Event study for the effect of including a pharmaceutical in the POS on its price. \textit {Source:} SISMED and INVIMA. \textit {Calculations:} Author. \relax }{Doc-Start}{}}
\@writefile{snm}{\beamer@slide {fig:eve_pos_quantity_2011}{52}}
\@writefile{nav}{\headcommand {\slideentry {7}{0}{10}{52/52}{}{1}}}
\@writefile{nav}{\headcommand {\beamer@framepages {52}{52}}}
\pbs@newkey{pbs@last@page}{53}
\newlabel{fig2012_q<1>}{{40}{53}{Extra slides: Pharmaceutical prices}{Doc-Start}{}}
\@writefile{snm}{\beamer@slide {fig2012_q<1>}{53}}
\newlabel{fig2012_q}{{40}{53}{Extra slides: Pharmaceutical prices}{Doc-Start}{}}
\@writefile{snm}{\beamer@slide {fig2012_q}{53}}
\newlabel{fig:eve_pos_quantity_2012}{{8}{53}{\tiny Event study for the effect of including a pharmaceutical in the POS on its price. \textit {Source:} SISMED and INVIMA. \textit {Calculations:} Author. \relax }{Doc-Start}{}}
\@writefile{snm}{\beamer@slide {fig:eve_pos_quantity_2012}{53}}
\@writefile{nav}{\headcommand {\slideentry {7}{0}{11}{53/53}{}{1}}}
\@writefile{nav}{\headcommand {\beamer@framepages {53}{53}}}
\pbs@newkey{pbs@last@page}{54}
\newlabel{price_scale<1>}{{41}{54}{Extra slides: Pharmaceutical prices}{Doc-Start}{}}
\@writefile{snm}{\beamer@slide {price_scale<1>}{54}}
\newlabel{price_scale}{{41}{54}{Extra slides: Pharmaceutical prices}{Doc-Start}{}}
\@writefile{snm}{\beamer@slide {price_scale}{54}}
\newlabel{tab:POS_ROB2}{{7}{54}{Effect of including a drug in the health plan for locally produced vs. imported drugs \relax }{Doc-Start}{}}
\@writefile{snm}{\beamer@slide {tab:POS_ROB2}{54}}
\@writefile{nav}{\headcommand {\slideentry {7}{0}{12}{54/54}{}{1}}}
\@writefile{nav}{\headcommand {\beamer@framepages {54}{54}}}
\pbs@newkey{pbs@last@page}{55}
\newlabel{price_otc<1>}{{42}{55}{Extra slides: Pharmaceutical prices}{Doc-Start}{}}
\@writefile{snm}{\beamer@slide {price_otc<1>}{55}}
\newlabel{price_otc}{{42}{55}{Extra slides: Pharmaceutical prices}{Doc-Start}{}}
\@writefile{snm}{\beamer@slide {price_otc}{55}}
\newlabel{tab:POS_ROB5}{{8}{55}{Effect of including a drug in the health plan by OTC/Rx status\relax }{Doc-Start}{}}
\@writefile{snm}{\beamer@slide {tab:POS_ROB5}{55}}
\@writefile{nav}{\headcommand {\slideentry {7}{0}{13}{55/55}{}{1}}}
\@writefile{nav}{\headcommand {\beamer@framepages {55}{55}}}
\pbs@newkey{pbs@last@page}{56}
\newlabel{early_timing<1>}{{43}{56}{Extra slides: Pharmaceutical prices}{Doc-Start}{}}
\@writefile{snm}{\beamer@slide {early_timing<1>}{56}}
\newlabel{early_timing}{{43}{56}{Extra slides: Pharmaceutical prices}{Doc-Start}{}}
\@writefile{snm}{\beamer@slide {early_timing}{56}}
\@writefile{nav}{\headcommand {\slideentry {7}{0}{14}{56/56}{}{1}}}
\@writefile{nav}{\headcommand {\beamer@framepages {56}{56}}}
\pbs@newkey{pbs@last@page}{57}
\newlabel{late_timing<1>}{{44}{57}{Extra slides: Pharmaceutical prices}{Doc-Start}{}}
\@writefile{snm}{\beamer@slide {late_timing<1>}{57}}
\newlabel{late_timing}{{44}{57}{Extra slides: Pharmaceutical prices}{Doc-Start}{}}
\@writefile{snm}{\beamer@slide {late_timing}{57}}
\@writefile{nav}{\headcommand {\slideentry {7}{0}{15}{57/57}{}{1}}}
\@writefile{nav}{\headcommand {\beamer@framepages {57}{57}}}
\pbs@newkey{pbs@last@page}{58}
\newlabel{yearATCFE<1>}{{45}{58}{Extra slides: Pharmaceutical prices}{Doc-Start}{}}
\@writefile{snm}{\beamer@slide {yearATCFE<1>}{58}}
\newlabel{yearATCFE}{{45}{58}{Extra slides: Pharmaceutical prices}{Doc-Start}{}}
\@writefile{snm}{\beamer@slide {yearATCFE}{58}}
\newlabel{fig:eve_pos_pricefe}{{9}{58}{\tiny Event study for the effect of including a pharmaceutical in the POS on its price. \textit {Source:} SISMED and INVIMA. \textit {Calculations:} Author. \relax }{Doc-Start}{}}
\@writefile{snm}{\beamer@slide {fig:eve_pos_pricefe}{58}}
\@writefile{nav}{\headcommand {\slideentry {7}{0}{16}{58/58}{}{1}}}
\@writefile{nav}{\headcommand {\beamer@framepages {58}{58}}}
\pbs@newkey{pbs@last@page}{59}
\newlabel{yearATCFE_Q<1>}{{46}{59}{Extra slides: Pharmaceutical prices}{Doc-Start}{}}
\@writefile{snm}{\beamer@slide {yearATCFE_Q<1>}{59}}
\newlabel{yearATCFE_Q}{{46}{59}{Extra slides: Pharmaceutical prices}{Doc-Start}{}}
\@writefile{snm}{\beamer@slide {yearATCFE_Q}{59}}
\newlabel{fig:eve_pos_qfe}{{10}{59}{\tiny Event study for the effect of including a pharmaceutical in the POS on its price. \textit {Source:} SISMED and INVIMA. \textit {Calculations:} Author. \relax }{Doc-Start}{}}
\@writefile{snm}{\beamer@slide {fig:eve_pos_qfe}{59}}
\@writefile{nav}{\headcommand {\slideentry {7}{0}{17}{59/59}{}{1}}}
\@writefile{nav}{\headcommand {\beamer@framepages {59}{59}}}
\pbs@newkey{pbs@last@page}{60}
\newlabel{groupcompeting<1>}{{47}{60}{Extra slides: Pharmaceutical prices}{Doc-Start}{}}
\@writefile{snm}{\beamer@slide {groupcompeting<1>}{60}}
\newlabel{groupcompeting}{{47}{60}{Extra slides: Pharmaceutical prices}{Doc-Start}{}}
\@writefile{snm}{\beamer@slide {groupcompeting}{60}}
\@writefile{nav}{\headcommand {\slideentry {7}{0}{18}{60/60}{}{1}}}
\@writefile{nav}{\headcommand {\beamer@framepages {60}{60}}}
\@writefile{nav}{\headcommand {\beamer@partpages {43}{60}}}
\@writefile{nav}{\headcommand {\beamer@subsectionpages {43}{60}}}
\@writefile{nav}{\headcommand {\beamer@sectionpages {43}{60}}}
\@writefile{nav}{\headcommand {\beamer@documentpages {60}}}
\@writefile{nav}{\headcommand {\def \inserttotalframenumber {47}}}
