This is pdfTeX, Version 3.14159265-2.6-1.40.18 (MiKTeX 2.9.6300) (preloaded format=pdflatex 2017.4.30)  5 AUG 2017 13:16
entering extended mode
**./Romero_PharmaPrices.tex
(Romero_PharmaPrices.tex
LaTeX2e <2017-04-15>
Babel <3.9r> and hyphenation patterns for 73 language(s) loaded.
("C:\Program Files (x86)\MiKTeX 2.9\tex\latex\base\article.cls"
Document Class: article 2014/09/29 v1.4h Standard LaTeX document class
("C:\Program Files (x86)\MiKTeX 2.9\tex\latex\base\size10.clo"
File: size10.clo 2014/09/29 v1.4h Standard LaTeX file (size option)
)
\c@part=\count79
\c@section=\count80
\c@subsection=\count81
\c@subsubsection=\count82
\c@paragraph=\count83
\c@subparagraph=\count84
\c@figure=\count85
\c@table=\count86
\abovecaptionskip=\skip41
\belowcaptionskip=\skip42
\bibindent=\dimen102
)
("C:\Program Files (x86)\MiKTeX 2.9\tex\latex\endfloat\endfloat.sty"
Package: endfloat 2011/12/25 v2.5d LaTeX2e package puts figures and tables at e
nd (jdm)

("C:\Program Files (x86)\MiKTeX 2.9\tex\latex\graphics\keyval.sty"
Package: keyval 2014/10/28 v1.15 key=value parser (DPC)
\KV@toks@=\toks14
)
\c@postfigure=\count87
\efloat@postfff=\write3
\@ef@fffopen=\count88
\c@posttable=\count89
\efloat@postttt=\write4
\@ef@tttopen=\count90
)
("C:\Program Files (x86)\MiKTeX 2.9\tex\latex\amsfonts\amssymb.sty"
Package: amssymb 2013/01/14 v3.01 AMS font symbols

("C:\Program Files (x86)\MiKTeX 2.9\tex\latex\amsfonts\amsfonts.sty"
Package: amsfonts 2013/01/14 v3.01 Basic AMSFonts support
\@emptytoks=\toks15
\symAMSa=\mathgroup4
\symAMSb=\mathgroup5
LaTeX Font Info:    Overwriting math alphabet `\mathfrak' in version `bold'
(Font)                  U/euf/m/n --> U/euf/b/n on input line 106.
))
("C:\Program Files (x86)\MiKTeX 2.9\tex\latex\tools\dcolumn.sty"
Package: dcolumn 2014/10/28 v1.06 decimal alignment package (DPC)

("C:\Program Files (x86)\MiKTeX 2.9\tex\latex\tools\array.sty"
Package: array 2016/10/06 v2.4d Tabular extension package (FMi)
\col@sep=\dimen103
\extrarowheight=\dimen104
\NC@list=\toks16
\extratabsurround=\skip43
\backup@length=\skip44
))
("C:\Program Files (x86)\MiKTeX 2.9\tex\latex\booktabs\booktabs.sty"
Package: booktabs 2005/04/14 v1.61803 publication quality tables
\heavyrulewidth=\dimen105
\lightrulewidth=\dimen106
\cmidrulewidth=\dimen107
\belowrulesep=\dimen108
\belowbottomsep=\dimen109
\aboverulesep=\dimen110
\abovetopsep=\dimen111
\cmidrulesep=\dimen112
\cmidrulekern=\dimen113
\defaultaddspace=\dimen114
\@cmidla=\count91
\@cmidlb=\count92
\@aboverulesep=\dimen115
\@belowrulesep=\dimen116
\@thisruleclass=\count93
\@lastruleclass=\count94
\@thisrulewidth=\dimen117
)
("C:\Program Files (x86)\MiKTeX 2.9\tex\latex\setspace\setspace.sty"
Package: setspace 2011/12/19 v6.7a set line spacing
)
("C:\Program Files (x86)\MiKTeX 2.9\tex\latex\caption\caption.sty"
Package: caption 2016/02/21 v3.3-144 Customizing captions (AR)

("C:\Program Files (x86)\MiKTeX 2.9\tex\latex\caption\caption3.sty"
Package: caption3 2016/05/22 v1.7-166 caption3 kernel (AR)
Package caption3 Info: TeX engine: e-TeX on input line 67.
\captionmargin=\dimen118
\captionmargin@=\dimen119
\captionwidth=\dimen120
\caption@tempdima=\dimen121
\caption@indent=\dimen122
\caption@parindent=\dimen123
\caption@hangindent=\dimen124
)
\c@ContinuedFloat=\count95
)
("C:\Program Files (x86)\MiKTeX 2.9\tex\latex\caption\subcaption.sty"
Package: subcaption 2016/05/22 v1.1-161 Sub-captions (AR)
\c@subfigure=\count96
\c@subtable=\count97
)
("C:\Program Files (x86)\MiKTeX 2.9\tex\latex\mdwtools\footnote.sty"
Package: footnote 1997/01/28 1.13 Save footnotes around boxes
\fn@notes=\box26
\fn@width=\dimen125
)
("C:\Program Files (x86)\MiKTeX 2.9\tex\latex\threeparttable\threeparttable.sty
"
Package: threeparttable 2003/06/13  v 3.0
\@tempboxb=\box27
) ("C:\Program Files (x86)\MiKTeX 2.9\tex\latex\preprint\fullpage.sty"
Package: fullpage 1999/02/23 1.1 (PWD)
\FP@margin=\skip45
)
("C:\Program Files (x86)\MiKTeX 2.9\tex\latex\jknappen\mathrsfs.sty"
Package: mathrsfs 1996/01/01 Math RSFS package v1.0 (jk)
\symrsfs=\mathgroup6
)
("C:\Program Files (x86)\MiKTeX 2.9\tex\latex\amsmath\amsmath.sty"
Package: amsmath 2016/11/05 v2.16a AMS math features
\@mathmargin=\skip46

For additional information on amsmath, use the `?' option.
("C:\Program Files (x86)\MiKTeX 2.9\tex\latex\amsmath\amstext.sty"
Package: amstext 2000/06/29 v2.01 AMS text

("C:\Program Files (x86)\MiKTeX 2.9\tex\latex\amsmath\amsgen.sty"
File: amsgen.sty 1999/11/30 v2.0 generic functions
\@emptytoks=\toks17
\ex@=\dimen126
))
("C:\Program Files (x86)\MiKTeX 2.9\tex\latex\amsmath\amsbsy.sty"
Package: amsbsy 1999/11/29 v1.2d Bold Symbols
\pmbraise@=\dimen127
)
("C:\Program Files (x86)\MiKTeX 2.9\tex\latex\amsmath\amsopn.sty"
Package: amsopn 2016/03/08 v2.02 operator names
)
\inf@bad=\count98
LaTeX Info: Redefining \frac on input line 213.
\uproot@=\count99
\leftroot@=\count100
LaTeX Info: Redefining \overline on input line 375.
\classnum@=\count101
\DOTSCASE@=\count102
LaTeX Info: Redefining \ldots on input line 472.
LaTeX Info: Redefining \dots on input line 475.
LaTeX Info: Redefining \cdots on input line 596.
\Mathstrutbox@=\box28
\strutbox@=\box29
\big@size=\dimen128
LaTeX Font Info:    Redeclaring font encoding OML on input line 712.
LaTeX Font Info:    Redeclaring font encoding OMS on input line 713.
\macc@depth=\count103
\c@MaxMatrixCols=\count104
\dotsspace@=\muskip10
\c@parentequation=\count105
\dspbrk@lvl=\count106
\tag@help=\toks18
\row@=\count107
\column@=\count108
\maxfields@=\count109
\andhelp@=\toks19
\eqnshift@=\dimen129
\alignsep@=\dimen130
\tagshift@=\dimen131
\tagwidth@=\dimen132
\totwidth@=\dimen133
\lineht@=\dimen134
\@envbody=\toks20
\multlinegap=\skip47
\multlinetaggap=\skip48
\mathdisplay@stack=\toks21
LaTeX Info: Redefining \[ on input line 2817.
LaTeX Info: Redefining \] on input line 2818.
)
("C:\Program Files (x86)\MiKTeX 2.9\tex\latex\graphics\graphicx.sty"
Package: graphicx 2014/10/28 v1.0g Enhanced LaTeX Graphics (DPC,SPQR)

("C:\Program Files (x86)\MiKTeX 2.9\tex\latex\graphics\graphics.sty"
Package: graphics 2017/04/14 v1.1b Standard LaTeX Graphics (DPC,SPQR)

("C:\Program Files (x86)\MiKTeX 2.9\tex\latex\graphics\trig.sty"
Package: trig 2016/01/03 v1.10 sin cos tan (DPC)
)
("C:\Program Files (x86)\MiKTeX 2.9\tex\latex\graphics-cfg\graphics.cfg"
File: graphics.cfg 2016/06/04 v1.11 sample graphics configuration
)
Package graphics Info: Driver file: pdftex.def on input line 99.

("C:\Program Files (x86)\MiKTeX 2.9\tex\latex\graphics-def\pdftex.def"
File: pdftex.def 2017/01/12 v0.06k Graphics/color for pdfTeX

("C:\Program Files (x86)\MiKTeX 2.9\tex\generic\oberdiek\infwarerr.sty"
Package: infwarerr 2016/05/16 v1.4 Providing info/warning/error messages (HO)
)
("C:\Program Files (x86)\MiKTeX 2.9\tex\generic\oberdiek\ltxcmds.sty"
Package: ltxcmds 2016/05/16 v1.23 LaTeX kernel commands for general use (HO)
)
\Gread@gobject=\count110
))
\Gin@req@height=\dimen135
\Gin@req@width=\dimen136
)
("C:\Program Files (x86)\MiKTeX 2.9\tex\latex\float\float.sty"
Package: float 2001/11/08 v1.3d Float enhancements (AL)
\c@float@type=\count111
\float@exts=\toks22
\float@box=\box30
\@float@everytoks=\toks23
\@floatcapt=\box31
)
("C:\Program Files (x86)\MiKTeX 2.9\tex\latex\tools\tabularx.sty"
Package: tabularx 2016/02/03 v2.11 `tabularx' package (DPC)
\TX@col@width=\dimen137
\TX@old@table=\dimen138
\TX@old@col=\dimen139
\TX@target=\dimen140
\TX@delta=\dimen141
\TX@cols=\count112
\TX@ftn=\toks24
)
("C:\Program Files (x86)\MiKTeX 2.9\tex\latex\tablefootnote\tablefootnote.sty"
Package: tablefootnote 2014/01/26 v1.1c Table foot notes (HMM)

("C:\Program Files (x86)\MiKTeX 2.9\tex\latex\oberdiek\letltxmacro.sty"
Package: letltxmacro 2016/05/16 v1.5 Let assignment for LaTeX macros (HO)
)
("C:\Program Files (x86)\MiKTeX 2.9\tex\latex\xifthen\xifthen.sty"
Package: xifthen 2015/11/05 v1.4.0 Extended ifthen features

("C:\Program Files (x86)\MiKTeX 2.9\tex\latex\tools\calc.sty"
Package: calc 2014/10/28 v4.3 Infix arithmetic (KKT,FJ)
\calc@Acount=\count113
\calc@Bcount=\count114
\calc@Adimen=\dimen142
\calc@Bdimen=\dimen143
\calc@Askip=\skip49
\calc@Bskip=\skip50
LaTeX Info: Redefining \setlength on input line 80.
LaTeX Info: Redefining \addtolength on input line 81.
\calc@Ccount=\count115
\calc@Cskip=\skip51
)
("C:\Program Files (x86)\MiKTeX 2.9\tex\latex\base\ifthen.sty"
Package: ifthen 2014/09/29 v1.1c Standard LaTeX ifthen package (DPC)
)
("C:\Program Files (x86)\MiKTeX 2.9\tex\latex\ifmtarg\ifmtarg.sty"
Package: ifmtarg 2009/09/02 v1.2a check for an empty argument
))
("C:\Program Files (x86)\MiKTeX 2.9\tex\latex\etoolbox\etoolbox.sty"
Package: etoolbox 2017/01/02 v2.4 e-TeX tools for LaTeX (JAW)
\etb@tempcnta=\count116
))
("C:\Program Files (x86)\MiKTeX 2.9\tex\latex\hyperref\hyperref.sty"
Package: hyperref 2017/03/14 v6.85a Hypertext links for LaTeX

("C:\Program Files (x86)\MiKTeX 2.9\tex\generic\oberdiek\hobsub-hyperref.sty"
Package: hobsub-hyperref 2016/05/16 v1.14 Bundle oberdiek, subset hyperref (HO)


("C:\Program Files (x86)\MiKTeX 2.9\tex\generic\oberdiek\hobsub-generic.sty"
Package: hobsub-generic 2016/05/16 v1.14 Bundle oberdiek, subset generic (HO)
Package: hobsub 2016/05/16 v1.14 Construct package bundles (HO)
Package hobsub Info: Skipping package `infwarerr' (already loaded).
Package hobsub Info: Skipping package `ltxcmds' (already loaded).
Package: ifluatex 2016/05/16 v1.4 Provides the ifluatex switch (HO)
Package ifluatex Info: LuaTeX not detected.
Package: ifvtex 2016/05/16 v1.6 Detect VTeX and its facilities (HO)
Package ifvtex Info: VTeX not detected.
Package: intcalc 2016/05/16 v1.2 Expandable calculations with integers (HO)
Package: ifpdf 2017/03/15 v3.2 Provides the ifpdf switch
Package: etexcmds 2016/05/16 v1.6 Avoid name clashes with e-TeX commands (HO)
Package etexcmds Info: Could not find \expanded.
(etexcmds)             That can mean that you are not using pdfTeX 1.50 or
(etexcmds)             that some package has redefined \expanded.
(etexcmds)             In the latter case, load this package earlier.
Package: kvsetkeys 2016/05/16 v1.17 Key value parser (HO)
Package: kvdefinekeys 2016/05/16 v1.4 Define keys (HO)
Package: pdftexcmds 2017/03/19 v0.25 Utility functions of pdfTeX for LuaTeX (HO
)
Package pdftexcmds Info: LuaTeX not detected.
Package pdftexcmds Info: \pdf@primitive is available.
Package pdftexcmds Info: \pdf@ifprimitive is available.
Package pdftexcmds Info: \pdfdraftmode found.
Package: pdfescape 2016/05/16 v1.14 Implements pdfTeX's escape features (HO)
Package: bigintcalc 2016/05/16 v1.4 Expandable calculations on big integers (HO
)
Package: bitset 2016/05/16 v1.2 Handle bit-vector datatype (HO)
Package: uniquecounter 2016/05/16 v1.3 Provide unlimited unique counter (HO)
)
Package hobsub Info: Skipping package `hobsub' (already loaded).
Package hobsub Info: Skipping package `letltxmacro' (already loaded).
Package: hopatch 2016/05/16 v1.3 Wrapper for package hooks (HO)
Package: xcolor-patch 2016/05/16 xcolor patch
Package: atveryend 2016/05/16 v1.9 Hooks at the very end of document (HO)
Package: atbegshi 2016/06/09 v1.18 At begin shipout hook (HO)
Package: refcount 2016/05/16 v3.5 Data extraction from label references (HO)
Package: hycolor 2016/05/16 v1.8 Color options for hyperref/bookmark (HO)
)
("C:\Program Files (x86)\MiKTeX 2.9\tex\generic\ifxetex\ifxetex.sty"
Package: ifxetex 2010/09/12 v0.6 Provides ifxetex conditional
)
("C:\Program Files (x86)\MiKTeX 2.9\tex\latex\oberdiek\auxhook.sty"
Package: auxhook 2016/05/16 v1.4 Hooks for auxiliary files (HO)
)
("C:\Program Files (x86)\MiKTeX 2.9\tex\latex\oberdiek\kvoptions.sty"
Package: kvoptions 2016/05/16 v3.12 Key value format for package options (HO)
)
\@linkdim=\dimen144
\Hy@linkcounter=\count117
\Hy@pagecounter=\count118

("C:\Program Files (x86)\MiKTeX 2.9\tex\latex\hyperref\pd1enc.def"
File: pd1enc.def 2017/03/14 v6.85a Hyperref: PDFDocEncoding definition (HO)
)
\Hy@SavedSpaceFactor=\count119

("C:\Program Files (x86)\MiKTeX 2.9\tex\latex\00miktex\hyperref.cfg"
File: hyperref.cfg 2002/06/06 v1.2 hyperref configuration of TeXLive
)
Package hyperref Info: Option `plainpages' set `false' on input line 4374.
Package hyperref Info: Option `pdfpagelabels' set `true' on input line 4374.
Package hyperref Info: Hyper figures OFF on input line 4498.
Package hyperref Info: Link nesting OFF on input line 4503.
Package hyperref Info: Hyper index ON on input line 4506.
Package hyperref Info: Plain pages OFF on input line 4513.
Package hyperref Info: Backreferencing OFF on input line 4518.
Package hyperref Info: Implicit mode ON; LaTeX internals redefined.
Package hyperref Info: Bookmarks ON on input line 4751.
\c@Hy@tempcnt=\count120

("C:\Program Files (x86)\MiKTeX 2.9\tex\latex\url\url.sty"
\Urlmuskip=\muskip11
Package: url 2013/09/16  ver 3.4  Verb mode for urls, etc.
)
LaTeX Info: Redefining \url on input line 5104.
\XeTeXLinkMargin=\dimen145
\Fld@menulength=\count121
\Field@Width=\dimen146
\Fld@charsize=\dimen147
Package hyperref Info: Hyper figures OFF on input line 6358.
Package hyperref Info: Link nesting OFF on input line 6363.
Package hyperref Info: Hyper index ON on input line 6366.
Package hyperref Info: backreferencing OFF on input line 6373.
Package hyperref Info: Link coloring OFF on input line 6378.
Package hyperref Info: Link coloring with OCG OFF on input line 6383.
Package hyperref Info: PDF/A mode OFF on input line 6388.
LaTeX Info: Redefining \ref on input line 6428.
LaTeX Info: Redefining \pageref on input line 6432.
\Hy@abspage=\count122
\c@Item=\count123
\c@Hfootnote=\count124
)

Package hyperref Message: Driver (autodetected): hpdftex.

("C:\Program Files (x86)\MiKTeX 2.9\tex\latex\hyperref\hpdftex.def"
File: hpdftex.def 2017/03/14 v6.85a Hyperref driver for pdfTeX
\Fld@listcount=\count125
\c@bookmark@seq@number=\count126

("C:\Program Files (x86)\MiKTeX 2.9\tex\latex\oberdiek\rerunfilecheck.sty"
Package: rerunfilecheck 2016/05/16 v1.8 Rerun checks for auxiliary files (HO)
Package uniquecounter Info: New unique counter `rerunfilecheck' on input line 2
82.
)
\Hy@SectionHShift=\skip52
)
("C:\Program Files (x86)\MiKTeX 2.9\tex\generic\babel\babel.sty"
Package: babel 2016/04/23 3.9r The Babel package

*************************************
* Local config file bblopts.cfg used
*
("C:\Program Files (x86)\MiKTeX 2.9\tex\latex\arabi\bblopts.cfg"
File: bblopts.cfg 2005/09/08 v0.1 add Arabic and Farsi to "declared" options of
 babel
)
("C:\Program Files (x86)\MiKTeX 2.9\tex\latex\babel-english\english.ldf"
Language: english 2017/01/24 v3.3q English support from the babel system

("C:\Program Files (x86)\MiKTeX 2.9\tex\generic\babel\babel.def"
File: babel.def 2016/04/23 3.9r Babel common definitions
\babel@savecnt=\count127
\U@D=\dimen148
)
\l@canadian = a dialect from \language\l@american 
\l@australian = a dialect from \language\l@british 
\l@newzealand = a dialect from \language\l@british 
))
("C:\Program Files (x86)\MiKTeX 2.9\tex\latex\base\inputenc.sty"
Package: inputenc 2015/03/17 v1.2c Input encoding file
\inpenc@prehook=\toks25
\inpenc@posthook=\toks26

("C:\Program Files (x86)\MiKTeX 2.9\tex\latex\base\latin1.def"
File: latin1.def 2015/03/17 v1.2c Input encoding file
))
("C:\Program Files (x86)\MiKTeX 2.9\tex\latex\hyperref\nameref.sty"
Package: nameref 2016/05/21 v2.44 Cross-referencing by name of section

("C:\Program Files (x86)\MiKTeX 2.9\tex\generic\oberdiek\gettitlestring.sty"
Package: gettitlestring 2016/05/16 v1.5 Cleanup title references (HO)
)
\c@section@level=\count128
)
("C:\Program Files (x86)\MiKTeX 2.9\tex\latex\psnfss\mathpazo.sty"
Package: mathpazo 2005/04/12 PSNFSS-v9.2a Palatino w/ Pazo Math (D.Puga, WaS) 
\symupright=\mathgroup7
)
("C:\Program Files (x86)\MiKTeX 2.9\tex\latex\csquotes\csquotes.sty"
Package: csquotes 2017/03/11 v5.2b context-sensitive quotations (JAW)
\csq@reset=\count129
\csq@gtype=\count130
\csq@glevel=\count131
\csq@qlevel=\count132
\csq@maxlvl=\count133
\csq@tshold=\count134
\csq@ltx@everypar=\toks27

("C:\Program Files (x86)\MiKTeX 2.9\tex\latex\csquotes\csquotes.def"
File: csquotes.def 2017/03/11 v5.2b csquotes generic definitions (JAW)
)
Package csquotes Info: Trying to load configuration file 'csquotes.cfg'...
Package csquotes Info: ... configuration file loaded successfully.

("C:\Program Files (x86)\MiKTeX 2.9\tex\latex\csquotes\csquotes.cfg"
File: csquotes.cfg 
)
Package csquotes Info: Enabling multilingual quotes.
Package csquotes Info: Redefining alias 'english' -> 'english/american'.
)
("C:\Program Files (x86)\MiKTeX 2.9\tex\latex\apacite\apacite.sty"
Package: apacite 2013/07/21 v6.03 APA citation
\c@BibCnt=\count135
\bibleftmargin=\skip53
\bibindent=\skip54
\bibparsep=\skip55
\bibitemsep=\skip56
\biblabelsep=\skip57
)
Package csquotes Info: Allocating character ".
\c@acknowledgement=\count136
\c@algorithm=\count137
\c@axiom=\count138
\c@case=\count139
\c@claim=\count140
\c@theorem=\count141
\c@conclusion=\count142
\c@condition=\count143
\c@conjecture=\count144
\c@corollary=\count145
\c@criterion=\count146
\c@definition=\count147
\c@example=\count148
\c@exercise=\count149
\c@lemma=\count150
\c@notation=\count151
\c@problem=\count152
\c@proposition=\count153
\c@remark=\count154
\c@solution=\count155
\c@summary=\count156
Package csquotes Info: Checking for multilingual support...
Package csquotes Info: ... found 'babel' package.

(Romero_PharmaPrices.aux)
\openout1 = `Romero_PharmaPrices.aux'.

LaTeX Font Info:    Checking defaults for OML/cmm/m/it on input line 90.
LaTeX Font Info:    ... okay on input line 90.
LaTeX Font Info:    Checking defaults for T1/cmr/m/n on input line 90.
LaTeX Font Info:    ... okay on input line 90.
LaTeX Font Info:    Checking defaults for OT1/cmr/m/n on input line 90.
LaTeX Font Info:    ... okay on input line 90.
LaTeX Font Info:    Checking defaults for OMS/cmsy/m/n on input line 90.
LaTeX Font Info:    ... okay on input line 90.
LaTeX Font Info:    Checking defaults for OMX/cmex/m/n on input line 90.
LaTeX Font Info:    ... okay on input line 90.
LaTeX Font Info:    Checking defaults for U/cmr/m/n on input line 90.
LaTeX Font Info:    ... okay on input line 90.
LaTeX Font Info:    Checking defaults for PD1/pdf/m/n on input line 90.
LaTeX Font Info:    ... okay on input line 90.
LaTeX Font Info:    Try loading font information for OT1+pplx on input line 90.


("C:\Program Files (x86)\MiKTeX 2.9\tex\latex\psnfss\ot1pplx.fd"
File: ot1pplx.fd 2004/09/06 font definitions for OT1/pplx.
)
Package caption Info: Begin \AtBeginDocument code.
Package caption Info: float package is loaded.
Package caption Info: hyperref package is loaded.
Package caption Info: threeparttable package is loaded.
Package caption Info: End \AtBeginDocument code.

("C:\Program Files (x86)\MiKTeX 2.9\tex\context\base\supp-pdf.mkii"
[Loading MPS to PDF converter (version 2006.09.02).]
\scratchcounter=\count157
\scratchdimen=\dimen149
\scratchbox=\box32
\nofMPsegments=\count158
\nofMParguments=\count159
\everyMPshowfont=\toks28
\MPscratchCnt=\count160
\MPscratchDim=\dimen150
\MPnumerator=\count161
\makeMPintoPDFobject=\count162
\everyMPtoPDFconversion=\toks29
) ("C:\Program Files (x86)\MiKTeX 2.9\tex\latex\oberdiek\epstopdf-base.sty"
Package: epstopdf-base 2016/05/15 v2.6 Base part for package epstopdf

("C:\Program Files (x86)\MiKTeX 2.9\tex\latex\oberdiek\grfext.sty"
Package: grfext 2016/05/16 v1.2 Manage graphics extensions (HO)
)
Package epstopdf-base Info: Redefining graphics rule for `.eps' on input line 4
38.
Package grfext Info: Graphics extension search list:
(grfext)             [.png,.pdf,.jpg,.mps,.jpeg,.jbig2,.jb2,.PNG,.PDF,.JPG,.JPE
G,.JBIG2,.JB2,.eps]
(grfext)             \AppendGraphicsExtensions on input line 456.
)
\AtBeginShipoutBox=\box33
Package hyperref Info: Link coloring OFF on input line 90.
LaTeX Info: Redefining \ref on input line 90.
LaTeX Info: Redefining \pageref on input line 90.
LaTeX Info: Redefining \nameref on input line 90.

(Romero_PharmaPrices.out) (Romero_PharmaPrices.out)
\@outlinefile=\write5
\openout5 = `Romero_PharmaPrices.out'.

Package csquotes Info: Making character " active on input line 90.
\c@maskedRefs=\count163

("C:\Program Files (x86)\MiKTeX 2.9\tex\latex\apacite\english.apc"
File: english.apc 2013/07/21 v6.03 apacite language file
LaTeX Info: Redefining \BPBI on input line 129.
LaTeX Info: Redefining \BHBI on input line 130.
)
LaTeX Font Info:    Try loading font information for OML+zplm on input line 93.


("C:\Program Files (x86)\MiKTeX 2.9\tex\latex\psnfss\omlzplm.fd"
File: omlzplm.fd 2002/09/08 Fontinst v1.914 font definitions for OML/zplm.
)
LaTeX Font Info:    Try loading font information for OMS+zplm on input line 93.


("C:\Program Files (x86)\MiKTeX 2.9\tex\latex\psnfss\omszplm.fd"
File: omszplm.fd 2002/09/08 Fontinst v1.914 font definitions for OMS/zplm.
)
LaTeX Font Info:    Try loading font information for OMX+zplm on input line 93.


("C:\Program Files (x86)\MiKTeX 2.9\tex\latex\psnfss\omxzplm.fd"
File: omxzplm.fd 2002/09/08 Fontinst v1.914 font definitions for OMX/zplm.
)
LaTeX Font Info:    Font shape `U/msa/m/n' will be
(Font)              scaled to size 12.50409pt on input line 93.
LaTeX Font Info:    Font shape `U/msa/m/n' will be
(Font)              scaled to size 9.37807pt on input line 93.
LaTeX Font Info:    Font shape `U/msa/m/n' will be
(Font)              scaled to size 7.29405pt on input line 93.
LaTeX Font Info:    Font shape `U/msb/m/n' will be
(Font)              scaled to size 12.50409pt on input line 93.
LaTeX Font Info:    Font shape `U/msb/m/n' will be
(Font)              scaled to size 9.37807pt on input line 93.
LaTeX Font Info:    Font shape `U/msb/m/n' will be
(Font)              scaled to size 7.29405pt on input line 93.
LaTeX Font Info:    Try loading font information for U+rsfs on input line 93.

("C:\Program Files (x86)\MiKTeX 2.9\tex\latex\jknappen\ursfs.fd"
File: ursfs.fd 1998/03/24 rsfs font definition file (jk)
)
LaTeX Font Info:    Try loading font information for OT1+zplm on input line 93.


("C:\Program Files (x86)\MiKTeX 2.9\tex\latex\psnfss\ot1zplm.fd"
File: ot1zplm.fd 2002/09/08 Fontinst v1.914 font definitions for OT1/zplm.
)
LaTeX Font Info:    Try loading font information for OMS+pplx on input line 93.

LaTeX Font Info:    No file OMSpplx.fd. on input line 93.


LaTeX Font Warning: Font shape `OMS/pplx/m/n' undefined
(Font)              using `OMS/cmsy/m/n' instead
(Font)              for symbol `textasteriskcentered' on input line 93.

LaTeX Font Info:    Font shape `U/msa/m/n' will be
(Font)              scaled to size 8.33606pt on input line 93.
LaTeX Font Info:    Font shape `U/msa/m/n' will be
(Font)              scaled to size 6.25204pt on input line 93.
LaTeX Font Info:    Font shape `U/msa/m/n' will be
(Font)              scaled to size 5.21004pt on input line 93.
LaTeX Font Info:    Font shape `U/msb/m/n' will be
(Font)              scaled to size 8.33606pt on input line 93.
LaTeX Font Info:    Font shape `U/msb/m/n' will be
(Font)              scaled to size 6.25204pt on input line 93.
LaTeX Font Info:    Font shape `U/msb/m/n' will be
(Font)              scaled to size 5.21004pt on input line 93.
LaTeX Font Info:    Font shape `OT1/pplx/bx/n' in size <9> not available
(Font)              Font shape `OT1/pplx/b/n' tried instead on input line 95.
LaTeX Font Info:    Font shape `OT1/pplx/bx/n' in size <10> not available
(Font)              Font shape `OT1/pplx/b/n' tried instead on input line 99.
[1

{C:/Users/Mauricio/AppData/Local/MiKTeX/2.9/pdftex/config/pdftex.map}]
LaTeX Font Info:    Font shape `OT1/pplx/bx/n' in size <14.4> not available
(Font)              Font shape `OT1/pplx/b/n' tried instead on input line 104.
LaTeX Font Info:    Font shape `U/msa/m/n' will be
(Font)              scaled to size 10.42007pt on input line 107.
LaTeX Font Info:    Font shape `U/msa/m/n' will be
(Font)              scaled to size 7.91925pt on input line 107.
LaTeX Font Info:    Font shape `U/msb/m/n' will be
(Font)              scaled to size 10.42007pt on input line 107.
LaTeX Font Info:    Font shape `U/msb/m/n' will be
(Font)              scaled to size 7.91925pt on input line 107.

[2] [3] [4] [5]
LaTeX Font Info:    Font shape `OT1/pplx/bx/n' in size <12> not available
(Font)              Font shape `OT1/pplx/b/n' tried instead on input line 188.
 [6] [7] [8]
\openout3 = `Romero_PharmaPrices.fff'.

 (Romero_PharmaPrices.fff) [9] [10] [11] [12]
[13] [14]
\openout4 = `Romero_PharmaPrices.ttt'.

 (Romero_PharmaPrices.ttt) [15] [16]

LaTeX Warning: Reference `fig:timing2_late' on page 17 undefined on input line 
556.

[17] [18] [19] [20] [21] [22] [23] (Romero_PharmaPrices.bbl [24] [25] [26]
Underfull \hbox (badness 1953) in paragraph at lines 1320--1336
[]\OT1/pplx/m/n/10 Semana.  (2014, Novem-ber).  \OT1/pplx/m/it/10 As con-trol
an las in-sti-tu-ciones y em-pre-sas de salud a los medicos.
 []

LaTeX Font Info:    Font shape `OT1/pplx/m/sl' in size <10> not available
(Font)              Font shape `OT1/pplx/m/it' tried instead on input line 1405
.
[27]
Underfull \hbox (badness 1983) in paragraph at lines 1559--1574
\OT1/cmtt/m/n/10 .org / en / topic / health / publication / universal [] -healt
h [] -coverage [] -study [] -series$[]   \OT1/pplx/m/n/10 (Ac-cessed:
 []

) [28] (Romero_PharmaPrices.fff

pdfTeX warning: pdflatex (file ./FrequencyAddPOS.pdf): PDF inclusion: found PDF
 version <1.6>, but at most version <1.5> allowed
<FrequencyAddPOS.pdf, id=572, 397.485pt x 289.08pt>
File: FrequencyAddPOS.pdf Graphic file (type pdf)
 <use FrequencyAddPOS.pdf>
Package pdftex.def Info: FrequencyAddPOS.pdf used on input line 3.
(pdftex.def)             Requested size: 281.85587pt x 204.99239pt.

[29

 <./FrequencyAddPOS.pdf>]

pdfTeX warning: pdflatex (file ./EventStudyPOS_DGenericosATC_2_longrun.pdf): PD
F inclusion: found PDF version <1.6>, but at most version <1.5> allowed
<EventStudyPOS_DGenericosATC_2_longrun.pdf, id=623, 397.485pt x 289.08pt>
File: EventStudyPOS_DGenericosATC_2_longrun.pdf Graphic file (type pdf)

<use EventStudyPOS_DGenericosATC_2_longrun.pdf>
Package pdftex.def Info: EventStudyPOS_DGenericosATC_2_longrun.pdf used on inpu
t line 16.
(pdftex.def)             Requested size: 211.38832pt x 153.74098pt.


pdfTeX warning: pdflatex (file ./EventStudyPOS_VMR2_2_longrun.pdf): PDF inclusi
on: found PDF version <1.6>, but at most version <1.5> allowed
<EventStudyPOS_VMR2_2_longrun.pdf, id=624, 397.485pt x 289.08pt>
File: EventStudyPOS_VMR2_2_longrun.pdf Graphic file (type pdf)

<use EventStudyPOS_VMR2_2_longrun.pdf>
Package pdftex.def Info: EventStudyPOS_VMR2_2_longrun.pdf used on input line 21
.
(pdftex.def)             Requested size: 211.38832pt x 153.74098pt.


pdfTeX warning: pdflatex (file ./EventStudyPOS_LgCompetidoresATC_2_longrun.pdf)
: PDF inclusion: found PDF version <1.6>, but at most version <1.5> allowed
<EventStudyPOS_LgCompetidoresATC_2_longrun.pdf, id=625, 397.485pt x 289.08pt>
File: EventStudyPOS_LgCompetidoresATC_2_longrun.pdf Graphic file (type pdf)

<use EventStudyPOS_LgCompetidoresATC_2_longrun.pdf>
Package pdftex.def Info: EventStudyPOS_LgCompetidoresATC_2_longrun.pdf used on 
input line 26.
(pdftex.def)             Requested size: 211.38832pt x 153.74098pt.
 [30

 <./EventStudyPOS_DGenericosATC_2_longrun.pdf> <./EventStudyPOS_VMR2_2_longrun.
pdf> <./EventStudyPOS_LgCompetidoresATC_2_longrun.pdf>]

pdfTeX warning: pdflatex (file ./EventStudyPOS_Prom_STD_2_trend_longrun_Ratio30
.pdf): PDF inclusion: found PDF version <1.6>, but at most version <1.5> allowe
d

<EventStudyPOS_Prom_STD_2_trend_longrun_Ratio30.pdf, id=666, 397.485pt x 289.08
pt>
File: EventStudyPOS_Prom_STD_2_trend_longrun_Ratio30.pdf Graphic file (type pdf
)
 <use EventStudyPOS_Prom_STD_2_trend_longrun_Ratio30.pdf>
Package pdftex.def Info: EventStudyPOS_Prom_STD_2_trend_longrun_Ratio30.pdf use
d on input line 37.
(pdftex.def)             Requested size: 211.38832pt x 153.74098pt.


pdfTeX warning: pdflatex (file ./EventStudyPOS_Unidades_STD_2_trend_longrun_Rat
io30.pdf): PDF inclusion: found PDF version <1.6>, but at most version <1.5> al
lowed

<EventStudyPOS_Unidades_STD_2_trend_longrun_Ratio30.pdf, id=667, 397.485pt x 28
9.08pt>
File: EventStudyPOS_Unidades_STD_2_trend_longrun_Ratio30.pdf Graphic file (type
 pdf)
 <use EventStudyPOS_Unidades_STD_2_trend_longrun_Ratio30.pdf>
Package pdftex.def Info: EventStudyPOS_Unidades_STD_2_trend_longrun_Ratio30.pdf
 used on input line 42.
(pdftex.def)             Requested size: 211.38832pt x 153.74098pt.
 [31

 <./EventStudyPOS_Prom_STD_2_trend_longrun_Ratio30.pdf> <./EventStudyPOS_Unidad
es_STD_2_trend_longrun_Ratio30.pdf>]

pdfTeX warning: pdflatex (file ./HeteroPrice_ByCompetencia_Completo.pdf): PDF i
nclusion: found PDF version <1.6>, but at most version <1.5> allowed
<HeteroPrice_ByCompetencia_Completo.pdf, id=697, 397.485pt x 289.08pt>
File: HeteroPrice_ByCompetencia_Completo.pdf Graphic file (type pdf)

<use HeteroPrice_ByCompetencia_Completo.pdf>
Package pdftex.def Info: HeteroPrice_ByCompetencia_Completo.pdf used on input l
ine 57.
(pdftex.def)             Requested size: 328.82707pt x 239.15558pt.
 [32

 <./HeteroPrice_ByCompetencia_Completo.pdf>]) (Romero_PharmaPrices.ttt (DescrpB
.tex)

Package caption Warning: The option `hypcap=true' will be ignored for this
(caption)                particular \caption on input line 12.
See the caption package documentation for explanation.

[33


] (Timing_Completo.tex)

Package caption Warning: The option `hypcap=true' will be ignored for this
(caption)                particular \caption on input line 40.
See the caption package documentation for explanation.

[34

] (Reg_Prom_STD_Institucional_2.tex)

Package caption Warning: The option `hypcap=true' will be ignored for this
(caption)                particular \caption on input line 60.
See the caption package documentation for explanation.

[35

] (Reg_Unidades_STD_Institucional_2.tex)

Package caption Warning: The option `hypcap=true' will be ignored for this
(caption)                particular \caption on input line 80.
See the caption package documentation for explanation.

[36

] (Reg_HHATCMax_POS_Institucional_2.tex)

Package caption Warning: The option `hypcap=true' will be ignored for this
(caption)                particular \caption on input line 100.
See the caption package documentation for explanation.


Overfull \hbox (8.49486pt too wide) in paragraph at lines 89--106
[] 
 []

[37

] (RegRobustVariosImportedProm_STD_Institucional_2_trends.tex)
(RegRobustVariosImportedUnidades_STD_Institucional_2_trends.tex)

Package caption Warning: The option `hypcap=true' will be ignored for this
(caption)                particular \caption on input line 130.
See the caption package documentation for explanation.

[38

] (RegRobustVariosAge7_Prom_STD_Institucional_2_trends.tex)
(RegRobustVariosAge7_Unidades_STD_Institucional_2_trends.tex)

Package caption Warning: The option `hypcap=true' will be ignored for this
(caption)                particular \caption on input line 160.
See the caption package documentation for explanation.


Overfull \hbox (1.39pt too wide) in paragraph at lines 138--166
[] 
 []

[39

] (RegRobustVariosOTCProm_STD_Institucional_2_trends.tex)
(RegRobustVariosOTCUnidades_STD_Institucional_2_trends.tex)

Package caption Warning: The option `hypcap=true' will be ignored for this
(caption)                particular \caption on input line 189.
See the caption package documentation for explanation.

[40

] (Reg_Prom_STD_Institucional_2_priceNOPOS_ATC.tex)
(Reg_Prom_STD_Institucional_2_priceNOPOS_Grupo.tex)

Package caption Warning: The option `hypcap=true' will be ignored for this
(caption)                particular \caption on input line 214.
See the caption package documentation for explanation.

[41

] (Reg_Prom_STD_Institucional_2_SharePOS_ATC.tex)

Package caption Warning: The option `hypcap=true' will be ignored for this
(caption)                particular \caption on input line 234.
See the caption package documentation for explanation.


Overfull \hbox (14.29488pt too wide) in paragraph at lines 222--240
[] 
 []

[42

])

Package caption Warning: The option `hypcap=true' will be ignored for this
(caption)                particular \caption on input line 999.
See the caption package documentation for explanation.

pdfTeX warning (ext4): destination with the same identifier (name{table.1}) has
 been already used, duplicate ignored
<to be read again> 
                   \relax 
l.999 \end{tabular}
                   %
Overfull \hbox (27.65471pt too wide) in paragraph at lines 989--1005
[] 
 []

(ObserbationsDiferences.tex

Package caption Warning: The option `hypcap=true' will be ignored for this
(caption)                particular \caption on input line 26.
See the caption package documentation for explanation.

pdfTeX warning (ext4): destination with the same identifier (name{table.1}) has
 been already used, duplicate ignored
<to be read again> 
                   \relax 
l.26 \end{tabular}
                  ) [43

] (DescrpC.tex)

Package caption Warning: The option `hypcap=true' will be ignored for this
(caption)                particular \caption on input line 1041.
See the caption package documentation for explanation.

pdfTeX warning (ext4): destination with the same identifier (name{table.2}) has
 been already used, duplicate ignored
<to be read again> 
                   \relax 
l.1041 \end{tabular}
                    
Overfull \hbox (27.82468pt too wide) in paragraph at lines 1032--1047
[] 
 []

(DescrpD.tex)

Package caption Warning: The option `hypcap=true' will be ignored for this
(caption)                particular \caption on input line 1061.
See the caption package documentation for explanation.

pdfTeX warning (ext4): destination with the same identifier (name{table.3}) has
 been already used, duplicate ignored
<to be read again> 
                   \relax 
l.1061 \end{tabular}
                     [44] (EarlyEntrants_Prom_STD_Institucional_2.tex)
(LateEntrants_Prom_STD_Institucional_2.tex)

Package caption Warning: The option `hypcap=true' will be ignored for this
(caption)                particular \caption on input line 1091.
See the caption package documentation for explanation.

pdfTeX warning (ext4): destination with the same identifier (name{table.4}) has
 been already used, duplicate ignored
<to be read again> 
                   \relax 
l.1091 \end{tabular}
                     [45]

pdfTeX warning: pdflatex (file ./EventStudyPOS_Prom_STD_2_completo_ATCYEARFE_lo
ngrun_Ratio30.pdf): PDF inclusion: found PDF version <1.6>, but at most version
 <1.5> allowed

<EventStudyPOS_Prom_STD_2_completo_ATCYEARFE_longrun_Ratio30.pdf, id=771, 397.4
85pt x 289.08pt>
File: EventStudyPOS_Prom_STD_2_completo_ATCYEARFE_longrun_Ratio30.pdf Graphic f
ile (type pdf)

<use EventStudyPOS_Prom_STD_2_completo_ATCYEARFE_longrun_Ratio30.pdf>
Package pdftex.def Info: EventStudyPOS_Prom_STD_2_completo_ATCYEARFE_longrun_Ra
tio30.pdf used on input line 1112.
(pdftex.def)             Requested size: 211.38832pt x 153.74098pt.


pdfTeX warning: pdflatex (file ./EventStudyPOS_Unidades_STD_2_completo_ATCYEARF
E_longrun_Ratio30.pdf): PDF inclusion: found PDF version <1.6>, but at most ver
sion <1.5> allowed

<EventStudyPOS_Unidades_STD_2_completo_ATCYEARFE_longrun_Ratio30.pdf, id=772, 3
97.485pt x 289.08pt>
File: EventStudyPOS_Unidades_STD_2_completo_ATCYEARFE_longrun_Ratio30.pdf Graph
ic file (type pdf)

<use EventStudyPOS_Unidades_STD_2_completo_ATCYEARFE_longrun_Ratio30.pdf>
Package pdftex.def Info: EventStudyPOS_Unidades_STD_2_completo_ATCYEARFE_longru
n_Ratio30.pdf used on input line 1117.
(pdftex.def)             Requested size: 211.38832pt x 153.74098pt.

[46]

pdfTeX warning: pdflatex (file ./EventStudyPOS_precio_completo_trend_2012_entry
_ratio30.pdf): PDF inclusion: found PDF version <1.6>, but at most version <1.5
> allowed

<EventStudyPOS_precio_completo_trend_2012_entry_ratio30.pdf, id=781, 397.485pt 
x 289.08pt>
File: EventStudyPOS_precio_completo_trend_2012_entry_ratio30.pdf Graphic file (
type pdf)
 <use EventStudyPOS_precio_completo_trend_2012_entry_ratio30.pdf>
Package pdftex.def Info: EventStudyPOS_precio_completo_trend_2012_entry_ratio30
.pdf used on input line 1134.
(pdftex.def)             Requested size: 399.29463pt x 290.40698pt.

[47 <./EventStudyPOS_Prom_STD_2_completo_ATCYEARFE_longrun_Ratio30.pdf> <./Even
tStudyPOS_Unidades_STD_2_completo_ATCYEARFE_longrun_Ratio30.pdf>]

pdfTeX warning: pdflatex (file ./EventStudyPOS_precio_completo_trend_2014_entry
_ratio30.pdf): PDF inclusion: found PDF version <1.6>, but at most version <1.5
> allowed

<EventStudyPOS_precio_completo_trend_2014_entry_ratio30.pdf, id=807, 397.485pt 
x 289.08pt>
File: EventStudyPOS_precio_completo_trend_2014_entry_ratio30.pdf Graphic file (
type pdf)
 <use EventStudyPOS_precio_completo_trend_2014_entry_ratio30.pdf>
Package pdftex.def Info: EventStudyPOS_precio_completo_trend_2014_entry_ratio30
.pdf used on input line 1142.
(pdftex.def)             Requested size: 399.29463pt x 290.40698pt.

[48 <./EventStudyPOS_precio_completo_trend_2012_entry_ratio30.pdf>]

pdfTeX warning: pdflatex (file ./EventStudyPOS_quantity_completo_trend_2012_ent
ry_ratio30.pdf): PDF inclusion: found PDF version <1.6>, but at most version <1
.5> allowed

<EventStudyPOS_quantity_completo_trend_2012_entry_ratio30.pdf, id=822, 397.485p
t x 289.08pt>
File: EventStudyPOS_quantity_completo_trend_2012_entry_ratio30.pdf Graphic file
 (type pdf)

<use EventStudyPOS_quantity_completo_trend_2012_entry_ratio30.pdf>
Package pdftex.def Info: EventStudyPOS_quantity_completo_trend_2012_entry_ratio
30.pdf used on input line 1153.
(pdftex.def)             Requested size: 399.29463pt x 290.40698pt.
 [49 <./EventStudyPOS_precio_completo_trend_2014_entry_ratio30.pdf>]

pdfTeX warning: pdflatex (file ./EventStudyPOS_quantity_completo_trend_2014_ent
ry_ratio30.pdf): PDF inclusion: found PDF version <1.6>, but at most version <1
.5> allowed

<EventStudyPOS_quantity_completo_trend_2014_entry_ratio30.pdf, id=839, 397.485p
t x 289.08pt>
File: EventStudyPOS_quantity_completo_trend_2014_entry_ratio30.pdf Graphic file
 (type pdf)

<use EventStudyPOS_quantity_completo_trend_2014_entry_ratio30.pdf>
Package pdftex.def Info: EventStudyPOS_quantity_completo_trend_2014_entry_ratio
30.pdf used on input line 1161.
(pdftex.def)             Requested size: 399.29463pt x 290.40698pt.
 [50 <./EventStudyPOS_quantity_completo_trend_2012_entry_ratio30.pdf>] [51 <./E
ventStudyPOS_quantity_completo_trend_2014_entry_ratio30.pdf>] [52] [53] [54] [5
5] [56]
AED endfloat: Processing end Figures and Tables [57]
Package atveryend Info: Empty hook `BeforeClearDocument' on input line 1322.
Package atveryend Info: Empty hook `AfterLastShipout' on input line 1322.
 (Romero_PharmaPrices.aux)
Package atveryend Info: Executing hook `AtVeryEndDocument' on input line 1322.
Package atveryend Info: Executing hook `AtEndAfterFileList' on input line 1322.

Package rerunfilecheck Info: File `Romero_PharmaPrices.out' has not changed.
(rerunfilecheck)             Checksum: 31A6C110D3A64D5B98810B5BD3C04BC2;1512.


LaTeX Font Warning: Some font shapes were not available, defaults substituted.


LaTeX Warning: There were undefined references.

 ) 
Here is how much of TeX's memory you used:
 10541 strings out of 493338
 161445 string characters out of 3136853
 283064 words of memory out of 3000000
 13548 multiletter control sequences out of 15000+200000
 48761 words of font info for 139 fonts, out of 3000000 for 9000
 1141 hyphenation exceptions out of 8191
 36i,22n,52p,2739b,573s stack positions out of 5000i,500n,10000p,200000b,50000s
{C:/Program Files (x86)/MiKTeX 2.9/fonts/enc/dvips/base/8r.enc}<C:/Program Fi
les (x86)/MiKTeX 2.9/fonts/type1/public/amsfonts/cm/cmex10.pfb><C:/Program File
s (x86)/MiKTeX 2.9/fonts/type1/public/amsfonts/cm/cmmi10.pfb><C:/Program Files 
(x86)/MiKTeX 2.9/fonts/type1/public/amsfonts/cm/cmr10.pfb><C:/Program Files (x8
6)/MiKTeX 2.9/fonts/type1/public/amsfonts/cm/cmsy10.pfb><C:/Program Files (x86)
/MiKTeX 2.9/fonts/type1/public/amsfonts/cm/cmsy6.pfb><C:/Program Files (x86)/Mi
KTeX 2.9/fonts/type1/public/amsfonts/cm/cmsy8.pfb><C:/Program Files (x86)/MiKTe
X 2.9/fonts/type1/public/amsfonts/cm/cmsy9.pfb><C:/Program Files (x86)/MiKTeX 2
.9/fonts/type1/public/amsfonts/cm/cmtt10.pfb><C:/Program Files (x86)/MiKTeX 2.9
/fonts/type1/public/amsfonts/cm/cmtt8.pfb><C:/Program Files (x86)/MiKTeX 2.9/fo
nts/type1/public/mathpazo/fplmr.pfb><C:/Program Files (x86)/MiKTeX 2.9/fonts/ty
pe1/public/mathpazo/fplmri.pfb><C:/Program Files (x86)/MiKTeX 2.9/fonts/type1/u
rw/palatino/uplb8a.pfb><C:/Program Files (x86)/MiKTeX 2.9/fonts/type1/urw/palat
ino/uplr8a.pfb><C:/Program Files (x86)/MiKTeX 2.9/fonts/type1/urw/palatino/uplr
i8a.pfb>
Output written on Romero_PharmaPrices.pdf (57 pages, 1286698 bytes).
PDF statistics:
 1058 PDF objects out of 1200 (max. 8388607)
 225 named destinations out of 1000 (max. 500000)
 258 words of extra memory for PDF output out of 10000 (max. 10000000)

