\relax 
\providecommand\hyper@newdestlabel[2]{}
\providecommand\HyperFirstAtBeginDocument{\AtBeginDocument}
\HyperFirstAtBeginDocument{\ifx\hyper@anchor\@undefined
\global\let\oldcontentsline\contentsline
\gdef\contentsline#1#2#3#4{\oldcontentsline{#1}{#2}{#3}}
\global\let\oldnewlabel\newlabel
\gdef\newlabel#1#2{\newlabelxx{#1}#2}
\gdef\newlabelxx#1#2#3#4#5#6{\oldnewlabel{#1}{{#2}{#3}}}
\AtEndDocument{\ifx\hyper@anchor\@undefined
\let\contentsline\oldcontentsline
\let\newlabel\oldnewlabel
\fi}
\fi}
\global\let\hyper@last\relax 
\gdef\HyperFirstAtBeginDocument#1{#1}
\providecommand\HyField@AuxAddToFields[1]{}
\providecommand\HyField@AuxAddToCoFields[2]{}
\providecommand\pbs@newkey[2]{}\providecommand\pbs@seq@push@cx[2]{}\providecommand\pbs@at@end@dvi@check{}
\pbs@at@end@dvi@check
\providecommand\mix@newkey[2]{}
\pbs@newkey{pbs@last@page}{1}
\providecommand \oddpage@label [2]{}
\@writefile{nav}{\headcommand {\slideentry {0}{0}{1}{1/1}{}{0}}}
\@writefile{nav}{\headcommand {\beamer@framepages {1}{1}}}
\citation{NYT2015}
\pbs@newkey{pbs@last@page}{2}
\@writefile{toc}{\beamer@sectionintoc {1}{Motivation}{2}{0}{1}}
\@writefile{nav}{\headcommand {\sectionentry {1}{Motivation}{2}{Motivation}{0}}}
\@writefile{nav}{\headcommand {\beamer@sectionpages {1}{1}}}
\@writefile{nav}{\headcommand {\beamer@subsectionpages {1}{1}}}
\@writefile{nav}{\headcommand {\slideentry {1}{0}{1}{2/2}{}{0}}}
\@writefile{nav}{\headcommand {\beamer@framepages {2}{2}}}
\citation{Darby1973}
\citation{Dulleck2006}
\citation{MSH2012}
\pbs@newkey{pbs@last@page}{3}
\citation{Darby1973}
\citation{Dulleck2006}
\citation{MSH2012}
\pbs@newkey{pbs@last@page}{4}
\citation{Darby1973}
\citation{Dulleck2006}
\citation{MSH2012}
\pbs@newkey{pbs@last@page}{5}
\citation{Darby1973}
\citation{Dulleck2006}
\citation{MSH2012}
\pbs@newkey{pbs@last@page}{6}
\citation{Darby1973}
\citation{Dulleck2006}
\citation{MSH2012}
\pbs@newkey{pbs@last@page}{7}
\citation{Darby1973}
\citation{Dulleck2006}
\citation{MSH2012}
\pbs@newkey{pbs@last@page}{8}
\citation{Darby1973}
\citation{Dulleck2006}
\citation{MSH2012}
\pbs@newkey{pbs@last@page}{9}
\citation{Darby1973}
\citation{Dulleck2006}
\citation{MSH2012}
\pbs@newkey{pbs@last@page}{10}
\citation{Darby1973}
\citation{Dulleck2006}
\citation{MSH2012}
\pbs@newkey{pbs@last@page}{11}
\citation{Darby1973}
\citation{Dulleck2006}
\citation{MSH2012}
\pbs@newkey{pbs@last@page}{12}
\@writefile{nav}{\headcommand {\slideentry {1}{0}{2}{3/12}{}{0}}}
\@writefile{nav}{\headcommand {\beamer@framepages {3}{12}}}
\pbs@newkey{pbs@last@page}{13}
\@writefile{nav}{\headcommand {\slideentry {1}{0}{3}{13/13}{}{0}}}
\@writefile{nav}{\headcommand {\beamer@framepages {13}{13}}}
\pbs@newkey{pbs@last@page}{14}
\@writefile{toc}{\beamer@sectionintoc {2}{Background}{14}{0}{2}}
\@writefile{nav}{\headcommand {\sectionentry {2}{Background}{14}{Background}{0}}}
\@writefile{nav}{\headcommand {\beamer@sectionpages {2}{13}}}
\@writefile{nav}{\headcommand {\beamer@subsectionpages {2}{13}}}
\@writefile{nav}{\headcommand {\slideentry {2}{0}{1}{14/14}{}{0}}}
\@writefile{nav}{\headcommand {\beamer@framepages {14}{14}}}
\pbs@newkey{pbs@last@page}{15}
\@writefile{nav}{\headcommand {\slideentry {2}{0}{2}{15/15}{}{0}}}
\@writefile{nav}{\headcommand {\beamer@framepages {15}{15}}}
\pbs@newkey{pbs@last@page}{16}
\@writefile{nav}{\headcommand {\slideentry {2}{0}{3}{16/16}{}{0}}}
\@writefile{nav}{\headcommand {\beamer@framepages {16}{16}}}
\pbs@newkey{pbs@last@page}{17}
\providecommand*\caption@xref[2]{\@setref\relax\@undefined{#1}}
\newlabel{fig:add_pos}{{1}{17}{Number of drugs introduced into the POS by year. \textit {Source:} SISMED and INVIMA. \textit {Calculations:} Author.\relax }{Doc-Start}{}}
\@writefile{snm}{\beamer@slide {fig:add_pos}{17}}
\@writefile{nav}{\headcommand {\slideentry {2}{0}{4}{17/17}{}{0}}}
\@writefile{nav}{\headcommand {\beamer@framepages {17}{17}}}
\pbs@newkey{pbs@last@page}{18}
\@writefile{toc}{\beamer@sectionintoc {3}{Empirics}{18}{0}{3}}
\@writefile{nav}{\headcommand {\sectionentry {3}{Empirics}{18}{Empirics}{0}}}
\@writefile{nav}{\headcommand {\beamer@sectionpages {14}{17}}}
\@writefile{nav}{\headcommand {\beamer@subsectionpages {14}{17}}}
\@writefile{nav}{\headcommand {\slideentry {3}{0}{1}{18/18}{}{0}}}
\@writefile{nav}{\headcommand {\beamer@framepages {18}{18}}}
\pbs@newkey{pbs@last@page}{19}
\newlabel{goback0<1>}{{10}{19}{Empirics}{Doc-Start}{}}
\@writefile{snm}{\beamer@slide {goback0<1>}{19}}
\newlabel{goback0}{{10}{19}{Empirics}{Doc-Start}{}}
\@writefile{snm}{\beamer@slide {goback0}{19}}
\@writefile{nav}{\headcommand {\slideentry {3}{0}{2}{19/19}{}{0}}}
\@writefile{nav}{\headcommand {\beamer@framepages {19}{19}}}
\pbs@newkey{pbs@last@page}{20}
\@writefile{nav}{\headcommand {\slideentry {3}{0}{3}{20/20}{}{0}}}
\@writefile{nav}{\headcommand {\beamer@framepages {20}{20}}}
\pbs@newkey{pbs@last@page}{21}
\newlabel{eq:timing}{{1}{21}{Empirics}{Doc-Start}{}}
\@writefile{snm}{\beamer@slide {eq:timing}{21}}
\@writefile{nav}{\headcommand {\slideentry {3}{0}{4}{21/21}{}{0}}}
\@writefile{nav}{\headcommand {\beamer@framepages {21}{21}}}
\pbs@newkey{pbs@last@page}{22}
\newlabel{goback_timing<1>}{{13}{22}{Empirics}{Doc-Start}{}}
\@writefile{snm}{\beamer@slide {goback_timing<1>}{22}}
\newlabel{goback_timing}{{13}{22}{Empirics}{Doc-Start}{}}
\@writefile{snm}{\beamer@slide {goback_timing}{22}}
\@writefile{nav}{\headcommand {\slideentry {3}{0}{5}{22/22}{}{0}}}
\@writefile{nav}{\headcommand {\beamer@framepages {22}{22}}}
\pbs@newkey{pbs@last@page}{23}
\newlabel{goback_timing2<1>}{{14}{23}{Empirics}{Doc-Start}{}}
\@writefile{snm}{\beamer@slide {goback_timing2<1>}{23}}
\newlabel{goback_timing2}{{14}{23}{Empirics}{Doc-Start}{}}
\@writefile{snm}{\beamer@slide {goback_timing2}{23}}
\@writefile{nav}{\headcommand {\slideentry {3}{0}{6}{23/23}{}{0}}}
\@writefile{nav}{\headcommand {\beamer@framepages {23}{23}}}
\pbs@newkey{pbs@last@page}{24}
\newlabel{eq:original}{{1}{24}{Empirics}{Doc-Start}{}}
\@writefile{snm}{\beamer@slide {eq:original}{24}}
\@writefile{nav}{\headcommand {\slideentry {3}{0}{7}{24/24}{}{0}}}
\@writefile{nav}{\headcommand {\beamer@framepages {24}{24}}}
\pbs@newkey{pbs@last@page}{25}
\newlabel{goback1<1>}{{16}{25}{Empirics}{Doc-Start}{}}
\@writefile{snm}{\beamer@slide {goback1<1>}{25}}
\newlabel{goback1}{{16}{25}{Empirics}{Doc-Start}{}}
\@writefile{snm}{\beamer@slide {goback1}{25}}
\newlabel{fig:eve_pos_price}{{2}{25}{\tiny Event study for the effect of including a pharmaceutical in the POS on its price. \textit {Source:} SISMED and INVIMA. \textit {Calculations:} Author. \relax }{Doc-Start}{}}
\@writefile{snm}{\beamer@slide {fig:eve_pos_price}{25}}
\@writefile{nav}{\headcommand {\slideentry {3}{0}{8}{25/25}{}{0}}}
\@writefile{nav}{\headcommand {\beamer@framepages {25}{25}}}
\pbs@newkey{pbs@last@page}{26}
\newlabel{goback2<1>}{{17}{26}{Empirics}{Doc-Start}{}}
\@writefile{snm}{\beamer@slide {goback2<1>}{26}}
\newlabel{goback2}{{17}{26}{Empirics}{Doc-Start}{}}
\@writefile{snm}{\beamer@slide {goback2}{26}}
\newlabel{fig:eve_pos_quantity}{{3}{26}{\tiny Event study for the effect of including a pharmaceutical in the POS on the quantities. \textit {Source:} SISMED and INVIMA. \textit {Calculations:} Author. \relax }{Doc-Start}{}}
\@writefile{snm}{\beamer@slide {fig:eve_pos_quantity}{26}}
\@writefile{nav}{\headcommand {\slideentry {3}{0}{9}{26/26}{}{0}}}
\@writefile{nav}{\headcommand {\beamer@framepages {26}{26}}}
\pbs@newkey{pbs@last@page}{27}
\newlabel{goback_rob<1>}{{18}{27}{Empirics}{Doc-Start}{}}
\@writefile{snm}{\beamer@slide {goback_rob<1>}{27}}
\newlabel{goback_rob}{{18}{27}{Empirics}{Doc-Start}{}}
\@writefile{snm}{\beamer@slide {goback_rob}{27}}
\@writefile{nav}{\headcommand {\slideentry {3}{0}{10}{27/27}{}{0}}}
\@writefile{nav}{\headcommand {\beamer@framepages {27}{27}}}
\pbs@newkey{pbs@last@page}{28}
\newlabel{fig:het_competencia}{{4}{28}{Effect of listing a drug by number of competitiors\relax }{Doc-Start}{}}
\@writefile{snm}{\beamer@slide {fig:het_competencia}{28}}
\@writefile{nav}{\headcommand {\slideentry {3}{0}{11}{28/28}{}{0}}}
\@writefile{nav}{\headcommand {\beamer@framepages {28}{28}}}
\pbs@newkey{pbs@last@page}{29}
\newlabel{eq:NOPOS}{{1}{29}{Empirics}{Doc-Start}{}}
\@writefile{snm}{\beamer@slide {eq:NOPOS}{29}}
\pbs@newkey{pbs@last@page}{30}
\@writefile{nav}{\headcommand {\slideentry {3}{0}{12}{29/30}{}{0}}}
\@writefile{nav}{\headcommand {\beamer@framepages {29}{30}}}
\pbs@newkey{pbs@last@page}{31}
\@writefile{nav}{\headcommand {\slideentry {3}{0}{13}{31/31}{}{0}}}
\@writefile{nav}{\headcommand {\beamer@framepages {31}{31}}}
\pbs@newkey{pbs@last@page}{32}
\newlabel{eq:NOPOS_IV}{{1}{32}{Empirics}{Doc-Start}{}}
\@writefile{snm}{\beamer@slide {eq:NOPOS_IV}{32}}
\@writefile{nav}{\headcommand {\slideentry {3}{0}{14}{32/32}{}{0}}}
\@writefile{nav}{\headcommand {\beamer@framepages {32}{32}}}
\pbs@newkey{pbs@last@page}{33}
\@writefile{nav}{\headcommand {\slideentry {3}{0}{15}{33/33}{}{0}}}
\@writefile{nav}{\headcommand {\beamer@framepages {33}{33}}}
\pbs@newkey{pbs@last@page}{34}
\@writefile{toc}{\beamer@sectionintoc {4}{Effect on reported morbidity}{34}{0}{4}}
\@writefile{nav}{\headcommand {\sectionentry {4}{Effect on reported morbidity}{34}{Effect on reported morbidity}{0}}}
\@writefile{nav}{\headcommand {\beamer@sectionpages {18}{33}}}
\@writefile{nav}{\headcommand {\beamer@subsectionpages {18}{33}}}
\@writefile{nav}{\headcommand {\slideentry {4}{0}{1}{34/34}{}{0}}}
\@writefile{nav}{\headcommand {\beamer@framepages {34}{34}}}
\citation{TTD2016}
\citation{MEDI2013}
\pbs@newkey{pbs@last@page}{35}
\@writefile{nav}{\headcommand {\slideentry {4}{0}{2}{35/35}{}{0}}}
\@writefile{nav}{\headcommand {\beamer@framepages {35}{35}}}
\pbs@newkey{pbs@last@page}{36}
\@writefile{nav}{\headcommand {\slideentry {4}{0}{3}{36/36}{}{0}}}
\@writefile{nav}{\headcommand {\beamer@framepages {36}{36}}}
\pbs@newkey{pbs@last@page}{37}
\@writefile{nav}{\headcommand {\slideentry {4}{0}{4}{37/37}{}{0}}}
\@writefile{nav}{\headcommand {\beamer@framepages {37}{37}}}
\pbs@newkey{pbs@last@page}{38}
\@writefile{toc}{\beamer@sectionintoc {5}{Closing remarks}{38}{0}{5}}
\@writefile{nav}{\headcommand {\sectionentry {5}{Closing remarks}{38}{Closing remarks}{0}}}
\@writefile{nav}{\headcommand {\beamer@sectionpages {34}{37}}}
\@writefile{nav}{\headcommand {\beamer@subsectionpages {34}{37}}}
\@writefile{nav}{\headcommand {\slideentry {5}{0}{1}{38/38}{}{0}}}
\@writefile{nav}{\headcommand {\beamer@framepages {38}{38}}}
\pbs@newkey{pbs@last@page}{39}
\@writefile{nav}{\headcommand {\slideentry {5}{0}{2}{39/39}{}{0}}}
\@writefile{nav}{\headcommand {\beamer@framepages {39}{39}}}
\pbs@newkey{pbs@last@page}{40}
\@writefile{nav}{\headcommand {\slideentry {5}{0}{3}{40/40}{}{0}}}
\@writefile{nav}{\headcommand {\beamer@framepages {40}{40}}}
\bibstyle{apacite}
\bibdata{PharPrice}
\bibcite{Darby1973}{\citeauthoryear {Darby\ \BBA{} Karni}{Darby\ \BBA{} Karni}{{\APACyear {1973}}}}
\APACbibcite{Darby1973}{\citeauthoryear {Darby\ \BBA{} Karni}{Darby\ \BBA{} Karni}{{\APACyear {1973}}}}
\bibcite{Departamento2012}{\citeauthoryear {{Departamento Nacional de Planeacion}}{{Departamento Nacional de Planeacion}}{{\APACyear {2012}}}}
\APACbibcite{Departamento2012}{\citeauthoryear {{Departamento Nacional de Planeacion}}{{Departamento Nacional de Planeacion}}{{\APACyear {2012}}}}
\bibcite{Dulleck2006}{\citeauthoryear {Dulleck\ \BBA{} Kerschbamer}{Dulleck\ \BBA{} Kerschbamer}{{\APACyear {2006}}}}
\APACbibcite{Dulleck2006}{\citeauthoryear {Dulleck\ \BBA{} Kerschbamer}{Dulleck\ \BBA{} Kerschbamer}{{\APACyear {2006}}}}
\bibcite{MSH2012}{\citeauthoryear {{Management Sciences for Health}}{{Management Sciences for Health}}{{\APACyear {2012}}}}
\APACbibcite{MSH2012}{\citeauthoryear {{Management Sciences for Health}}{{Management Sciences for Health}}{{\APACyear {2012}}}}
\bibcite{NYT2015}{\citeauthoryear {{The New York Times}}{{The New York Times}}{{\APACyear {2015}}}}
\APACbibcite{NYT2015}{\citeauthoryear {{The New York Times}}{{The New York Times}}{{\APACyear {2015}}}}
\bibcite{Vacca2011}{\citeauthoryear {Vacca, Acosta,{}\ \BBA{} Rodriguez}{Vacca\ \BOthers {.}}{{\APACyear {2011}}}}
\APACbibcite{Vacca2011}{\citeauthoryear {Vacca, Acosta,{}\ \BBA{} Rodriguez}{Vacca\ \BOthers {.}}{{\APACyear {2011}}}}
\bibcite{MEDI2013}{\citeauthoryear {Wei\ \BOthers {.}}{Wei\ \BOthers {.}}{{\APACyear {2013}}}}
\APACbibcite{MEDI2013}{\citeauthoryear {Wei\ \BOthers {.}}{Wei\ \BOthers {.}}{{\APACyear {2013}}}}
\bibcite{TTD2016}{\citeauthoryear {Yang\ \BOthers {.}}{Yang\ \BOthers {.}}{{\APACyear {2016}}}}
\APACbibcite{TTD2016}{\citeauthoryear {Yang\ \BOthers {.}}{Yang\ \BOthers {.}}{{\APACyear {2016}}}}
\pbs@newkey{pbs@last@page}{41}
\@writefile{nav}{\headcommand {\sectionentry {6}{}{41}{}{0}}}
\@writefile{nav}{\headcommand {\beamer@sectionpages {38}{40}}}
\@writefile{nav}{\headcommand {\beamer@subsectionpages {38}{40}}}
\@writefile{toc}{\contentsline {section}{}}
\@writefile{nav}{\headcommand {\slideentry {6}{0}{0}{41/41}{}{0}}}
\@writefile{nav}{\headcommand {\beamer@framepages {41}{41}}}
\pbs@newkey{pbs@last@page}{42}
\@writefile{nav}{\headcommand {\slideentry {6}{0}{0}{41/42}{}{0}}}
\@writefile{nav}{\headcommand {\beamer@framepages {41}{42}}}
\pbs@newkey{pbs@last@page}{43}
\@writefile{nav}{\headcommand {\slideentry {6}{0}{0}{41/43}{}{0}}}
\@writefile{nav}{\headcommand {\beamer@framepages {41}{43}}}
\pbs@newkey{pbs@last@page}{44}
\@writefile{nav}{\headcommand {\partentry {\translate  {Appendix}}{1}}}
\@writefile{nav}{\headcommand {\beamer@partpages {1}{43}}}
\@writefile{nav}{\headcommand {\beamer@sectionpages {38}{43}}}
\@writefile{nav}{\headcommand {\beamer@subsectionpages {38}{43}}}
\@writefile{nav}{\headcommand {\beamer@appendixpages {44}}}
\@writefile{toc}{\beamer@sectionintoc {7}{Extra slides: Pharmaceutical prices}{44}{1}{6}}
\@writefile{nav}{\headcommand {\sectionentry {7}{Extra slides: Pharmaceutical prices}{44}{Extra slides: Pharmaceutical prices}{1}}}
\@writefile{nav}{\headcommand {\beamer@sectionpages {44}{43}}}
\@writefile{nav}{\headcommand {\beamer@subsectionpages {44}{43}}}
\@writefile{nav}{\headcommand {\slideentry {7}{0}{1}{44/44}{}{1}}}
\@writefile{nav}{\headcommand {\beamer@framepages {44}{44}}}
\pbs@newkey{pbs@last@page}{45}
\newlabel{sumstat<1>}{{35}{45}{Extra slides: Pharmaceutical prices}{Doc-Start}{}}
\@writefile{snm}{\beamer@slide {sumstat<1>}{45}}
\newlabel{sumstat}{{35}{45}{Extra slides: Pharmaceutical prices}{Doc-Start}{}}
\@writefile{snm}{\beamer@slide {sumstat}{45}}
\newlabel{tab:diff_charac}{{2}{45}{Difference between pharmaceuticals characteristics by how much price information is observed.\relax }{Doc-Start}{}}
\@writefile{snm}{\beamer@slide {tab:diff_charac}{45}}
\@writefile{nav}{\headcommand {\slideentry {7}{0}{2}{45/45}{}{1}}}
\@writefile{nav}{\headcommand {\beamer@framepages {45}{45}}}
\pbs@newkey{pbs@last@page}{46}
\newlabel{sumstat2<1>}{{36}{46}{Extra slides: Pharmaceutical prices}{Doc-Start}{}}
\@writefile{snm}{\beamer@slide {sumstat2<1>}{46}}
\newlabel{sumstat2}{{36}{46}{Extra slides: Pharmaceutical prices}{Doc-Start}{}}
\@writefile{snm}{\beamer@slide {sumstat2}{46}}
\newlabel{tab:descr2}{{3}{46}{Summary statistics for drugs with some observations and a maximum/minimum price ratio under 30\relax }{Doc-Start}{}}
\@writefile{snm}{\beamer@slide {tab:descr2}{46}}
\@writefile{nav}{\headcommand {\slideentry {7}{0}{3}{46/46}{}{1}}}
\@writefile{nav}{\headcommand {\beamer@framepages {46}{46}}}
\citation{Vacca2011}
\citation{Departamento2012}
\pbs@newkey{pbs@last@page}{47}
\newlabel{problemsismed<1>}{{37}{47}{Extra slides: Pharmaceutical prices}{Doc-Start}{}}
\@writefile{snm}{\beamer@slide {problemsismed<1>}{47}}
\newlabel{problemsismed}{{37}{47}{Extra slides: Pharmaceutical prices}{Doc-Start}{}}
\@writefile{snm}{\beamer@slide {problemsismed}{47}}
\@writefile{nav}{\headcommand {\slideentry {7}{0}{4}{47/47}{}{1}}}
\@writefile{nav}{\headcommand {\beamer@framepages {47}{47}}}
\pbs@newkey{pbs@last@page}{48}
\newlabel{reg_timing<1>}{{38}{48}{Extra slides: Pharmaceutical prices}{Doc-Start}{}}
\@writefile{snm}{\beamer@slide {reg_timing<1>}{48}}
\newlabel{reg_timing}{{38}{48}{Extra slides: Pharmaceutical prices}{Doc-Start}{}}
\@writefile{snm}{\beamer@slide {reg_timing}{48}}
\newlabel{tab:timing}{{4}{48}{Timing and other regulatory changes\relax }{Doc-Start}{}}
\@writefile{snm}{\beamer@slide {tab:timing}{48}}
\@writefile{nav}{\headcommand {\slideentry {7}{0}{5}{48/48}{}{1}}}
\@writefile{nav}{\headcommand {\beamer@framepages {48}{48}}}
\pbs@newkey{pbs@last@page}{49}
\newlabel{reg_p<1>}{{39}{49}{Extra slides: Pharmaceutical prices}{Doc-Start}{}}
\@writefile{snm}{\beamer@slide {reg_p<1>}{49}}
\newlabel{reg_p}{{39}{49}{Extra slides: Pharmaceutical prices}{Doc-Start}{}}
\@writefile{snm}{\beamer@slide {reg_p}{49}}
\newlabel{tab:POS}{{5}{49}{Effect on a drug's price of including the drug to the benefit plan \relax }{Doc-Start}{}}
\@writefile{snm}{\beamer@slide {tab:POS}{49}}
\@writefile{nav}{\headcommand {\slideentry {7}{0}{6}{49/49}{}{1}}}
\@writefile{nav}{\headcommand {\beamer@framepages {49}{49}}}
\pbs@newkey{pbs@last@page}{50}
\newlabel{reg_q<1>}{{40}{50}{Extra slides: Pharmaceutical prices}{Doc-Start}{}}
\@writefile{snm}{\beamer@slide {reg_q<1>}{50}}
\newlabel{reg_q}{{40}{50}{Extra slides: Pharmaceutical prices}{Doc-Start}{}}
\@writefile{snm}{\beamer@slide {reg_q}{50}}
\newlabel{tab:POS2}{{6}{50}{Effect of including a drug in the health plan on the quantities sold \relax }{Doc-Start}{}}
\@writefile{snm}{\beamer@slide {tab:POS2}{50}}
\@writefile{nav}{\headcommand {\slideentry {7}{0}{7}{50/50}{}{1}}}
\@writefile{nav}{\headcommand {\beamer@framepages {50}{50}}}
\pbs@newkey{pbs@last@page}{51}
\newlabel{fig2014<1>}{{41}{51}{Extra slides: Pharmaceutical prices}{Doc-Start}{}}
\@writefile{snm}{\beamer@slide {fig2014<1>}{51}}
\newlabel{fig2014}{{41}{51}{Extra slides: Pharmaceutical prices}{Doc-Start}{}}
\@writefile{snm}{\beamer@slide {fig2014}{51}}
\newlabel{fig:eve_pos_price_2011}{{6}{51}{\tiny Event study for the effect of including a pharmaceutical in the POS on its price. \textit {Source:} SISMED and INVIMA. \textit {Calculations:} Author. \relax }{Doc-Start}{}}
\@writefile{snm}{\beamer@slide {fig:eve_pos_price_2011}{51}}
\@writefile{nav}{\headcommand {\slideentry {7}{0}{8}{51/51}{}{1}}}
\@writefile{nav}{\headcommand {\beamer@framepages {51}{51}}}
\pbs@newkey{pbs@last@page}{52}
\newlabel{fig2012<1>}{{42}{52}{Extra slides: Pharmaceutical prices}{Doc-Start}{}}
\@writefile{snm}{\beamer@slide {fig2012<1>}{52}}
\newlabel{fig2012}{{42}{52}{Extra slides: Pharmaceutical prices}{Doc-Start}{}}
\@writefile{snm}{\beamer@slide {fig2012}{52}}
\newlabel{fig:eve_pos_price_2012}{{7}{52}{\tiny Event study for the effect of including a pharmaceutical in the POS on its price. \textit {Source:} SISMED and INVIMA. \textit {Calculations:} Author. \relax }{Doc-Start}{}}
\@writefile{snm}{\beamer@slide {fig:eve_pos_price_2012}{52}}
\@writefile{nav}{\headcommand {\slideentry {7}{0}{9}{52/52}{}{1}}}
\@writefile{nav}{\headcommand {\beamer@framepages {52}{52}}}
\pbs@newkey{pbs@last@page}{53}
\newlabel{fig2014_q<1>}{{43}{53}{Extra slides: Pharmaceutical prices}{Doc-Start}{}}
\@writefile{snm}{\beamer@slide {fig2014_q<1>}{53}}
\newlabel{fig2014_q}{{43}{53}{Extra slides: Pharmaceutical prices}{Doc-Start}{}}
\@writefile{snm}{\beamer@slide {fig2014_q}{53}}
\newlabel{fig:eve_pos_quantity_2011}{{8}{53}{\tiny Event study for the effect of including a pharmaceutical in the POS on its price. \textit {Source:} SISMED and INVIMA. \textit {Calculations:} Author. \relax }{Doc-Start}{}}
\@writefile{snm}{\beamer@slide {fig:eve_pos_quantity_2011}{53}}
\@writefile{nav}{\headcommand {\slideentry {7}{0}{10}{53/53}{}{1}}}
\@writefile{nav}{\headcommand {\beamer@framepages {53}{53}}}
\pbs@newkey{pbs@last@page}{54}
\newlabel{fig2012_q<1>}{{44}{54}{Extra slides: Pharmaceutical prices}{Doc-Start}{}}
\@writefile{snm}{\beamer@slide {fig2012_q<1>}{54}}
\newlabel{fig2012_q}{{44}{54}{Extra slides: Pharmaceutical prices}{Doc-Start}{}}
\@writefile{snm}{\beamer@slide {fig2012_q}{54}}
\newlabel{fig:eve_pos_quantity_2012}{{9}{54}{\tiny Event study for the effect of including a pharmaceutical in the POS on its price. \textit {Source:} SISMED and INVIMA. \textit {Calculations:} Author. \relax }{Doc-Start}{}}
\@writefile{snm}{\beamer@slide {fig:eve_pos_quantity_2012}{54}}
\@writefile{nav}{\headcommand {\slideentry {7}{0}{11}{54/54}{}{1}}}
\@writefile{nav}{\headcommand {\beamer@framepages {54}{54}}}
\pbs@newkey{pbs@last@page}{55}
\newlabel{price_scale<1>}{{45}{55}{Extra slides: Pharmaceutical prices}{Doc-Start}{}}
\@writefile{snm}{\beamer@slide {price_scale<1>}{55}}
\newlabel{price_scale}{{45}{55}{Extra slides: Pharmaceutical prices}{Doc-Start}{}}
\@writefile{snm}{\beamer@slide {price_scale}{55}}
\newlabel{tab:POS_ROB2}{{7}{55}{Effect of including a drug in the health plan for locally produced vs. imported drugs \relax }{Doc-Start}{}}
\@writefile{snm}{\beamer@slide {tab:POS_ROB2}{55}}
\@writefile{nav}{\headcommand {\slideentry {7}{0}{12}{55/55}{}{1}}}
\@writefile{nav}{\headcommand {\beamer@framepages {55}{55}}}
\pbs@newkey{pbs@last@page}{56}
\newlabel{price_otc<1>}{{46}{56}{Extra slides: Pharmaceutical prices}{Doc-Start}{}}
\@writefile{snm}{\beamer@slide {price_otc<1>}{56}}
\newlabel{price_otc}{{46}{56}{Extra slides: Pharmaceutical prices}{Doc-Start}{}}
\@writefile{snm}{\beamer@slide {price_otc}{56}}
\newlabel{tab:POS_ROB5}{{8}{56}{Effect of including a drug in the health plan by OTC/Rx status\relax }{Doc-Start}{}}
\@writefile{snm}{\beamer@slide {tab:POS_ROB5}{56}}
\@writefile{nav}{\headcommand {\slideentry {7}{0}{13}{56/56}{}{1}}}
\@writefile{nav}{\headcommand {\beamer@framepages {56}{56}}}
\pbs@newkey{pbs@last@page}{57}
\newlabel{early_timing<1>}{{47}{57}{Extra slides: Pharmaceutical prices}{Doc-Start}{}}
\@writefile{snm}{\beamer@slide {early_timing<1>}{57}}
\newlabel{early_timing}{{47}{57}{Extra slides: Pharmaceutical prices}{Doc-Start}{}}
\@writefile{snm}{\beamer@slide {early_timing}{57}}
\@writefile{nav}{\headcommand {\slideentry {7}{0}{14}{57/57}{}{1}}}
\@writefile{nav}{\headcommand {\beamer@framepages {57}{57}}}
\pbs@newkey{pbs@last@page}{58}
\newlabel{late_timing<1>}{{48}{58}{Extra slides: Pharmaceutical prices}{Doc-Start}{}}
\@writefile{snm}{\beamer@slide {late_timing<1>}{58}}
\newlabel{late_timing}{{48}{58}{Extra slides: Pharmaceutical prices}{Doc-Start}{}}
\@writefile{snm}{\beamer@slide {late_timing}{58}}
\@writefile{nav}{\headcommand {\slideentry {7}{0}{15}{58/58}{}{1}}}
\@writefile{nav}{\headcommand {\beamer@framepages {58}{58}}}
\pbs@newkey{pbs@last@page}{59}
\newlabel{yearATCFE<1>}{{49}{59}{Extra slides: Pharmaceutical prices}{Doc-Start}{}}
\@writefile{snm}{\beamer@slide {yearATCFE<1>}{59}}
\newlabel{yearATCFE}{{49}{59}{Extra slides: Pharmaceutical prices}{Doc-Start}{}}
\@writefile{snm}{\beamer@slide {yearATCFE}{59}}
\newlabel{fig:eve_pos_pricefe}{{10}{59}{\tiny Event study for the effect of including a pharmaceutical in the POS on its price. \textit {Source:} SISMED and INVIMA. \textit {Calculations:} Author. \relax }{Doc-Start}{}}
\@writefile{snm}{\beamer@slide {fig:eve_pos_pricefe}{59}}
\@writefile{nav}{\headcommand {\slideentry {7}{0}{16}{59/59}{}{1}}}
\@writefile{nav}{\headcommand {\beamer@framepages {59}{59}}}
\pbs@newkey{pbs@last@page}{60}
\newlabel{yearATCFE_Q<1>}{{50}{60}{Extra slides: Pharmaceutical prices}{Doc-Start}{}}
\@writefile{snm}{\beamer@slide {yearATCFE_Q<1>}{60}}
\newlabel{yearATCFE_Q}{{50}{60}{Extra slides: Pharmaceutical prices}{Doc-Start}{}}
\@writefile{snm}{\beamer@slide {yearATCFE_Q}{60}}
\newlabel{fig:eve_pos_qfe}{{11}{60}{\tiny Event study for the effect of including a pharmaceutical in the POS on its price. \textit {Source:} SISMED and INVIMA. \textit {Calculations:} Author. \relax }{Doc-Start}{}}
\@writefile{snm}{\beamer@slide {fig:eve_pos_qfe}{60}}
\@writefile{nav}{\headcommand {\slideentry {7}{0}{17}{60/60}{}{1}}}
\@writefile{nav}{\headcommand {\beamer@framepages {60}{60}}}
\pbs@newkey{pbs@last@page}{61}
\newlabel{groupcompeting<1>}{{51}{61}{Extra slides: Pharmaceutical prices}{Doc-Start}{}}
\@writefile{snm}{\beamer@slide {groupcompeting<1>}{61}}
\newlabel{groupcompeting}{{51}{61}{Extra slides: Pharmaceutical prices}{Doc-Start}{}}
\@writefile{snm}{\beamer@slide {groupcompeting}{61}}
\@writefile{nav}{\headcommand {\slideentry {7}{0}{18}{61/61}{}{1}}}
\@writefile{nav}{\headcommand {\beamer@framepages {61}{61}}}
\@writefile{nav}{\headcommand {\beamer@partpages {44}{61}}}
\@writefile{nav}{\headcommand {\beamer@subsectionpages {44}{61}}}
\@writefile{nav}{\headcommand {\beamer@sectionpages {44}{61}}}
\@writefile{nav}{\headcommand {\beamer@documentpages {61}}}
\@writefile{nav}{\headcommand {\def \inserttotalframenumber {51}}}
