\BOOKMARK [2][]{Outline0.1}{Motivation}{}% 1
\BOOKMARK [2][]{Outline0.2}{Background}{}% 2
\BOOKMARK [2][]{Outline0.3}{Empirics}{}% 3
\BOOKMARK [2][]{Outline0.4}{Closing remarks}{}% 4
\BOOKMARK [1][]{Outline1}{Appendix}{}% 5
\BOOKMARK [2][]{Outline1.6}{Extra slides: Pharmaceutical prices}{Outline1}% 6
