\relax 
\providecommand\hyper@newdestlabel[2]{}
\providecommand\HyperFirstAtBeginDocument{\AtBeginDocument}
\HyperFirstAtBeginDocument{\ifx\hyper@anchor\@undefined
\global\let\oldcontentsline\contentsline
\gdef\contentsline#1#2#3#4{\oldcontentsline{#1}{#2}{#3}}
\global\let\oldnewlabel\newlabel
\gdef\newlabel#1#2{\newlabelxx{#1}#2}
\gdef\newlabelxx#1#2#3#4#5#6{\oldnewlabel{#1}{{#2}{#3}}}
\AtEndDocument{\ifx\hyper@anchor\@undefined
\let\contentsline\oldcontentsline
\let\newlabel\oldnewlabel
\fi}
\fi}
\global\let\hyper@last\relax 
\gdef\HyperFirstAtBeginDocument#1{#1}
\providecommand\HyField@AuxAddToFields[1]{}
\providecommand\HyField@AuxAddToCoFields[2]{}
\providecommand\pbs@newkey[2]{}\providecommand\pbs@seq@push@cx[2]{}\providecommand\pbs@at@end@dvi@check{}
\pbs@at@end@dvi@check
\providecommand\mix@newkey[2]{}
\pbs@newkey{pbs@last@page}{1}
\providecommand \oddpage@label [2]{}
\pbs@newkey{pbs@last@page}{2}
\@writefile{nav}{\headcommand {\slideentry {0}{0}{1}{1/1}{}{0}}}
\@writefile{nav}{\headcommand {\beamer@framepages {1}{1}}}
\citation{MSH2012}
\pbs@newkey{pbs@last@page}{3}
\@writefile{toc}{\beamer@sectionintoc {1}{Motivation}{3}{0}{1}}
\@writefile{nav}{\headcommand {\sectionentry {1}{Motivation}{3}{Motivation}{0}}}
\@writefile{nav}{\headcommand {\beamer@sectionpages {1}{2}}}
\@writefile{nav}{\headcommand {\beamer@subsectionpages {1}{2}}}
\citation{MSH2012}
\pbs@newkey{pbs@last@page}{4}
\citation{MSH2012}
\pbs@newkey{pbs@last@page}{5}
\citation{MSH2012}
\pbs@newkey{pbs@last@page}{6}
\citation{MSH2012}
\pbs@newkey{pbs@last@page}{7}
\citation{MSH2012}
\pbs@newkey{pbs@last@page}{8}
\citation{MSH2012}
\pbs@newkey{pbs@last@page}{9}
\citation{MSH2012}
\pbs@newkey{pbs@last@page}{10}
\@writefile{nav}{\headcommand {\slideentry {1}{0}{1}{3/10}{}{0}}}
\@writefile{nav}{\headcommand {\beamer@framepages {3}{10}}}
\pbs@newkey{pbs@last@page}{11}
\pbs@newkey{pbs@last@page}{12}
\pbs@newkey{pbs@last@page}{13}
\@writefile{nav}{\headcommand {\slideentry {1}{0}{2}{11/13}{}{0}}}
\@writefile{nav}{\headcommand {\beamer@framepages {11}{13}}}
\pbs@newkey{pbs@last@page}{14}
\pbs@newkey{pbs@last@page}{15}
\pbs@newkey{pbs@last@page}{16}
\pbs@newkey{pbs@last@page}{17}
\pbs@newkey{pbs@last@page}{18}
\@writefile{nav}{\headcommand {\slideentry {1}{0}{3}{14/18}{}{0}}}
\@writefile{nav}{\headcommand {\beamer@framepages {14}{18}}}
\citation{Duggan2006}
\citation{Brekke2009}
\citation{Brekke2011}
\citation{Duggan2010}
\citation{Alpert2013}
\citation{Arrow1963}
\citation{Gruber1996}
\citation{Iizuka2007}
\citation{Iizuka2012}
\citation{Clemens2014}
\pbs@newkey{pbs@last@page}{19}
\@writefile{nav}{\headcommand {\slideentry {1}{0}{4}{19/19}{}{0}}}
\@writefile{nav}{\headcommand {\beamer@framepages {19}{19}}}
\pbs@newkey{pbs@last@page}{20}
\@writefile{toc}{\beamer@sectionintoc {2}{Background}{20}{0}{2}}
\@writefile{nav}{\headcommand {\sectionentry {2}{Background}{20}{Background}{0}}}
\@writefile{nav}{\headcommand {\beamer@sectionpages {3}{19}}}
\@writefile{nav}{\headcommand {\beamer@subsectionpages {3}{19}}}
\@writefile{nav}{\headcommand {\slideentry {2}{0}{1}{20/20}{}{0}}}
\@writefile{nav}{\headcommand {\beamer@framepages {20}{20}}}
\pbs@newkey{pbs@last@page}{21}
\pbs@newkey{pbs@last@page}{22}
\pbs@newkey{pbs@last@page}{23}
\pbs@newkey{pbs@last@page}{24}
\pbs@newkey{pbs@last@page}{25}
\pbs@newkey{pbs@last@page}{26}
\pbs@newkey{pbs@last@page}{27}
\pbs@newkey{pbs@last@page}{28}
\@writefile{nav}{\headcommand {\slideentry {2}{0}{2}{21/28}{}{0}}}
\@writefile{nav}{\headcommand {\beamer@framepages {21}{28}}}
\pbs@newkey{pbs@last@page}{29}
\@writefile{nav}{\headcommand {\slideentry {2}{0}{3}{29/29}{}{0}}}
\@writefile{nav}{\headcommand {\beamer@framepages {29}{29}}}
\pbs@newkey{pbs@last@page}{30}
\providecommand*\caption@xref[2]{\@setref\relax\@undefined{#1}}
\newlabel{fig:add_pos}{{1}{30}{Number of drugs introduced into the POS by year. \textit {Source:} SISMED and INVIMA. \textit {Calculations:} Author.\relax }{Doc-Start}{}}
\@writefile{snm}{\beamer@slide {fig:add_pos}{30}}
\@writefile{nav}{\headcommand {\slideentry {2}{0}{4}{30/30}{}{0}}}
\@writefile{nav}{\headcommand {\beamer@framepages {30}{30}}}
\pbs@newkey{pbs@last@page}{31}
\@writefile{toc}{\beamer@sectionintoc {3}{Theory}{31}{0}{3}}
\@writefile{nav}{\headcommand {\sectionentry {3}{Theory}{31}{Theory}{0}}}
\@writefile{nav}{\headcommand {\beamer@sectionpages {20}{30}}}
\@writefile{nav}{\headcommand {\beamer@subsectionpages {20}{30}}}
\@writefile{nav}{\headcommand {\slideentry {3}{0}{1}{31/31}{}{0}}}
\@writefile{nav}{\headcommand {\beamer@framepages {31}{31}}}
\pbs@newkey{pbs@last@page}{32}
\pbs@newkey{pbs@last@page}{33}
\pbs@newkey{pbs@last@page}{34}
\pbs@newkey{pbs@last@page}{35}
\@writefile{nav}{\headcommand {\slideentry {3}{0}{2}{32/35}{}{0}}}
\@writefile{nav}{\headcommand {\beamer@framepages {32}{35}}}
\pbs@newkey{pbs@last@page}{36}
\@writefile{nav}{\headcommand {\slideentry {3}{0}{3}{36/36}{}{0}}}
\@writefile{nav}{\headcommand {\beamer@framepages {36}{36}}}
\pbs@newkey{pbs@last@page}{37}
\@writefile{nav}{\headcommand {\slideentry {3}{0}{4}{37/37}{}{0}}}
\@writefile{nav}{\headcommand {\beamer@framepages {37}{37}}}
\pbs@newkey{pbs@last@page}{38}
\@writefile{nav}{\headcommand {\slideentry {3}{0}{5}{38/38}{}{0}}}
\@writefile{nav}{\headcommand {\beamer@framepages {38}{38}}}
\pbs@newkey{pbs@last@page}{39}
\@writefile{toc}{\beamer@sectionintoc {4}{Empirics}{39}{0}{4}}
\@writefile{nav}{\headcommand {\sectionentry {4}{Empirics}{39}{Empirics}{0}}}
\@writefile{nav}{\headcommand {\beamer@sectionpages {31}{38}}}
\@writefile{nav}{\headcommand {\beamer@subsectionpages {31}{38}}}
\@writefile{nav}{\headcommand {\slideentry {4}{0}{1}{39/39}{}{0}}}
\@writefile{nav}{\headcommand {\beamer@framepages {39}{39}}}
\pbs@newkey{pbs@last@page}{40}
\newlabel{goback0<1>}{{16}{40}{Empirics}{Doc-Start}{}}
\@writefile{snm}{\beamer@slide {goback0<1>}{40}}
\newlabel{goback0}{{16}{40}{Empirics}{Doc-Start}{}}
\@writefile{snm}{\beamer@slide {goback0}{40}}
\@writefile{nav}{\headcommand {\slideentry {4}{0}{2}{40/40}{}{0}}}
\@writefile{nav}{\headcommand {\beamer@framepages {40}{40}}}
\pbs@newkey{pbs@last@page}{41}
\newlabel{sumstat2<1>}{{17}{41}{Empirics}{Doc-Start}{}}
\@writefile{snm}{\beamer@slide {sumstat2<1>}{41}}
\newlabel{sumstat2}{{17}{41}{Empirics}{Doc-Start}{}}
\@writefile{snm}{\beamer@slide {sumstat2}{41}}
\newlabel{tab:descr2}{{1}{41}{Summary statistics for drugs with some observations and a maximum/minimum price ratio under 30\relax }{Doc-Start}{}}
\@writefile{snm}{\beamer@slide {tab:descr2}{41}}
\@writefile{nav}{\headcommand {\slideentry {4}{0}{3}{41/41}{}{0}}}
\@writefile{nav}{\headcommand {\beamer@framepages {41}{41}}}
\pbs@newkey{pbs@last@page}{42}
\@writefile{nav}{\headcommand {\slideentry {4}{0}{4}{42/42}{}{0}}}
\@writefile{nav}{\headcommand {\beamer@framepages {42}{42}}}
\pbs@newkey{pbs@last@page}{43}
\newlabel{eq:timing}{{6}{43}{Empirics}{Doc-Start}{}}
\@writefile{snm}{\beamer@slide {eq:timing}{43}}
\@writefile{nav}{\headcommand {\slideentry {4}{0}{5}{43/43}{}{0}}}
\@writefile{nav}{\headcommand {\beamer@framepages {43}{43}}}
\pbs@newkey{pbs@last@page}{44}
\newlabel{goback_timing1<1>}{{20}{44}{Empirics}{Doc-Start}{}}
\@writefile{snm}{\beamer@slide {goback_timing1<1>}{44}}
\newlabel{goback_timing1}{{20}{44}{Empirics}{Doc-Start}{}}
\@writefile{snm}{\beamer@slide {goback_timing1}{44}}
\newlabel{fig:timing2}{{2}{44}{Competition\relax }{Doc-Start}{}}
\@writefile{snm}{\beamer@slide {fig:timing2}{44}}
\@writefile{nav}{\headcommand {\slideentry {4}{0}{6}{44/44}{}{0}}}
\@writefile{nav}{\headcommand {\beamer@framepages {44}{44}}}
\pbs@newkey{pbs@last@page}{45}
\newlabel{goback_timing2<1>}{{21}{45}{Empirics}{Doc-Start}{}}
\@writefile{snm}{\beamer@slide {goback_timing2<1>}{45}}
\newlabel{goback_timing2}{{21}{45}{Empirics}{Doc-Start}{}}
\@writefile{snm}{\beamer@slide {goback_timing2}{45}}
\newlabel{fig:timing1}{{3}{45}{Generic\relax }{Doc-Start}{}}
\@writefile{snm}{\beamer@slide {fig:timing1}{45}}
\@writefile{nav}{\headcommand {\slideentry {4}{0}{7}{45/45}{}{0}}}
\@writefile{nav}{\headcommand {\beamer@framepages {45}{45}}}
\pbs@newkey{pbs@last@page}{46}
\newlabel{goback_timing<1>}{{22}{46}{Empirics}{Doc-Start}{}}
\@writefile{snm}{\beamer@slide {goback_timing<1>}{46}}
\newlabel{goback_timing}{{22}{46}{Empirics}{Doc-Start}{}}
\@writefile{snm}{\beamer@slide {goback_timing}{46}}
\newlabel{fig:timing3}{{4}{46}{Price regulation\relax }{Doc-Start}{}}
\@writefile{snm}{\beamer@slide {fig:timing3}{46}}
\@writefile{nav}{\headcommand {\slideentry {4}{0}{8}{46/46}{}{0}}}
\@writefile{nav}{\headcommand {\beamer@framepages {46}{46}}}
\pbs@newkey{pbs@last@page}{47}
\newlabel{eq:original}{{6}{47}{Empirics}{Doc-Start}{}}
\@writefile{snm}{\beamer@slide {eq:original}{47}}
\@writefile{nav}{\headcommand {\slideentry {4}{0}{9}{47/47}{}{0}}}
\@writefile{nav}{\headcommand {\beamer@framepages {47}{47}}}
\pbs@newkey{pbs@last@page}{48}
\newlabel{goback1<1>}{{24}{48}{Empirics}{Doc-Start}{}}
\@writefile{snm}{\beamer@slide {goback1<1>}{48}}
\newlabel{goback1}{{24}{48}{Empirics}{Doc-Start}{}}
\@writefile{snm}{\beamer@slide {goback1}{48}}
\newlabel{fig:eve_pos_price}{{5}{48}{\tiny Event study for the effect of including a pharmaceutical in the POS on its price. \textit {Source:} SISMED and INVIMA. \textit {Calculations:} Author. \relax }{Doc-Start}{}}
\@writefile{snm}{\beamer@slide {fig:eve_pos_price}{48}}
\@writefile{nav}{\headcommand {\slideentry {4}{0}{10}{48/48}{}{0}}}
\@writefile{nav}{\headcommand {\beamer@framepages {48}{48}}}
\pbs@newkey{pbs@last@page}{49}
\newlabel{goback2<1>}{{25}{49}{Empirics}{Doc-Start}{}}
\@writefile{snm}{\beamer@slide {goback2<1>}{49}}
\newlabel{goback2}{{25}{49}{Empirics}{Doc-Start}{}}
\@writefile{snm}{\beamer@slide {goback2}{49}}
\newlabel{fig:eve_pos_quantity}{{6}{49}{\tiny Event study for the effect of including a pharmaceutical in the POS on the quantities. \textit {Source:} SISMED and INVIMA. \textit {Calculations:} Author. \relax }{Doc-Start}{}}
\@writefile{snm}{\beamer@slide {fig:eve_pos_quantity}{49}}
\@writefile{nav}{\headcommand {\slideentry {4}{0}{11}{49/49}{}{0}}}
\@writefile{nav}{\headcommand {\beamer@framepages {49}{49}}}
\pbs@newkey{pbs@last@page}{50}
\newlabel{price_competition<1>}{{26}{50}{Empirics}{Doc-Start}{}}
\@writefile{snm}{\beamer@slide {price_competition<1>}{50}}
\newlabel{price_competition}{{26}{50}{Empirics}{Doc-Start}{}}
\@writefile{snm}{\beamer@slide {price_competition}{50}}
\newlabel{tab:POS_ROB3}{{2}{50}{Effect of including a drug in the health plan by competition in the market \relax }{Doc-Start}{}}
\@writefile{snm}{\beamer@slide {tab:POS_ROB3}{50}}
\@writefile{nav}{\headcommand {\slideentry {4}{0}{12}{50/50}{}{0}}}
\@writefile{nav}{\headcommand {\beamer@framepages {50}{50}}}
\pbs@newkey{pbs@last@page}{51}
\newlabel{goback_rob<1>}{{27}{51}{Empirics}{Doc-Start}{}}
\@writefile{snm}{\beamer@slide {goback_rob<1>}{51}}
\newlabel{goback_rob}{{27}{51}{Empirics}{Doc-Start}{}}
\@writefile{snm}{\beamer@slide {goback_rob}{51}}
\@writefile{nav}{\headcommand {\slideentry {4}{0}{13}{51/51}{}{0}}}
\@writefile{nav}{\headcommand {\beamer@framepages {51}{51}}}
\pbs@newkey{pbs@last@page}{52}
\newlabel{eq:NOPOS}{{6}{52}{Empirics}{Doc-Start}{}}
\@writefile{snm}{\beamer@slide {eq:NOPOS}{52}}
\@writefile{nav}{\headcommand {\slideentry {4}{0}{14}{52/52}{}{0}}}
\@writefile{nav}{\headcommand {\beamer@framepages {52}{52}}}
\pbs@newkey{pbs@last@page}{53}
\newlabel{tab:competitors_NOPOS}{{3}{53}{Effect of including a drug in the benefit plan on the price of therapeutic substitutes that are not in the plan\relax }{Doc-Start}{}}
\@writefile{snm}{\beamer@slide {tab:competitors_NOPOS}{53}}
\@writefile{nav}{\headcommand {\slideentry {4}{0}{15}{53/53}{}{0}}}
\@writefile{nav}{\headcommand {\beamer@framepages {53}{53}}}
\pbs@newkey{pbs@last@page}{54}
\newlabel{eq:POS}{{6}{54}{Empirics}{Doc-Start}{}}
\@writefile{snm}{\beamer@slide {eq:POS}{54}}
\@writefile{nav}{\headcommand {\slideentry {4}{0}{16}{54/54}{}{0}}}
\@writefile{nav}{\headcommand {\beamer@framepages {54}{54}}}
\pbs@newkey{pbs@last@page}{55}
\newlabel{tab:competitors_POS}{{4}{55}{Effect of including a drug in the benefit plan on the price of therapeutic substitutes that are not in the plan\relax }{Doc-Start}{}}
\@writefile{snm}{\beamer@slide {tab:competitors_POS}{55}}
\@writefile{nav}{\headcommand {\slideentry {4}{0}{17}{55/55}{}{0}}}
\@writefile{nav}{\headcommand {\beamer@framepages {55}{55}}}
\pbs@newkey{pbs@last@page}{56}
\@writefile{toc}{\beamer@sectionintoc {5}{Closing remarks}{56}{0}{5}}
\@writefile{nav}{\headcommand {\sectionentry {5}{Closing remarks}{56}{Closing remarks}{0}}}
\@writefile{nav}{\headcommand {\beamer@sectionpages {39}{55}}}
\@writefile{nav}{\headcommand {\beamer@subsectionpages {39}{55}}}
\@writefile{nav}{\headcommand {\slideentry {5}{0}{1}{56/56}{}{0}}}
\@writefile{nav}{\headcommand {\beamer@framepages {56}{56}}}
\citation{NYT2015}
\pbs@newkey{pbs@last@page}{57}
\@writefile{nav}{\headcommand {\slideentry {5}{0}{2}{57/57}{}{0}}}
\@writefile{nav}{\headcommand {\beamer@framepages {57}{57}}}
\citation{NYT2015c}
\pbs@newkey{pbs@last@page}{58}
\@writefile{nav}{\headcommand {\slideentry {5}{0}{3}{58/58}{}{0}}}
\@writefile{nav}{\headcommand {\beamer@framepages {58}{58}}}
\pbs@newkey{pbs@last@page}{59}
\@writefile{nav}{\headcommand {\slideentry {5}{0}{4}{59/59}{}{0}}}
\@writefile{nav}{\headcommand {\beamer@framepages {59}{59}}}
\bibstyle{apacite}
\bibdata{PharPrice}
\bibcite{Alpert2013}{\citeauthoryear {Alpert, Duggan,{}\ \BBA{} Hellerstein}{Alpert\ \BOthers {.}}{{\APACyear {2013}}}}
\APACbibcite{Alpert2013}{\citeauthoryear {Alpert, Duggan,{}\ \BBA{} Hellerstein}{Alpert\ \BOthers {.}}{{\APACyear {2013}}}}
\bibcite{Arrow1963}{\citeauthoryear {Arrow}{Arrow}{{\APACyear {1963}}}}
\APACbibcite{Arrow1963}{\citeauthoryear {Arrow}{Arrow}{{\APACyear {1963}}}}
\bibcite{Brekke2009}{\citeauthoryear {Brekke, Grasdal,{}\ \BBA{} Holmas}{Brekke\ \BOthers {.}}{{\APACyear {2009}}}}
\APACbibcite{Brekke2009}{\citeauthoryear {Brekke, Grasdal,{}\ \BBA{} Holmas}{Brekke\ \BOthers {.}}{{\APACyear {2009}}}}
\bibcite{Brekke2011}{\citeauthoryear {Brekke, Holmas,{}\ \BBA{} Straume}{Brekke\ \BOthers {.}}{{\APACyear {2011}}}}
\APACbibcite{Brekke2011}{\citeauthoryear {Brekke, Holmas,{}\ \BBA{} Straume}{Brekke\ \BOthers {.}}{{\APACyear {2011}}}}
\bibcite{Clemens2014}{\citeauthoryear {Clemens\ \BBA{} Gottlieb}{Clemens\ \BBA{} Gottlieb}{{\APACyear {2014}}}}
\APACbibcite{Clemens2014}{\citeauthoryear {Clemens\ \BBA{} Gottlieb}{Clemens\ \BBA{} Gottlieb}{{\APACyear {2014}}}}
\bibcite{Departamento2012}{\citeauthoryear {{Departamento Nacional de Planeacion}}{{Departamento Nacional de Planeacion}}{{\APACyear {2012}}}}
\APACbibcite{Departamento2012}{\citeauthoryear {{Departamento Nacional de Planeacion}}{{Departamento Nacional de Planeacion}}{{\APACyear {2012}}}}
\bibcite{Duggan2010}{\citeauthoryear {Duggan\ \BBA{} Scott\nobreakspace  {}Morton}{Duggan\ \BBA{} Scott\nobreakspace  {}Morton}{{\APACyear {2010}}}}
\APACbibcite{Duggan2010}{\citeauthoryear {Duggan\ \BBA{} Scott\nobreakspace  {}Morton}{Duggan\ \BBA{} Scott\nobreakspace  {}Morton}{{\APACyear {2010}}}}
\bibcite{Duggan2006}{\citeauthoryear {Duggan\ \BBA{} Scott\nobreakspace  {}Morton}{Duggan\ \BBA{} Scott\nobreakspace  {}Morton}{{\APACyear {2006}}}}
\APACbibcite{Duggan2006}{\citeauthoryear {Duggan\ \BBA{} Scott\nobreakspace  {}Morton}{Duggan\ \BBA{} Scott\nobreakspace  {}Morton}{{\APACyear {2006}}}}
\bibcite{Gruber1996}{\citeauthoryear {Gruber\ \BBA{} Owings}{Gruber\ \BBA{} Owings}{{\APACyear {1996}}}}
\APACbibcite{Gruber1996}{\citeauthoryear {Gruber\ \BBA{} Owings}{Gruber\ \BBA{} Owings}{{\APACyear {1996}}}}
\bibcite{Iizuka2007}{\citeauthoryear {Iizuka}{Iizuka}{{\APACyear {2007}}}}
\APACbibcite{Iizuka2007}{\citeauthoryear {Iizuka}{Iizuka}{{\APACyear {2007}}}}
\bibcite{Iizuka2012}{\citeauthoryear {Iizuka}{Iizuka}{{\APACyear {2012}}}}
\APACbibcite{Iizuka2012}{\citeauthoryear {Iizuka}{Iizuka}{{\APACyear {2012}}}}
\bibcite{MSH2012}{\citeauthoryear {{Management Sciences for Health}}{{Management Sciences for Health}}{{\APACyear {2012}}}}
\APACbibcite{MSH2012}{\citeauthoryear {{Management Sciences for Health}}{{Management Sciences for Health}}{{\APACyear {2012}}}}
\bibcite{NYT2015c}{\citeauthoryear {{The New York Times}}{{The New York Times}}{{\APACyear {2015}}{\APACexlab {{\BCnt {1}}}}}}
\APACbibcite{NYT2015c}{\citeauthoryear {{The New York Times}}{{The New York Times}}{{\APACyear {2015}}{\APACexlab {{\BCnt {1}}}}}}
\bibcite{NYT2015}{\citeauthoryear {{The New York Times}}{{The New York Times}}{{\APACyear {2015}}{\APACexlab {{\BCnt {2}}}}}}
\APACbibcite{NYT2015}{\citeauthoryear {{The New York Times}}{{The New York Times}}{{\APACyear {2015}}{\APACexlab {{\BCnt {2}}}}}}
\bibcite{Vacca2011}{\citeauthoryear {Vacca, Acosta,{}\ \BBA{} Rodriguez}{Vacca\ \BOthers {.}}{{\APACyear {2011}}}}
\APACbibcite{Vacca2011}{\citeauthoryear {Vacca, Acosta,{}\ \BBA{} Rodriguez}{Vacca\ \BOthers {.}}{{\APACyear {2011}}}}
\pbs@newkey{pbs@last@page}{60}
\@writefile{nav}{\headcommand {\sectionentry {6}{}{60}{}{0}}}
\@writefile{nav}{\headcommand {\beamer@sectionpages {56}{59}}}
\@writefile{nav}{\headcommand {\beamer@subsectionpages {56}{59}}}
\@writefile{toc}{\contentsline {section}{}}
\@writefile{nav}{\headcommand {\slideentry {6}{0}{0}{60/60}{}{0}}}
\@writefile{nav}{\headcommand {\beamer@framepages {60}{60}}}
\pbs@newkey{pbs@last@page}{61}
\@writefile{nav}{\headcommand {\slideentry {6}{0}{0}{60/61}{}{0}}}
\@writefile{nav}{\headcommand {\beamer@framepages {60}{61}}}
\pbs@newkey{pbs@last@page}{62}
\@writefile{nav}{\headcommand {\slideentry {6}{0}{0}{60/62}{}{0}}}
\@writefile{nav}{\headcommand {\beamer@framepages {60}{62}}}
\pbs@newkey{pbs@last@page}{63}
\@writefile{nav}{\headcommand {\slideentry {6}{0}{0}{60/63}{}{0}}}
\@writefile{nav}{\headcommand {\beamer@framepages {60}{63}}}
\pbs@newkey{pbs@last@page}{64}
\@writefile{nav}{\headcommand {\slideentry {6}{0}{0}{60/64}{}{0}}}
\@writefile{nav}{\headcommand {\beamer@framepages {60}{64}}}
\pbs@newkey{pbs@last@page}{65}
\@writefile{nav}{\headcommand {\partentry {\translate  {Appendix}}{1}}}
\@writefile{nav}{\headcommand {\beamer@partpages {1}{64}}}
\@writefile{nav}{\headcommand {\beamer@sectionpages {56}{64}}}
\@writefile{nav}{\headcommand {\beamer@subsectionpages {56}{64}}}
\@writefile{nav}{\headcommand {\beamer@appendixpages {65}}}
\@writefile{toc}{\beamer@sectionintoc {7}{Extra slides: Pharmaceutical prices}{65}{1}{6}}
\@writefile{nav}{\headcommand {\sectionentry {7}{Extra slides: Pharmaceutical prices}{65}{Extra slides: Pharmaceutical prices}{1}}}
\@writefile{nav}{\headcommand {\beamer@sectionpages {65}{64}}}
\@writefile{nav}{\headcommand {\beamer@subsectionpages {65}{64}}}
\@writefile{nav}{\headcommand {\slideentry {7}{0}{1}{65/65}{}{1}}}
\@writefile{nav}{\headcommand {\beamer@framepages {65}{65}}}
\pbs@newkey{pbs@last@page}{66}
\newlabel{sumstat<1>}{{42}{66}{Extra slides: Pharmaceutical prices}{Doc-Start}{}}
\@writefile{snm}{\beamer@slide {sumstat<1>}{66}}
\newlabel{sumstat}{{42}{66}{Extra slides: Pharmaceutical prices}{Doc-Start}{}}
\@writefile{snm}{\beamer@slide {sumstat}{66}}
\newlabel{tab:diff_charac}{{5}{66}{Difference between pharmaceuticals characteristics by how much price information is observed.\relax }{Doc-Start}{}}
\@writefile{snm}{\beamer@slide {tab:diff_charac}{66}}
\@writefile{nav}{\headcommand {\slideentry {7}{0}{2}{66/66}{}{1}}}
\@writefile{nav}{\headcommand {\beamer@framepages {66}{66}}}
\citation{Vacca2011}
\citation{Departamento2012}
\pbs@newkey{pbs@last@page}{67}
\newlabel{problemsismed<1>}{{43}{67}{Extra slides: Pharmaceutical prices}{Doc-Start}{}}
\@writefile{snm}{\beamer@slide {problemsismed<1>}{67}}
\newlabel{problemsismed}{{43}{67}{Extra slides: Pharmaceutical prices}{Doc-Start}{}}
\@writefile{snm}{\beamer@slide {problemsismed}{67}}
\@writefile{nav}{\headcommand {\slideentry {7}{0}{3}{67/67}{}{1}}}
\@writefile{nav}{\headcommand {\beamer@framepages {67}{67}}}
\pbs@newkey{pbs@last@page}{68}
\newlabel{reg_timing<1>}{{44}{68}{Extra slides: Pharmaceutical prices}{Doc-Start}{}}
\@writefile{snm}{\beamer@slide {reg_timing<1>}{68}}
\newlabel{reg_timing}{{44}{68}{Extra slides: Pharmaceutical prices}{Doc-Start}{}}
\@writefile{snm}{\beamer@slide {reg_timing}{68}}
\newlabel{tab:timing}{{6}{68}{Timing and other regulatory changes\relax }{Doc-Start}{}}
\@writefile{snm}{\beamer@slide {tab:timing}{68}}
\@writefile{nav}{\headcommand {\slideentry {7}{0}{4}{68/68}{}{1}}}
\@writefile{nav}{\headcommand {\beamer@framepages {68}{68}}}
\pbs@newkey{pbs@last@page}{69}
\newlabel{reg_p<1>}{{45}{69}{Extra slides: Pharmaceutical prices}{Doc-Start}{}}
\@writefile{snm}{\beamer@slide {reg_p<1>}{69}}
\newlabel{reg_p}{{45}{69}{Extra slides: Pharmaceutical prices}{Doc-Start}{}}
\@writefile{snm}{\beamer@slide {reg_p}{69}}
\newlabel{tab:POS}{{7}{69}{Effect on a drug's price of including the drug to the benefit plan \relax }{Doc-Start}{}}
\@writefile{snm}{\beamer@slide {tab:POS}{69}}
\@writefile{nav}{\headcommand {\slideentry {7}{0}{5}{69/69}{}{1}}}
\@writefile{nav}{\headcommand {\beamer@framepages {69}{69}}}
\pbs@newkey{pbs@last@page}{70}
\newlabel{reg_q<1>}{{46}{70}{Extra slides: Pharmaceutical prices}{Doc-Start}{}}
\@writefile{snm}{\beamer@slide {reg_q<1>}{70}}
\newlabel{reg_q}{{46}{70}{Extra slides: Pharmaceutical prices}{Doc-Start}{}}
\@writefile{snm}{\beamer@slide {reg_q}{70}}
\newlabel{tab:POS2}{{8}{70}{Effect of including a drug in the health plan on the quantities sold \relax }{Doc-Start}{}}
\@writefile{snm}{\beamer@slide {tab:POS2}{70}}
\@writefile{nav}{\headcommand {\slideentry {7}{0}{6}{70/70}{}{1}}}
\@writefile{nav}{\headcommand {\beamer@framepages {70}{70}}}
\pbs@newkey{pbs@last@page}{71}
\newlabel{fig2011<1>}{{47}{71}{Extra slides: Pharmaceutical prices}{Doc-Start}{}}
\@writefile{snm}{\beamer@slide {fig2011<1>}{71}}
\newlabel{fig2011}{{47}{71}{Extra slides: Pharmaceutical prices}{Doc-Start}{}}
\@writefile{snm}{\beamer@slide {fig2011}{71}}
\newlabel{fig:eve_pos_price_2011}{{7}{71}{\tiny Event study for the effect of including a pharmaceutical in the POS on its price. \textit {Source:} SISMED and INVIMA. \textit {Calculations:} Author. \relax }{Doc-Start}{}}
\@writefile{snm}{\beamer@slide {fig:eve_pos_price_2011}{71}}
\@writefile{nav}{\headcommand {\slideentry {7}{0}{7}{71/71}{}{1}}}
\@writefile{nav}{\headcommand {\beamer@framepages {71}{71}}}
\pbs@newkey{pbs@last@page}{72}
\newlabel{fig2012<1>}{{48}{72}{Extra slides: Pharmaceutical prices}{Doc-Start}{}}
\@writefile{snm}{\beamer@slide {fig2012<1>}{72}}
\newlabel{fig2012}{{48}{72}{Extra slides: Pharmaceutical prices}{Doc-Start}{}}
\@writefile{snm}{\beamer@slide {fig2012}{72}}
\newlabel{fig:eve_pos_price_2012}{{8}{72}{\tiny Event study for the effect of including a pharmaceutical in the POS on its price. \textit {Source:} SISMED and INVIMA. \textit {Calculations:} Author. \relax }{Doc-Start}{}}
\@writefile{snm}{\beamer@slide {fig:eve_pos_price_2012}{72}}
\@writefile{nav}{\headcommand {\slideentry {7}{0}{8}{72/72}{}{1}}}
\@writefile{nav}{\headcommand {\beamer@framepages {72}{72}}}
\pbs@newkey{pbs@last@page}{73}
\newlabel{fig2011_q<1>}{{49}{73}{Extra slides: Pharmaceutical prices}{Doc-Start}{}}
\@writefile{snm}{\beamer@slide {fig2011_q<1>}{73}}
\newlabel{fig2011_q}{{49}{73}{Extra slides: Pharmaceutical prices}{Doc-Start}{}}
\@writefile{snm}{\beamer@slide {fig2011_q}{73}}
\newlabel{fig:eve_pos_quantity_2011}{{9}{73}{\tiny Event study for the effect of including a pharmaceutical in the POS on its price. \textit {Source:} SISMED and INVIMA. \textit {Calculations:} Author. \relax }{Doc-Start}{}}
\@writefile{snm}{\beamer@slide {fig:eve_pos_quantity_2011}{73}}
\@writefile{nav}{\headcommand {\slideentry {7}{0}{9}{73/73}{}{1}}}
\@writefile{nav}{\headcommand {\beamer@framepages {73}{73}}}
\pbs@newkey{pbs@last@page}{74}
\newlabel{fig2012_q<1>}{{50}{74}{Extra slides: Pharmaceutical prices}{Doc-Start}{}}
\@writefile{snm}{\beamer@slide {fig2012_q<1>}{74}}
\newlabel{fig2012_q}{{50}{74}{Extra slides: Pharmaceutical prices}{Doc-Start}{}}
\@writefile{snm}{\beamer@slide {fig2012_q}{74}}
\newlabel{fig:eve_pos_quantity_2012}{{10}{74}{\tiny Event study for the effect of including a pharmaceutical in the POS on its price. \textit {Source:} SISMED and INVIMA. \textit {Calculations:} Author. \relax }{Doc-Start}{}}
\@writefile{snm}{\beamer@slide {fig:eve_pos_quantity_2012}{74}}
\@writefile{nav}{\headcommand {\slideentry {7}{0}{10}{74/74}{}{1}}}
\@writefile{nav}{\headcommand {\beamer@framepages {74}{74}}}
\pbs@newkey{pbs@last@page}{75}
\newlabel{price_scale<1>}{{51}{75}{Extra slides: Pharmaceutical prices}{Doc-Start}{}}
\@writefile{snm}{\beamer@slide {price_scale<1>}{75}}
\newlabel{price_scale}{{51}{75}{Extra slides: Pharmaceutical prices}{Doc-Start}{}}
\@writefile{snm}{\beamer@slide {price_scale}{75}}
\newlabel{tab:POS_ROB2}{{9}{75}{Effect of including a drug in the health plan for locally produced vs. imported drugs \relax }{Doc-Start}{}}
\@writefile{snm}{\beamer@slide {tab:POS_ROB2}{75}}
\@writefile{nav}{\headcommand {\slideentry {7}{0}{11}{75/75}{}{1}}}
\@writefile{nav}{\headcommand {\beamer@framepages {75}{75}}}
\pbs@newkey{pbs@last@page}{76}
\newlabel{price_otc<1>}{{52}{76}{Extra slides: Pharmaceutical prices}{Doc-Start}{}}
\@writefile{snm}{\beamer@slide {price_otc<1>}{76}}
\newlabel{price_otc}{{52}{76}{Extra slides: Pharmaceutical prices}{Doc-Start}{}}
\@writefile{snm}{\beamer@slide {price_otc}{76}}
\newlabel{tab:POS_ROB5}{{10}{76}{Effect of including a drug in the health plan by OTC/Rx status\relax }{Doc-Start}{}}
\@writefile{snm}{\beamer@slide {tab:POS_ROB5}{76}}
\@writefile{nav}{\headcommand {\slideentry {7}{0}{12}{76/76}{}{1}}}
\@writefile{nav}{\headcommand {\beamer@framepages {76}{76}}}
\pbs@newkey{pbs@last@page}{77}
\newlabel{price_generic<1>}{{53}{77}{Extra slides: Pharmaceutical prices}{Doc-Start}{}}
\@writefile{snm}{\beamer@slide {price_generic<1>}{77}}
\newlabel{price_generic}{{53}{77}{Extra slides: Pharmaceutical prices}{Doc-Start}{}}
\@writefile{snm}{\beamer@slide {price_generic}{77}}
\newlabel{tab:POS_ROB6}{{11}{77}{Effect of including a drug in the health plan by generic competition\relax }{Doc-Start}{}}
\@writefile{snm}{\beamer@slide {tab:POS_ROB6}{77}}
\@writefile{nav}{\headcommand {\slideentry {7}{0}{13}{77/77}{}{1}}}
\@writefile{nav}{\headcommand {\beamer@framepages {77}{77}}}
\pbs@newkey{pbs@last@page}{78}
\newlabel{years_mkt<1>}{{54}{78}{Extra slides: Pharmaceutical prices}{Doc-Start}{}}
\@writefile{snm}{\beamer@slide {years_mkt<1>}{78}}
\newlabel{years_mkt}{{54}{78}{Extra slides: Pharmaceutical prices}{Doc-Start}{}}
\@writefile{snm}{\beamer@slide {years_mkt}{78}}
\newlabel{tab:POS_ROB4}{{12}{78}{Effect of including a drug in the health plan by age\relax }{Doc-Start}{}}
\@writefile{snm}{\beamer@slide {tab:POS_ROB4}{78}}
\@writefile{nav}{\headcommand {\slideentry {7}{0}{14}{78/78}{}{1}}}
\@writefile{nav}{\headcommand {\beamer@framepages {78}{78}}}
\@writefile{nav}{\headcommand {\beamer@partpages {65}{78}}}
\@writefile{nav}{\headcommand {\beamer@subsectionpages {65}{78}}}
\@writefile{nav}{\headcommand {\beamer@sectionpages {65}{78}}}
\@writefile{nav}{\headcommand {\beamer@documentpages {78}}}
\@writefile{nav}{\headcommand {\def \inserttotalframenumber {54}}}
