\headcommand {\slideentry {0}{0}{1}{1/1}{}{0}}
\headcommand {\beamer@framepages {1}{1}}
\headcommand {\sectionentry {1}{Motivation}{2}{Motivation}{0}}
\headcommand {\beamer@sectionpages {1}{1}}
\headcommand {\beamer@subsectionpages {1}{1}}
\headcommand {\slideentry {1}{0}{1}{2/11}{}{0}}
\headcommand {\beamer@framepages {2}{11}}
\headcommand {\slideentry {1}{0}{2}{12/12}{}{0}}
\headcommand {\beamer@framepages {12}{12}}
\headcommand {\sectionentry {2}{Background}{13}{Background}{0}}
\headcommand {\beamer@sectionpages {2}{12}}
\headcommand {\beamer@subsectionpages {2}{12}}
\headcommand {\slideentry {2}{0}{1}{13/13}{}{0}}
\headcommand {\beamer@framepages {13}{13}}
\headcommand {\slideentry {2}{0}{2}{14/14}{}{0}}
\headcommand {\beamer@framepages {14}{14}}
\headcommand {\slideentry {2}{0}{3}{15/15}{}{0}}
\headcommand {\beamer@framepages {15}{15}}
\headcommand {\slideentry {2}{0}{4}{16/16}{}{0}}
\headcommand {\beamer@framepages {16}{16}}
\headcommand {\sectionentry {3}{Theory}{17}{Theory}{0}}
\headcommand {\beamer@sectionpages {13}{16}}
\headcommand {\beamer@subsectionpages {13}{16}}
\headcommand {\slideentry {3}{0}{1}{17/17}{}{0}}
\headcommand {\beamer@framepages {17}{17}}
\headcommand {\slideentry {3}{0}{2}{18/21}{}{0}}
\headcommand {\beamer@framepages {18}{21}}
\headcommand {\slideentry {3}{0}{3}{22/22}{}{0}}
\headcommand {\beamer@framepages {22}{22}}
\headcommand {\sectionentry {4}{Empirics}{23}{Empirics}{0}}
\headcommand {\beamer@sectionpages {17}{22}}
\headcommand {\beamer@subsectionpages {17}{22}}
\headcommand {\slideentry {4}{0}{1}{23/23}{}{0}}
\headcommand {\beamer@framepages {23}{23}}
\headcommand {\slideentry {4}{0}{2}{24/24}{}{0}}
\headcommand {\beamer@framepages {24}{24}}
\headcommand {\slideentry {4}{0}{3}{25/25}{}{0}}
\headcommand {\beamer@framepages {25}{25}}
\headcommand {\slideentry {4}{0}{4}{26/26}{}{0}}
\headcommand {\beamer@framepages {26}{26}}
\headcommand {\slideentry {4}{0}{5}{27/27}{}{0}}
\headcommand {\beamer@framepages {27}{27}}
\headcommand {\slideentry {4}{0}{6}{28/28}{}{0}}
\headcommand {\beamer@framepages {28}{28}}
\headcommand {\slideentry {4}{0}{7}{29/29}{}{0}}
\headcommand {\beamer@framepages {29}{29}}
\headcommand {\slideentry {4}{0}{8}{30/30}{}{0}}
\headcommand {\beamer@framepages {30}{30}}
\headcommand {\slideentry {4}{0}{9}{31/31}{}{0}}
\headcommand {\beamer@framepages {31}{31}}
\headcommand {\slideentry {4}{0}{10}{32/32}{}{0}}
\headcommand {\beamer@framepages {32}{32}}
\headcommand {\slideentry {4}{0}{11}{33/33}{}{0}}
\headcommand {\beamer@framepages {33}{33}}
\headcommand {\slideentry {4}{0}{12}{34/35}{}{0}}
\headcommand {\beamer@framepages {34}{35}}
\headcommand {\slideentry {4}{0}{13}{36/36}{}{0}}
\headcommand {\beamer@framepages {36}{36}}
\headcommand {\sectionentry {5}{Closing remarks}{37}{Closing remarks}{0}}
\headcommand {\beamer@sectionpages {23}{36}}
\headcommand {\beamer@subsectionpages {23}{36}}
\headcommand {\slideentry {5}{0}{1}{37/37}{}{0}}
\headcommand {\beamer@framepages {37}{37}}
\headcommand {\slideentry {5}{0}{2}{38/38}{}{0}}
\headcommand {\beamer@framepages {38}{38}}
\headcommand {\slideentry {5}{0}{3}{39/39}{}{0}}
\headcommand {\beamer@framepages {39}{39}}
\headcommand {\slideentry {5}{0}{4}{40/40}{}{0}}
\headcommand {\beamer@framepages {40}{40}}
\headcommand {\sectionentry {6}{}{41}{}{0}}
\headcommand {\beamer@sectionpages {37}{40}}
\headcommand {\beamer@subsectionpages {37}{40}}
\headcommand {\slideentry {6}{0}{0}{41/41}{}{0}}
\headcommand {\beamer@framepages {41}{41}}
\headcommand {\slideentry {6}{0}{0}{41/42}{}{0}}
\headcommand {\beamer@framepages {41}{42}}
\headcommand {\partentry {\translate {Appendix}}{1}}
\headcommand {\beamer@partpages {1}{42}}
\headcommand {\beamer@sectionpages {37}{42}}
\headcommand {\beamer@subsectionpages {37}{42}}
\headcommand {\beamer@appendixpages {43}}
\headcommand {\sectionentry {7}{Extra slides: Pharmaceutical prices}{43}{Extra slides: Pharmaceutical prices}{1}}
\headcommand {\beamer@sectionpages {43}{42}}
\headcommand {\beamer@subsectionpages {43}{42}}
\headcommand {\slideentry {7}{0}{1}{43/43}{}{1}}
\headcommand {\beamer@framepages {43}{43}}
\headcommand {\slideentry {7}{0}{2}{44/44}{}{1}}
\headcommand {\beamer@framepages {44}{44}}
\headcommand {\slideentry {7}{0}{3}{45/45}{}{1}}
\headcommand {\beamer@framepages {45}{45}}
\headcommand {\slideentry {7}{0}{4}{46/46}{}{1}}
\headcommand {\beamer@framepages {46}{46}}
\headcommand {\slideentry {7}{0}{5}{47/47}{}{1}}
\headcommand {\beamer@framepages {47}{47}}
\headcommand {\slideentry {7}{0}{6}{48/48}{}{1}}
\headcommand {\beamer@framepages {48}{48}}
\headcommand {\slideentry {7}{0}{7}{49/49}{}{1}}
\headcommand {\beamer@framepages {49}{49}}
\headcommand {\slideentry {7}{0}{8}{50/50}{}{1}}
\headcommand {\beamer@framepages {50}{50}}
\headcommand {\slideentry {7}{0}{9}{51/51}{}{1}}
\headcommand {\beamer@framepages {51}{51}}
\headcommand {\slideentry {7}{0}{10}{52/52}{}{1}}
\headcommand {\beamer@framepages {52}{52}}
\headcommand {\slideentry {7}{0}{11}{53/53}{}{1}}
\headcommand {\beamer@framepages {53}{53}}
\headcommand {\slideentry {7}{0}{12}{54/54}{}{1}}
\headcommand {\beamer@framepages {54}{54}}
\headcommand {\slideentry {7}{0}{13}{55/55}{}{1}}
\headcommand {\beamer@framepages {55}{55}}
\headcommand {\slideentry {7}{0}{14}{56/56}{}{1}}
\headcommand {\beamer@framepages {56}{56}}
\headcommand {\slideentry {7}{0}{15}{57/57}{}{1}}
\headcommand {\beamer@framepages {57}{57}}
\headcommand {\slideentry {7}{0}{16}{58/58}{}{1}}
\headcommand {\beamer@framepages {58}{58}}
\headcommand {\slideentry {7}{0}{17}{59/59}{}{1}}
\headcommand {\beamer@framepages {59}{59}}
\headcommand {\slideentry {7}{0}{18}{60/60}{}{1}}
\headcommand {\beamer@framepages {60}{60}}
\headcommand {\beamer@partpages {43}{60}}
\headcommand {\beamer@subsectionpages {43}{60}}
\headcommand {\beamer@sectionpages {43}{60}}
\headcommand {\beamer@documentpages {60}}
\headcommand {\def \inserttotalframenumber {47}}
