\beamer@endinputifotherversion {3.10pt}
\headcommand {\slideentry {0}{0}{1}{1/1}{}{0}}
\headcommand {\beamer@framepages {1}{1}}
\headcommand {\sectionentry {1}{Motivation}{2}{Motivation}{0}}
\headcommand {\beamer@sectionpages {1}{1}}
\headcommand {\beamer@subsectionpages {1}{1}}
\headcommand {\slideentry {1}{0}{2}{2/2}{}{0}}
\headcommand {\beamer@framepages {2}{2}}
\headcommand {\slideentry {1}{0}{3}{3/3}{}{0}}
\headcommand {\beamer@framepages {3}{3}}
\headcommand {\slideentry {1}{0}{4}{4/4}{}{0}}
\headcommand {\beamer@framepages {4}{4}}
\headcommand {\slideentry {1}{0}{5}{5/5}{}{0}}
\headcommand {\beamer@framepages {5}{5}}
\headcommand {\slideentry {1}{0}{6}{6/6}{}{0}}
\headcommand {\beamer@framepages {6}{6}}
\headcommand {\slideentry {1}{0}{7}{7/7}{}{0}}
\headcommand {\beamer@framepages {7}{7}}
\headcommand {\sectionentry {2}{Background}{8}{Background}{0}}
\headcommand {\beamer@sectionpages {2}{7}}
\headcommand {\beamer@subsectionpages {2}{7}}
\headcommand {\slideentry {2}{0}{8}{8/8}{}{0}}
\headcommand {\beamer@framepages {8}{8}}
\headcommand {\slideentry {2}{0}{9}{9/9}{}{0}}
\headcommand {\beamer@framepages {9}{9}}
\headcommand {\slideentry {2}{0}{10}{10/10}{}{0}}
\headcommand {\beamer@framepages {10}{10}}
\headcommand {\slideentry {2}{0}{11}{11/11}{}{0}}
\headcommand {\beamer@framepages {11}{11}}
\headcommand {\sectionentry {3}{Data}{12}{Data}{0}}
\headcommand {\beamer@sectionpages {8}{11}}
\headcommand {\beamer@subsectionpages {8}{11}}
\headcommand {\slideentry {3}{0}{12}{12/12}{}{0}}
\headcommand {\beamer@framepages {12}{12}}
\headcommand {\slideentry {3}{0}{13}{13/13}{}{0}}
\headcommand {\beamer@framepages {13}{13}}
\headcommand {\slideentry {3}{0}{14}{14/14}{}{0}}
\headcommand {\beamer@framepages {14}{14}}
\headcommand {\slideentry {3}{0}{15}{15/15}{}{0}}
\headcommand {\beamer@framepages {15}{15}}
\headcommand {\slideentry {3}{0}{16}{16/16}{}{0}}
\headcommand {\beamer@framepages {16}{16}}
\headcommand {\sectionentry {4}{Empirical Analysis}{17}{Empirical Analysis}{0}}
\headcommand {\beamer@sectionpages {12}{16}}
\headcommand {\beamer@subsectionpages {12}{16}}
\headcommand {\slideentry {4}{0}{17}{17/17}{}{0}}
\headcommand {\beamer@framepages {17}{17}}
\headcommand {\slideentry {4}{0}{18}{18/18}{}{0}}
\headcommand {\beamer@framepages {18}{18}}
\headcommand {\slideentry {4}{0}{19}{19/19}{}{0}}
\headcommand {\beamer@framepages {19}{19}}
\headcommand {\slideentry {4}{0}{20}{20/20}{}{0}}
\headcommand {\beamer@framepages {20}{20}}
\headcommand {\slideentry {4}{0}{21}{21/21}{}{0}}
\headcommand {\beamer@framepages {21}{21}}
\headcommand {\slideentry {4}{0}{22}{22/22}{}{0}}
\headcommand {\beamer@framepages {22}{22}}
\headcommand {\slideentry {4}{0}{23}{23/23}{}{0}}
\headcommand {\beamer@framepages {23}{23}}
\headcommand {\slideentry {4}{0}{24}{24/24}{}{0}}
\headcommand {\beamer@framepages {24}{24}}
\headcommand {\slideentry {4}{0}{25}{25/25}{}{0}}
\headcommand {\beamer@framepages {25}{25}}
\headcommand {\slideentry {4}{0}{26}{26/26}{}{0}}
\headcommand {\beamer@framepages {26}{26}}
\headcommand {\slideentry {4}{0}{27}{27/27}{}{0}}
\headcommand {\beamer@framepages {27}{27}}
\headcommand {\sectionentry {5}{Effect on price paid by pharmacies}{28}{Effect on price paid by pharmacies}{0}}
\headcommand {\beamer@sectionpages {17}{27}}
\headcommand {\beamer@subsectionpages {17}{27}}
\headcommand {\slideentry {5}{0}{28}{28/28}{}{0}}
\headcommand {\beamer@framepages {28}{28}}
\headcommand {\slideentry {5}{0}{29}{29/29}{}{0}}
\headcommand {\beamer@framepages {29}{29}}
\headcommand {\slideentry {5}{0}{30}{30/30}{}{0}}
\headcommand {\beamer@framepages {30}{30}}
\headcommand {\sectionentry {6}{Conclusions}{31}{Conclusions}{0}}
\headcommand {\beamer@sectionpages {28}{30}}
\headcommand {\beamer@subsectionpages {28}{30}}
\headcommand {\slideentry {6}{0}{31}{31/31}{}{0}}
\headcommand {\beamer@framepages {31}{31}}
\headcommand {\slideentry {6}{0}{32}{32/32}{}{0}}
\headcommand {\beamer@framepages {32}{32}}
\headcommand {\sectionentry {7}{Next Steps}{33}{Next Steps}{0}}
\headcommand {\beamer@sectionpages {31}{32}}
\headcommand {\beamer@subsectionpages {31}{32}}
\headcommand {\slideentry {7}{0}{33}{33/33}{}{0}}
\headcommand {\beamer@framepages {33}{33}}
\headcommand {\slideentry {7}{0}{34}{34/34}{}{0}}
\headcommand {\beamer@framepages {34}{34}}
\headcommand {\slideentry {7}{0}{35}{35/35}{}{0}}
\headcommand {\beamer@framepages {35}{35}}
\headcommand {\sectionentry {8}{}{36}{}{0}}
\headcommand {\beamer@sectionpages {33}{35}}
\headcommand {\beamer@subsectionpages {33}{35}}
\headcommand {\slideentry {8}{0}{36}{36/36}{}{0}}
\headcommand {\beamer@framepages {36}{36}}
\headcommand {\beamer@partpages {1}{36}}
\headcommand {\beamer@subsectionpages {33}{36}}
\headcommand {\beamer@sectionpages {33}{36}}
\headcommand {\beamer@documentpages {36}}
\headcommand {\def \inserttotalframenumber {36}}
