\beamer@sectionintoc {1}{Motivation}{2}{0}{1}
\beamer@sectionintoc {2}{Background}{14}{0}{2}
\beamer@sectionintoc {3}{Empirics}{18}{0}{3}
\beamer@sectionintoc {4}{Effect on reported morbidity}{34}{0}{4}
\beamer@sectionintoc {5}{Closing remarks}{38}{0}{5}
\contentsline {section}{}
\beamer@sectionintoc {7}{Extra slides: Pharmaceutical prices}{44}{1}{6}
