\beamer@sectionintoc {1}{Motivation}{2}{0}{1}
\beamer@sectionintoc {2}{Background}{13}{0}{2}
\beamer@sectionintoc {3}{Theory}{17}{0}{3}
\beamer@sectionintoc {4}{Empirics}{23}{0}{4}
\beamer@sectionintoc {5}{Closing remarks}{37}{0}{5}
\contentsline {section}{}
\beamer@sectionintoc {7}{Extra slides: Pharmaceutical prices}{43}{1}{6}
