\relax 
\providecommand\hyper@newdestlabel[2]{}
\providecommand\zref@newlabel[2]{}
\providecommand\HyperFirstAtBeginDocument{\AtBeginDocument}
\HyperFirstAtBeginDocument{\ifx\hyper@anchor\@undefined
\global\let\oldcontentsline\contentsline
\gdef\contentsline#1#2#3#4{\oldcontentsline{#1}{#2}{#3}}
\global\let\oldnewlabel\newlabel
\gdef\newlabel#1#2{\newlabelxx{#1}#2}
\gdef\newlabelxx#1#2#3#4#5#6{\oldnewlabel{#1}{{#2}{#3}}}
\AtEndDocument{\ifx\hyper@anchor\@undefined
\let\contentsline\oldcontentsline
\let\newlabel\oldnewlabel
\fi}
\fi}
\global\let\hyper@last\relax 
\gdef\HyperFirstAtBeginDocument#1{#1}
\providecommand\HyField@AuxAddToFields[1]{}
\providecommand\HyField@AuxAddToCoFields[2]{}
\providecommand\AtEndDvi@Check{}
\AtEndDvi@Check
\providecommand \oddpage@label [2]{}
\@writefile{toc}{\beamer@endinputifotherversion {3.36pt}}
\@writefile{nav}{\beamer@endinputifotherversion {3.36pt}}
\@writefile{nav}{\headcommand {\slideentry {0}{0}{1}{1/1}{}{0}}}
\@writefile{nav}{\headcommand {\beamer@framepages {1}{1}}}
\citation{Darby1973}
\citation{MSH2012}
\@writefile{toc}{\beamer@sectionintoc {1}{Motivation}{2}{0}{1}}
\@writefile{nav}{\headcommand {\sectionentry {1}{Motivation}{2}{Motivation}{0}}}
\@writefile{nav}{\headcommand {\beamer@sectionpages {1}{1}}}
\@writefile{nav}{\headcommand {\beamer@subsectionpages {1}{1}}}
\citation{Darby1973}
\citation{MSH2012}
\citation{Darby1973}
\citation{MSH2012}
\citation{Darby1973}
\citation{MSH2012}
\citation{Darby1973}
\citation{MSH2012}
\citation{Darby1973}
\citation{MSH2012}
\citation{Darby1973}
\citation{MSH2012}
\citation{Darby1973}
\citation{MSH2012}
\citation{Darby1973}
\citation{MSH2012}
\citation{Darby1973}
\citation{MSH2012}
\@writefile{nav}{\headcommand {\slideentry {1}{0}{1}{2/11}{}{0}}}
\@writefile{nav}{\headcommand {\beamer@framepages {2}{11}}}
\@writefile{nav}{\headcommand {\slideentry {1}{0}{2}{12/12}{}{0}}}
\@writefile{nav}{\headcommand {\beamer@framepages {12}{12}}}
\@writefile{nav}{\headcommand {\slideentry {1}{0}{3}{13/13}{}{0}}}
\@writefile{nav}{\headcommand {\beamer@framepages {13}{13}}}
\citation{Duggan2006}
\citation{Brekke2009}
\citation{Brekke2011}
\citation{Duggan2010}
\citation{Alpert2013}
\citation{Arrow1963}
\citation{Gruber1996}
\citation{Iizuka2007}
\citation{Iizuka2012}
\citation{Clemens2014}
\@writefile{nav}{\headcommand {\slideentry {1}{0}{4}{14/14}{}{0}}}
\@writefile{nav}{\headcommand {\beamer@framepages {14}{14}}}
\@writefile{toc}{\beamer@sectionintoc {2}{Background}{15}{0}{2}}
\@writefile{nav}{\headcommand {\sectionentry {2}{Background}{15}{Background}{0}}}
\@writefile{nav}{\headcommand {\beamer@sectionpages {2}{14}}}
\@writefile{nav}{\headcommand {\beamer@subsectionpages {2}{14}}}
\@writefile{nav}{\headcommand {\slideentry {2}{0}{1}{15/15}{}{0}}}
\@writefile{nav}{\headcommand {\beamer@framepages {15}{15}}}
\@writefile{nav}{\headcommand {\slideentry {2}{0}{2}{16/16}{}{0}}}
\@writefile{nav}{\headcommand {\beamer@framepages {16}{16}}}
\@writefile{nav}{\headcommand {\slideentry {2}{0}{3}{17/17}{}{0}}}
\@writefile{nav}{\headcommand {\beamer@framepages {17}{17}}}
\providecommand*\caption@xref[2]{\@setref\relax\@undefined{#1}}
\newlabel{fig:add_pos}{{1}{18}{Number of drugs introduced into the POS by year. \textit {Source:} SISMED and INVIMA. \textit {Calculations:} Author.\relax }{Doc-Start}{}}
\@writefile{snm}{\beamer@slide {fig:add_pos}{18}}
\@writefile{nav}{\headcommand {\slideentry {2}{0}{4}{18/18}{}{0}}}
\@writefile{nav}{\headcommand {\beamer@framepages {18}{18}}}
\@writefile{toc}{\beamer@sectionintoc {3}{Theory}{19}{0}{3}}
\@writefile{nav}{\headcommand {\sectionentry {3}{Theory}{19}{Theory}{0}}}
\@writefile{nav}{\headcommand {\beamer@sectionpages {15}{18}}}
\@writefile{nav}{\headcommand {\beamer@subsectionpages {15}{18}}}
\@writefile{nav}{\headcommand {\slideentry {3}{0}{1}{19/19}{}{0}}}
\@writefile{nav}{\headcommand {\beamer@framepages {19}{19}}}
\@writefile{nav}{\headcommand {\slideentry {3}{0}{2}{20/22}{}{0}}}
\@writefile{nav}{\headcommand {\beamer@framepages {20}{22}}}
\@writefile{nav}{\headcommand {\slideentry {3}{0}{3}{23/23}{}{0}}}
\@writefile{nav}{\headcommand {\beamer@framepages {23}{23}}}
\@writefile{toc}{\beamer@sectionintoc {4}{Empirics}{24}{0}{4}}
\@writefile{nav}{\headcommand {\sectionentry {4}{Empirics}{24}{Empirics}{0}}}
\@writefile{nav}{\headcommand {\beamer@sectionpages {19}{23}}}
\@writefile{nav}{\headcommand {\beamer@subsectionpages {19}{23}}}
\@writefile{nav}{\headcommand {\slideentry {4}{0}{1}{24/24}{}{0}}}
\@writefile{nav}{\headcommand {\beamer@framepages {24}{24}}}
\newlabel{goback0<1>}{{14}{25}{Empirics}{Doc-Start}{}}
\@writefile{snm}{\beamer@slide {goback0<1>}{25}}
\newlabel{goback0}{{14}{25}{Empirics}{Doc-Start}{}}
\@writefile{snm}{\beamer@slide {goback0}{25}}
\@writefile{nav}{\headcommand {\slideentry {4}{0}{2}{25/25}{}{0}}}
\@writefile{nav}{\headcommand {\beamer@framepages {25}{25}}}
\@writefile{nav}{\headcommand {\slideentry {4}{0}{3}{26/26}{}{0}}}
\@writefile{nav}{\headcommand {\beamer@framepages {26}{26}}}
\newlabel{eq:timing}{{1}{27}{Empirics}{Doc-Start}{}}
\@writefile{snm}{\beamer@slide {eq:timing}{27}}
\@writefile{nav}{\headcommand {\slideentry {4}{0}{4}{27/27}{}{0}}}
\@writefile{nav}{\headcommand {\beamer@framepages {27}{27}}}
\newlabel{goback_timing<1>}{{17}{28}{Empirics}{Doc-Start}{}}
\@writefile{snm}{\beamer@slide {goback_timing<1>}{28}}
\newlabel{goback_timing}{{17}{28}{Empirics}{Doc-Start}{}}
\@writefile{snm}{\beamer@slide {goback_timing}{28}}
\newlabel{fig:timing1}{{2a}{28}{Generic\relax }{Doc-Start}{}}
\@writefile{snm}{\beamer@slide {fig:timing1}{28}}
\newlabel{sub@fig:timing1}{{a}{28}{Generic\relax }{Doc-Start}{}}
\@writefile{snm}{\beamer@slide {sub@fig:timing1}{28}}
\newlabel{fig:timing2}{{2b}{28}{Competitors\relax }{Doc-Start}{}}
\@writefile{snm}{\beamer@slide {fig:timing2}{28}}
\newlabel{sub@fig:timing2}{{b}{28}{Competitors\relax }{Doc-Start}{}}
\@writefile{snm}{\beamer@slide {sub@fig:timing2}{28}}
\newlabel{fig:timing3}{{2c}{28}{Price regulation\relax }{Doc-Start}{}}
\@writefile{snm}{\beamer@slide {fig:timing3}{28}}
\newlabel{sub@fig:timing3}{{c}{28}{Price regulation\relax }{Doc-Start}{}}
\@writefile{snm}{\beamer@slide {sub@fig:timing3}{28}}
\@writefile{nav}{\headcommand {\slideentry {4}{0}{5}{28/28}{}{0}}}
\@writefile{nav}{\headcommand {\beamer@framepages {28}{28}}}
\newlabel{eq:original}{{1}{29}{Empirics}{Doc-Start}{}}
\@writefile{snm}{\beamer@slide {eq:original}{29}}
\@writefile{nav}{\headcommand {\slideentry {4}{0}{6}{29/29}{}{0}}}
\@writefile{nav}{\headcommand {\beamer@framepages {29}{29}}}
\newlabel{goback1<1>}{{19}{30}{Empirics}{Doc-Start}{}}
\@writefile{snm}{\beamer@slide {goback1<1>}{30}}
\newlabel{goback1}{{19}{30}{Empirics}{Doc-Start}{}}
\@writefile{snm}{\beamer@slide {goback1}{30}}
\newlabel{fig:eve_pos_price}{{3}{30}{\tiny Event study for the effect of including a pharmaceutical in the POS on its price. \textit {Source:} SISMED and INVIMA. \textit {Calculations:} Author. \relax }{Doc-Start}{}}
\@writefile{snm}{\beamer@slide {fig:eve_pos_price}{30}}
\@writefile{nav}{\headcommand {\slideentry {4}{0}{7}{30/30}{}{0}}}
\@writefile{nav}{\headcommand {\beamer@framepages {30}{30}}}
\newlabel{goback2<1>}{{20}{31}{Empirics}{Doc-Start}{}}
\@writefile{snm}{\beamer@slide {goback2<1>}{31}}
\newlabel{goback2}{{20}{31}{Empirics}{Doc-Start}{}}
\@writefile{snm}{\beamer@slide {goback2}{31}}
\newlabel{fig:eve_pos_quantity}{{4}{31}{\tiny Event study for the effect of including a pharmaceutical in the POS on the quantities. \textit {Source:} SISMED and INVIMA. \textit {Calculations:} Author. \relax }{Doc-Start}{}}
\@writefile{snm}{\beamer@slide {fig:eve_pos_quantity}{31}}
\@writefile{nav}{\headcommand {\slideentry {4}{0}{8}{31/31}{}{0}}}
\@writefile{nav}{\headcommand {\beamer@framepages {31}{31}}}
\newlabel{goback_rob<1>}{{21}{32}{Empirics}{Doc-Start}{}}
\@writefile{snm}{\beamer@slide {goback_rob<1>}{32}}
\newlabel{goback_rob}{{21}{32}{Empirics}{Doc-Start}{}}
\@writefile{snm}{\beamer@slide {goback_rob}{32}}
\@writefile{nav}{\headcommand {\slideentry {4}{0}{9}{32/32}{}{0}}}
\@writefile{nav}{\headcommand {\beamer@framepages {32}{32}}}
\newlabel{eq:NOPOS}{{1}{33}{Empirics}{Doc-Start}{}}
\@writefile{snm}{\beamer@slide {eq:NOPOS}{33}}
\@writefile{nav}{\headcommand {\slideentry {4}{0}{10}{33/33}{}{0}}}
\@writefile{nav}{\headcommand {\beamer@framepages {33}{33}}}
\newlabel{tab:competitors_NOPOS}{{1}{34}{Effect of including a drug in the benefit plan on the price of therapeutic substitutes that are not in the plan\relax }{Doc-Start}{}}
\@writefile{snm}{\beamer@slide {tab:competitors_NOPOS}{34}}
\@writefile{nav}{\headcommand {\slideentry {4}{0}{11}{34/34}{}{0}}}
\@writefile{nav}{\headcommand {\beamer@framepages {34}{34}}}
\newlabel{eq:POS}{{1}{35}{Empirics}{Doc-Start}{}}
\@writefile{snm}{\beamer@slide {eq:POS}{35}}
\@writefile{nav}{\headcommand {\slideentry {4}{0}{12}{35/35}{}{0}}}
\@writefile{nav}{\headcommand {\beamer@framepages {35}{35}}}
\newlabel{tab:competitors_POS}{{2}{36}{Effect of including a drug in the benefit plan on the price of therapeutic substitutes that are not in the plan\relax }{Doc-Start}{}}
\@writefile{snm}{\beamer@slide {tab:competitors_POS}{36}}
\@writefile{nav}{\headcommand {\slideentry {4}{0}{13}{36/36}{}{0}}}
\@writefile{nav}{\headcommand {\beamer@framepages {36}{36}}}
\@writefile{toc}{\beamer@sectionintoc {5}{Closing remarks}{37}{0}{5}}
\@writefile{nav}{\headcommand {\sectionentry {5}{Closing remarks}{37}{Closing remarks}{0}}}
\@writefile{nav}{\headcommand {\beamer@sectionpages {24}{36}}}
\@writefile{nav}{\headcommand {\beamer@subsectionpages {24}{36}}}
\@writefile{nav}{\headcommand {\slideentry {5}{0}{1}{37/37}{}{0}}}
\@writefile{nav}{\headcommand {\beamer@framepages {37}{37}}}
\citation{NYT2015c}
\@writefile{nav}{\headcommand {\slideentry {5}{0}{2}{38/38}{}{0}}}
\@writefile{nav}{\headcommand {\beamer@framepages {38}{38}}}
\@writefile{nav}{\headcommand {\slideentry {5}{0}{3}{39/39}{}{0}}}
\@writefile{nav}{\headcommand {\beamer@framepages {39}{39}}}
\bibstyle{apacite}
\bibdata{PharPrice}
\bibcite{Alpert2013}{\citeauthoryear {Alpert, Duggan,{}\ \BBA{} Hellerstein}{Alpert\ \BOthers {.}}{{\APACyear {2013}}}}
\APACbibcite{Alpert2013}{\citeauthoryear {Alpert, Duggan,{}\ \BBA{} Hellerstein}{Alpert\ \BOthers {.}}{{\APACyear {2013}}}}
\bibcite{Arrow1963}{\citeauthoryear {Arrow}{Arrow}{{\APACyear {1963}}}}
\APACbibcite{Arrow1963}{\citeauthoryear {Arrow}{Arrow}{{\APACyear {1963}}}}
\bibcite{Brekke2009}{\citeauthoryear {Brekke, Grasdal,{}\ \BBA{} Holmas}{Brekke\ \BOthers {.}}{{\APACyear {2009}}}}
\APACbibcite{Brekke2009}{\citeauthoryear {Brekke, Grasdal,{}\ \BBA{} Holmas}{Brekke\ \BOthers {.}}{{\APACyear {2009}}}}
\bibcite{Brekke2011}{\citeauthoryear {Brekke, Holmas,{}\ \BBA{} Straume}{Brekke\ \BOthers {.}}{{\APACyear {2011}}}}
\APACbibcite{Brekke2011}{\citeauthoryear {Brekke, Holmas,{}\ \BBA{} Straume}{Brekke\ \BOthers {.}}{{\APACyear {2011}}}}
\bibcite{Clemens2014}{\citeauthoryear {Clemens\ \BBA{} Gottlieb}{Clemens\ \BBA{} Gottlieb}{{\APACyear {2014}}}}
\APACbibcite{Clemens2014}{\citeauthoryear {Clemens\ \BBA{} Gottlieb}{Clemens\ \BBA{} Gottlieb}{{\APACyear {2014}}}}
\bibcite{Darby1973}{\citeauthoryear {Darby\ \BBA{} Karni}{Darby\ \BBA{} Karni}{{\APACyear {1973}}}}
\APACbibcite{Darby1973}{\citeauthoryear {Darby\ \BBA{} Karni}{Darby\ \BBA{} Karni}{{\APACyear {1973}}}}
\bibcite{Departamento2012}{\citeauthoryear {{Departamento Nacional de Planeacion}}{{Departamento Nacional de Planeacion}}{{\APACyear {2012}}}}
\APACbibcite{Departamento2012}{\citeauthoryear {{Departamento Nacional de Planeacion}}{{Departamento Nacional de Planeacion}}{{\APACyear {2012}}}}
\bibcite{Duggan2010}{\citeauthoryear {Duggan\ \BBA{} Scott\nobreakspace  {}Morton}{Duggan\ \BBA{} Scott\nobreakspace  {}Morton}{{\APACyear {2010}}}}
\APACbibcite{Duggan2010}{\citeauthoryear {Duggan\ \BBA{} Scott\nobreakspace  {}Morton}{Duggan\ \BBA{} Scott\nobreakspace  {}Morton}{{\APACyear {2010}}}}
\bibcite{Duggan2006}{\citeauthoryear {Duggan\ \BBA{} Scott\nobreakspace  {}Morton}{Duggan\ \BBA{} Scott\nobreakspace  {}Morton}{{\APACyear {2006}}}}
\APACbibcite{Duggan2006}{\citeauthoryear {Duggan\ \BBA{} Scott\nobreakspace  {}Morton}{Duggan\ \BBA{} Scott\nobreakspace  {}Morton}{{\APACyear {2006}}}}
\bibcite{Gruber1996}{\citeauthoryear {Gruber\ \BBA{} Owings}{Gruber\ \BBA{} Owings}{{\APACyear {1996}}}}
\APACbibcite{Gruber1996}{\citeauthoryear {Gruber\ \BBA{} Owings}{Gruber\ \BBA{} Owings}{{\APACyear {1996}}}}
\bibcite{Iizuka2007}{\citeauthoryear {Iizuka}{Iizuka}{{\APACyear {2007}}}}
\APACbibcite{Iizuka2007}{\citeauthoryear {Iizuka}{Iizuka}{{\APACyear {2007}}}}
\bibcite{Iizuka2012}{\citeauthoryear {Iizuka}{Iizuka}{{\APACyear {2012}}}}
\APACbibcite{Iizuka2012}{\citeauthoryear {Iizuka}{Iizuka}{{\APACyear {2012}}}}
\bibcite{MSH2012}{\citeauthoryear {{Management Sciences for Health}}{{Management Sciences for Health}}{{\APACyear {2012}}}}
\APACbibcite{MSH2012}{\citeauthoryear {{Management Sciences for Health}}{{Management Sciences for Health}}{{\APACyear {2012}}}}
\bibcite{NYT2015c}{\citeauthoryear {{The New York Times}}{{The New York Times}}{{\APACyear {2015}}}}
\APACbibcite{NYT2015c}{\citeauthoryear {{The New York Times}}{{The New York Times}}{{\APACyear {2015}}}}
\bibcite{Vacca2011}{\citeauthoryear {Vacca, Acosta,{}\ \BBA{} Rodriguez}{Vacca\ \BOthers {.}}{{\APACyear {2011}}}}
\APACbibcite{Vacca2011}{\citeauthoryear {Vacca, Acosta,{}\ \BBA{} Rodriguez}{Vacca\ \BOthers {.}}{{\APACyear {2011}}}}
\@writefile{nav}{\headcommand {\sectionentry {6}{}{40}{}{0}}}
\@writefile{nav}{\headcommand {\beamer@sectionpages {37}{39}}}
\@writefile{nav}{\headcommand {\beamer@subsectionpages {37}{39}}}
\@writefile{toc}{\contentsline {section}{}}
\@writefile{nav}{\headcommand {\slideentry {6}{0}{0}{40/40}{}{0}}}
\@writefile{nav}{\headcommand {\beamer@framepages {40}{40}}}
\@writefile{nav}{\headcommand {\slideentry {6}{0}{0}{40/41}{}{0}}}
\@writefile{nav}{\headcommand {\beamer@framepages {40}{41}}}
\@writefile{nav}{\headcommand {\slideentry {6}{0}{0}{40/42}{}{0}}}
\@writefile{nav}{\headcommand {\beamer@framepages {40}{42}}}
\@writefile{nav}{\headcommand {\slideentry {6}{0}{0}{40/43}{}{0}}}
\@writefile{nav}{\headcommand {\beamer@framepages {40}{43}}}
\@writefile{nav}{\headcommand {\slideentry {6}{0}{0}{40/44}{}{0}}}
\@writefile{nav}{\headcommand {\beamer@framepages {40}{44}}}
\@writefile{nav}{\headcommand {\partentry {\translate  {Appendix}}{1}}}
\@writefile{nav}{\headcommand {\beamer@partpages {1}{44}}}
\@writefile{nav}{\headcommand {\beamer@sectionpages {37}{44}}}
\@writefile{nav}{\headcommand {\beamer@subsectionpages {37}{44}}}
\@writefile{nav}{\headcommand {\beamer@appendixpages {45}}}
\@writefile{toc}{\beamer@sectionintoc {7}{Extra slides: Pharmaceutical prices}{45}{1}{6}}
\@writefile{nav}{\headcommand {\sectionentry {7}{Extra slides: Pharmaceutical prices}{45}{Extra slides: Pharmaceutical prices}{1}}}
\@writefile{nav}{\headcommand {\beamer@sectionpages {45}{44}}}
\@writefile{nav}{\headcommand {\beamer@subsectionpages {45}{44}}}
\@writefile{nav}{\headcommand {\slideentry {7}{0}{1}{45/45}{}{1}}}
\@writefile{nav}{\headcommand {\beamer@framepages {45}{45}}}
\newlabel{sumstat<1>}{{35}{46}{Extra slides: Pharmaceutical prices}{Doc-Start}{}}
\@writefile{snm}{\beamer@slide {sumstat<1>}{46}}
\newlabel{sumstat}{{35}{46}{Extra slides: Pharmaceutical prices}{Doc-Start}{}}
\@writefile{snm}{\beamer@slide {sumstat}{46}}
\newlabel{tab:diff_charac}{{3}{46}{Difference between pharmaceuticals characteristics by how much price information is observed.\relax }{Doc-Start}{}}
\@writefile{snm}{\beamer@slide {tab:diff_charac}{46}}
\@writefile{nav}{\headcommand {\slideentry {7}{0}{2}{46/46}{}{1}}}
\@writefile{nav}{\headcommand {\beamer@framepages {46}{46}}}
\newlabel{sumstat2<1>}{{36}{47}{Extra slides: Pharmaceutical prices}{Doc-Start}{}}
\@writefile{snm}{\beamer@slide {sumstat2<1>}{47}}
\newlabel{sumstat2}{{36}{47}{Extra slides: Pharmaceutical prices}{Doc-Start}{}}
\@writefile{snm}{\beamer@slide {sumstat2}{47}}
\newlabel{tab:descr2}{{4}{47}{Summary statistics for drugs with some observations and a maximum/minimum price ratio under 30\relax }{Doc-Start}{}}
\@writefile{snm}{\beamer@slide {tab:descr2}{47}}
\@writefile{nav}{\headcommand {\slideentry {7}{0}{3}{47/47}{}{1}}}
\@writefile{nav}{\headcommand {\beamer@framepages {47}{47}}}
\citation{Vacca2011}
\citation{Departamento2012}
\newlabel{problemsismed<1>}{{37}{48}{Extra slides: Pharmaceutical prices}{Doc-Start}{}}
\@writefile{snm}{\beamer@slide {problemsismed<1>}{48}}
\newlabel{problemsismed}{{37}{48}{Extra slides: Pharmaceutical prices}{Doc-Start}{}}
\@writefile{snm}{\beamer@slide {problemsismed}{48}}
\@writefile{nav}{\headcommand {\slideentry {7}{0}{4}{48/48}{}{1}}}
\@writefile{nav}{\headcommand {\beamer@framepages {48}{48}}}
\newlabel{reg_timing<1>}{{38}{49}{Extra slides: Pharmaceutical prices}{Doc-Start}{}}
\@writefile{snm}{\beamer@slide {reg_timing<1>}{49}}
\newlabel{reg_timing}{{38}{49}{Extra slides: Pharmaceutical prices}{Doc-Start}{}}
\@writefile{snm}{\beamer@slide {reg_timing}{49}}
\newlabel{tab:timing}{{5}{49}{Timing and other regulatory changes\relax }{Doc-Start}{}}
\@writefile{snm}{\beamer@slide {tab:timing}{49}}
\@writefile{nav}{\headcommand {\slideentry {7}{0}{5}{49/49}{}{1}}}
\@writefile{nav}{\headcommand {\beamer@framepages {49}{49}}}
\newlabel{reg_p<1>}{{39}{50}{Extra slides: Pharmaceutical prices}{Doc-Start}{}}
\@writefile{snm}{\beamer@slide {reg_p<1>}{50}}
\newlabel{reg_p}{{39}{50}{Extra slides: Pharmaceutical prices}{Doc-Start}{}}
\@writefile{snm}{\beamer@slide {reg_p}{50}}
\newlabel{tab:POS}{{6}{50}{Effect on a drug's price of including the drug to the benefit plan \relax }{Doc-Start}{}}
\@writefile{snm}{\beamer@slide {tab:POS}{50}}
\@writefile{nav}{\headcommand {\slideentry {7}{0}{6}{50/50}{}{1}}}
\@writefile{nav}{\headcommand {\beamer@framepages {50}{50}}}
\newlabel{reg_q<1>}{{40}{51}{Extra slides: Pharmaceutical prices}{Doc-Start}{}}
\@writefile{snm}{\beamer@slide {reg_q<1>}{51}}
\newlabel{reg_q}{{40}{51}{Extra slides: Pharmaceutical prices}{Doc-Start}{}}
\@writefile{snm}{\beamer@slide {reg_q}{51}}
\newlabel{tab:POS2}{{7}{51}{Effect of including a drug in the health plan on the quantities sold \relax }{Doc-Start}{}}
\@writefile{snm}{\beamer@slide {tab:POS2}{51}}
\@writefile{nav}{\headcommand {\slideentry {7}{0}{7}{51/51}{}{1}}}
\@writefile{nav}{\headcommand {\beamer@framepages {51}{51}}}
\newlabel{fig2011<1>}{{41}{52}{Extra slides: Pharmaceutical prices}{Doc-Start}{}}
\@writefile{snm}{\beamer@slide {fig2011<1>}{52}}
\newlabel{fig2011}{{41}{52}{Extra slides: Pharmaceutical prices}{Doc-Start}{}}
\@writefile{snm}{\beamer@slide {fig2011}{52}}
\newlabel{fig:eve_pos_price_2011}{{5}{52}{\tiny Event study for the effect of including a pharmaceutical in the POS on its price. \textit {Source:} SISMED and INVIMA. \textit {Calculations:} Author. \relax }{Doc-Start}{}}
\@writefile{snm}{\beamer@slide {fig:eve_pos_price_2011}{52}}
\@writefile{nav}{\headcommand {\slideentry {7}{0}{8}{52/52}{}{1}}}
\@writefile{nav}{\headcommand {\beamer@framepages {52}{52}}}
\newlabel{fig2012<1>}{{42}{53}{Extra slides: Pharmaceutical prices}{Doc-Start}{}}
\@writefile{snm}{\beamer@slide {fig2012<1>}{53}}
\newlabel{fig2012}{{42}{53}{Extra slides: Pharmaceutical prices}{Doc-Start}{}}
\@writefile{snm}{\beamer@slide {fig2012}{53}}
\newlabel{fig:eve_pos_price_2012}{{6}{53}{\tiny Event study for the effect of including a pharmaceutical in the POS on its price. \textit {Source:} SISMED and INVIMA. \textit {Calculations:} Author. \relax }{Doc-Start}{}}
\@writefile{snm}{\beamer@slide {fig:eve_pos_price_2012}{53}}
\@writefile{nav}{\headcommand {\slideentry {7}{0}{9}{53/53}{}{1}}}
\@writefile{nav}{\headcommand {\beamer@framepages {53}{53}}}
\newlabel{fig2011_q<1>}{{43}{54}{Extra slides: Pharmaceutical prices}{Doc-Start}{}}
\@writefile{snm}{\beamer@slide {fig2011_q<1>}{54}}
\newlabel{fig2011_q}{{43}{54}{Extra slides: Pharmaceutical prices}{Doc-Start}{}}
\@writefile{snm}{\beamer@slide {fig2011_q}{54}}
\newlabel{fig:eve_pos_quantity_2011}{{7}{54}{\tiny Event study for the effect of including a pharmaceutical in the POS on its price. \textit {Source:} SISMED and INVIMA. \textit {Calculations:} Author. \relax }{Doc-Start}{}}
\@writefile{snm}{\beamer@slide {fig:eve_pos_quantity_2011}{54}}
\@writefile{nav}{\headcommand {\slideentry {7}{0}{10}{54/54}{}{1}}}
\@writefile{nav}{\headcommand {\beamer@framepages {54}{54}}}
\newlabel{fig2012_q<1>}{{44}{55}{Extra slides: Pharmaceutical prices}{Doc-Start}{}}
\@writefile{snm}{\beamer@slide {fig2012_q<1>}{55}}
\newlabel{fig2012_q}{{44}{55}{Extra slides: Pharmaceutical prices}{Doc-Start}{}}
\@writefile{snm}{\beamer@slide {fig2012_q}{55}}
\newlabel{fig:eve_pos_quantity_2012}{{8}{55}{\tiny Event study for the effect of including a pharmaceutical in the POS on its price. \textit {Source:} SISMED and INVIMA. \textit {Calculations:} Author. \relax }{Doc-Start}{}}
\@writefile{snm}{\beamer@slide {fig:eve_pos_quantity_2012}{55}}
\@writefile{nav}{\headcommand {\slideentry {7}{0}{11}{55/55}{}{1}}}
\@writefile{nav}{\headcommand {\beamer@framepages {55}{55}}}
\newlabel{price_scale<1>}{{45}{56}{Extra slides: Pharmaceutical prices}{Doc-Start}{}}
\@writefile{snm}{\beamer@slide {price_scale<1>}{56}}
\newlabel{price_scale}{{45}{56}{Extra slides: Pharmaceutical prices}{Doc-Start}{}}
\@writefile{snm}{\beamer@slide {price_scale}{56}}
\newlabel{tab:POS_ROB2}{{8}{56}{Effect of including a drug in the health plan for locally produced vs. imported drugs \relax }{Doc-Start}{}}
\@writefile{snm}{\beamer@slide {tab:POS_ROB2}{56}}
\@writefile{nav}{\headcommand {\slideentry {7}{0}{12}{56/56}{}{1}}}
\@writefile{nav}{\headcommand {\beamer@framepages {56}{56}}}
\newlabel{years_mkt<1>}{{46}{57}{Extra slides: Pharmaceutical prices}{Doc-Start}{}}
\@writefile{snm}{\beamer@slide {years_mkt<1>}{57}}
\newlabel{years_mkt}{{46}{57}{Extra slides: Pharmaceutical prices}{Doc-Start}{}}
\@writefile{snm}{\beamer@slide {years_mkt}{57}}
\newlabel{tab:POS_ROB3}{{9}{57}{Effect of including a drug in the health plan by age\relax }{Doc-Start}{}}
\@writefile{snm}{\beamer@slide {tab:POS_ROB3}{57}}
\@writefile{nav}{\headcommand {\slideentry {7}{0}{13}{57/57}{}{1}}}
\@writefile{nav}{\headcommand {\beamer@framepages {57}{57}}}
\@writefile{nav}{\headcommand {\beamer@partpages {45}{57}}}
\@writefile{nav}{\headcommand {\beamer@subsectionpages {45}{57}}}
\@writefile{nav}{\headcommand {\beamer@sectionpages {45}{57}}}
\@writefile{nav}{\headcommand {\beamer@documentpages {57}}}
\@writefile{nav}{\headcommand {\def \inserttotalframenumber {46}}}
\zref@newlabel{LastPage}{\default{7}\page{57}\abspage{57}}
