\beamer@endinputifotherversion {3.36pt}
\headcommand {\slideentry {0}{0}{1}{1/1}{}{0}}
\headcommand {\beamer@framepages {1}{1}}
\headcommand {\sectionentry {1}{Motivation}{2}{Motivation}{0}}
\headcommand {\beamer@sectionpages {1}{1}}
\headcommand {\beamer@subsectionpages {1}{1}}
\headcommand {\slideentry {1}{0}{1}{2/11}{}{0}}
\headcommand {\beamer@framepages {2}{11}}
\headcommand {\slideentry {1}{0}{2}{12/14}{}{0}}
\headcommand {\beamer@framepages {12}{14}}
\headcommand {\slideentry {1}{0}{3}{15/18}{}{0}}
\headcommand {\beamer@framepages {15}{18}}
\headcommand {\slideentry {1}{0}{4}{19/19}{}{0}}
\headcommand {\beamer@framepages {19}{19}}
\headcommand {\sectionentry {2}{Background}{20}{Background}{0}}
\headcommand {\beamer@sectionpages {2}{19}}
\headcommand {\beamer@subsectionpages {2}{19}}
\headcommand {\slideentry {2}{0}{1}{20/20}{}{0}}
\headcommand {\beamer@framepages {20}{20}}
\headcommand {\slideentry {2}{0}{2}{21/28}{}{0}}
\headcommand {\beamer@framepages {21}{28}}
\headcommand {\slideentry {2}{0}{3}{29/29}{}{0}}
\headcommand {\beamer@framepages {29}{29}}
\headcommand {\slideentry {2}{0}{4}{30/30}{}{0}}
\headcommand {\beamer@framepages {30}{30}}
\headcommand {\sectionentry {3}{Theory}{31}{Theory}{0}}
\headcommand {\beamer@sectionpages {20}{30}}
\headcommand {\beamer@subsectionpages {20}{30}}
\headcommand {\slideentry {3}{0}{1}{31/31}{}{0}}
\headcommand {\beamer@framepages {31}{31}}
\headcommand {\slideentry {3}{0}{2}{32/38}{}{0}}
\headcommand {\beamer@framepages {32}{38}}
\headcommand {\slideentry {3}{0}{3}{39/42}{}{0}}
\headcommand {\beamer@framepages {39}{42}}
\headcommand {\slideentry {3}{0}{4}{43/45}{}{0}}
\headcommand {\beamer@framepages {43}{45}}
\headcommand {\slideentry {3}{0}{5}{46/46}{}{0}}
\headcommand {\beamer@framepages {46}{46}}
\headcommand {\sectionentry {4}{Empirics}{47}{Empirics}{0}}
\headcommand {\beamer@sectionpages {31}{46}}
\headcommand {\beamer@subsectionpages {31}{46}}
\headcommand {\slideentry {4}{0}{1}{47/47}{}{0}}
\headcommand {\beamer@framepages {47}{47}}
\headcommand {\slideentry {4}{0}{2}{48/48}{}{0}}
\headcommand {\beamer@framepages {48}{48}}
\headcommand {\slideentry {4}{0}{3}{49/49}{}{0}}
\headcommand {\beamer@framepages {49}{49}}
\headcommand {\slideentry {4}{0}{4}{50/50}{}{0}}
\headcommand {\beamer@framepages {50}{50}}
\headcommand {\slideentry {4}{0}{5}{51/51}{}{0}}
\headcommand {\beamer@framepages {51}{51}}
\headcommand {\slideentry {4}{0}{6}{52/52}{}{0}}
\headcommand {\beamer@framepages {52}{52}}
\headcommand {\slideentry {4}{0}{7}{53/53}{}{0}}
\headcommand {\beamer@framepages {53}{53}}
\headcommand {\slideentry {4}{0}{8}{54/54}{}{0}}
\headcommand {\beamer@framepages {54}{54}}
\headcommand {\slideentry {4}{0}{9}{55/55}{}{0}}
\headcommand {\beamer@framepages {55}{55}}
\headcommand {\slideentry {4}{0}{10}{56/56}{}{0}}
\headcommand {\beamer@framepages {56}{56}}
\headcommand {\slideentry {4}{0}{11}{57/57}{}{0}}
\headcommand {\beamer@framepages {57}{57}}
\headcommand {\slideentry {4}{0}{12}{58/58}{}{0}}
\headcommand {\beamer@framepages {58}{58}}
\headcommand {\slideentry {4}{0}{13}{59/59}{}{0}}
\headcommand {\beamer@framepages {59}{59}}
\headcommand {\slideentry {4}{0}{14}{60/60}{}{0}}
\headcommand {\beamer@framepages {60}{60}}
\headcommand {\sectionentry {5}{Closing remarks}{61}{Closing remarks}{0}}
\headcommand {\beamer@sectionpages {47}{60}}
\headcommand {\beamer@subsectionpages {47}{60}}
\headcommand {\slideentry {5}{0}{1}{61/61}{}{0}}
\headcommand {\beamer@framepages {61}{61}}
\headcommand {\slideentry {5}{0}{2}{62/62}{}{0}}
\headcommand {\beamer@framepages {62}{62}}
\headcommand {\slideentry {5}{0}{3}{63/63}{}{0}}
\headcommand {\beamer@framepages {63}{63}}
\headcommand {\slideentry {5}{0}{4}{64/64}{}{0}}
\headcommand {\beamer@framepages {64}{64}}
\headcommand {\sectionentry {6}{}{65}{}{0}}
\headcommand {\beamer@sectionpages {61}{64}}
\headcommand {\beamer@subsectionpages {61}{64}}
\headcommand {\slideentry {6}{0}{0}{65/65}{}{0}}
\headcommand {\beamer@framepages {65}{65}}
\headcommand {\slideentry {6}{0}{0}{65/66}{}{0}}
\headcommand {\beamer@framepages {65}{66}}
\headcommand {\slideentry {6}{0}{0}{65/67}{}{0}}
\headcommand {\beamer@framepages {65}{67}}
\headcommand {\slideentry {6}{0}{0}{65/68}{}{0}}
\headcommand {\beamer@framepages {65}{68}}
\headcommand {\slideentry {6}{0}{0}{65/69}{}{0}}
\headcommand {\beamer@framepages {65}{69}}
\headcommand {\partentry {\translate {Appendix}}{1}}
\headcommand {\beamer@partpages {1}{69}}
\headcommand {\beamer@sectionpages {61}{69}}
\headcommand {\beamer@subsectionpages {61}{69}}
\headcommand {\beamer@appendixpages {70}}
\headcommand {\sectionentry {7}{Extra slides: Pharmaceutical prices}{70}{Extra slides: Pharmaceutical prices}{1}}
\headcommand {\beamer@sectionpages {70}{69}}
\headcommand {\beamer@subsectionpages {70}{69}}
\headcommand {\slideentry {7}{0}{1}{70/70}{}{1}}
\headcommand {\beamer@framepages {70}{70}}
\headcommand {\slideentry {7}{0}{2}{71/71}{}{1}}
\headcommand {\beamer@framepages {71}{71}}
\headcommand {\slideentry {7}{0}{3}{72/72}{}{1}}
\headcommand {\beamer@framepages {72}{72}}
\headcommand {\slideentry {7}{0}{4}{73/73}{}{1}}
\headcommand {\beamer@framepages {73}{73}}
\headcommand {\slideentry {7}{0}{5}{74/74}{}{1}}
\headcommand {\beamer@framepages {74}{74}}
\headcommand {\slideentry {7}{0}{6}{75/75}{}{1}}
\headcommand {\beamer@framepages {75}{75}}
\headcommand {\slideentry {7}{0}{7}{76/76}{}{1}}
\headcommand {\beamer@framepages {76}{76}}
\headcommand {\slideentry {7}{0}{8}{77/77}{}{1}}
\headcommand {\beamer@framepages {77}{77}}
\headcommand {\slideentry {7}{0}{9}{78/78}{}{1}}
\headcommand {\beamer@framepages {78}{78}}
\headcommand {\slideentry {7}{0}{10}{79/79}{}{1}}
\headcommand {\beamer@framepages {79}{79}}
\headcommand {\slideentry {7}{0}{11}{80/80}{}{1}}
\headcommand {\beamer@framepages {80}{80}}
\headcommand {\slideentry {7}{0}{12}{81/81}{}{1}}
\headcommand {\beamer@framepages {81}{81}}
\headcommand {\slideentry {7}{0}{13}{82/82}{}{1}}
\headcommand {\beamer@framepages {82}{82}}
\headcommand {\slideentry {7}{0}{14}{83/83}{}{1}}
\headcommand {\beamer@framepages {83}{83}}
\headcommand {\slideentry {7}{0}{15}{84/84}{}{1}}
\headcommand {\beamer@framepages {84}{84}}
\headcommand {\beamer@partpages {70}{84}}
\headcommand {\beamer@subsectionpages {70}{84}}
\headcommand {\beamer@sectionpages {70}{84}}
\headcommand {\beamer@documentpages {84}}
\headcommand {\def \inserttotalframenumber {52}}
