\relax 
\providecommand\hyper@newdestlabel[2]{}
\providecommand\HyperFirstAtBeginDocument{\AtBeginDocument}
\HyperFirstAtBeginDocument{\ifx\hyper@anchor\@undefined
\global\let\oldcontentsline\contentsline
\gdef\contentsline#1#2#3#4{\oldcontentsline{#1}{#2}{#3}}
\global\let\oldnewlabel\newlabel
\gdef\newlabel#1#2{\newlabelxx{#1}#2}
\gdef\newlabelxx#1#2#3#4#5#6{\oldnewlabel{#1}{{#2}{#3}}}
\AtEndDocument{\ifx\hyper@anchor\@undefined
\let\contentsline\oldcontentsline
\let\newlabel\oldnewlabel
\fi}
\fi}
\global\let\hyper@last\relax 
\gdef\HyperFirstAtBeginDocument#1{#1}
\providecommand\HyField@AuxAddToFields[1]{}
\providecommand\HyField@AuxAddToCoFields[2]{}
\providecommand\pbs@newkey[2]{}\providecommand\pbs@seq@push@cx[2]{}\providecommand\pbs@at@end@dvi@check{}
\pbs@at@end@dvi@check
\providecommand\mix@newkey[2]{}
\pbs@newkey{pbs@last@page}{1}
\providecommand \oddpage@label [2]{}
\@writefile{nav}{\headcommand {\slideentry {0}{0}{1}{1/1}{}{0}}}
\@writefile{nav}{\headcommand {\beamer@framepages {1}{1}}}
\citation{Darby1973}
\citation{Dulleck2006}
\citation{MSH2012}
\pbs@newkey{pbs@last@page}{2}
\@writefile{toc}{\beamer@sectionintoc {1}{Motivation}{2}{0}{1}}
\@writefile{nav}{\headcommand {\sectionentry {1}{Motivation}{2}{Motivation}{0}}}
\@writefile{nav}{\headcommand {\beamer@sectionpages {1}{1}}}
\@writefile{nav}{\headcommand {\beamer@subsectionpages {1}{1}}}
\citation{Darby1973}
\citation{Dulleck2006}
\citation{MSH2012}
\pbs@newkey{pbs@last@page}{3}
\citation{Darby1973}
\citation{Dulleck2006}
\citation{MSH2012}
\pbs@newkey{pbs@last@page}{4}
\citation{Darby1973}
\citation{Dulleck2006}
\citation{MSH2012}
\pbs@newkey{pbs@last@page}{5}
\citation{Darby1973}
\citation{Dulleck2006}
\citation{MSH2012}
\pbs@newkey{pbs@last@page}{6}
\citation{Darby1973}
\citation{Dulleck2006}
\citation{MSH2012}
\pbs@newkey{pbs@last@page}{7}
\citation{Darby1973}
\citation{Dulleck2006}
\citation{MSH2012}
\pbs@newkey{pbs@last@page}{8}
\citation{Darby1973}
\citation{Dulleck2006}
\citation{MSH2012}
\pbs@newkey{pbs@last@page}{9}
\citation{Darby1973}
\citation{Dulleck2006}
\citation{MSH2012}
\pbs@newkey{pbs@last@page}{10}
\citation{Darby1973}
\citation{Dulleck2006}
\citation{MSH2012}
\pbs@newkey{pbs@last@page}{11}
\@writefile{nav}{\headcommand {\slideentry {1}{0}{1}{2/11}{}{0}}}
\@writefile{nav}{\headcommand {\beamer@framepages {2}{11}}}
\pbs@newkey{pbs@last@page}{12}
\@writefile{nav}{\headcommand {\slideentry {1}{0}{2}{12/12}{}{0}}}
\@writefile{nav}{\headcommand {\beamer@framepages {12}{12}}}
\pbs@newkey{pbs@last@page}{13}
\@writefile{toc}{\beamer@sectionintoc {2}{Background}{13}{0}{2}}
\@writefile{nav}{\headcommand {\sectionentry {2}{Background}{13}{Background}{0}}}
\@writefile{nav}{\headcommand {\beamer@sectionpages {2}{12}}}
\@writefile{nav}{\headcommand {\beamer@subsectionpages {2}{12}}}
\@writefile{nav}{\headcommand {\slideentry {2}{0}{1}{13/13}{}{0}}}
\@writefile{nav}{\headcommand {\beamer@framepages {13}{13}}}
\pbs@newkey{pbs@last@page}{14}
\@writefile{nav}{\headcommand {\slideentry {2}{0}{2}{14/14}{}{0}}}
\@writefile{nav}{\headcommand {\beamer@framepages {14}{14}}}
\pbs@newkey{pbs@last@page}{15}
\@writefile{nav}{\headcommand {\slideentry {2}{0}{3}{15/15}{}{0}}}
\@writefile{nav}{\headcommand {\beamer@framepages {15}{15}}}
\pbs@newkey{pbs@last@page}{16}
\providecommand*\caption@xref[2]{\@setref\relax\@undefined{#1}}
\newlabel{fig:add_pos}{{1}{16}{Number of drugs introduced into the POS by year. \textit {Source:} SISMED and INVIMA. \textit {Calculations:} Author.\relax }{Doc-Start}{}}
\@writefile{snm}{\beamer@slide {fig:add_pos}{16}}
\@writefile{nav}{\headcommand {\slideentry {2}{0}{4}{16/16}{}{0}}}
\@writefile{nav}{\headcommand {\beamer@framepages {16}{16}}}
\pbs@newkey{pbs@last@page}{17}
\@writefile{toc}{\beamer@sectionintoc {3}{Empirics}{17}{0}{3}}
\@writefile{nav}{\headcommand {\sectionentry {3}{Empirics}{17}{Empirics}{0}}}
\@writefile{nav}{\headcommand {\beamer@sectionpages {13}{16}}}
\@writefile{nav}{\headcommand {\beamer@subsectionpages {13}{16}}}
\@writefile{nav}{\headcommand {\slideentry {3}{0}{1}{17/17}{}{0}}}
\@writefile{nav}{\headcommand {\beamer@framepages {17}{17}}}
\pbs@newkey{pbs@last@page}{18}
\newlabel{goback0<1>}{{9}{18}{Empirics}{Doc-Start}{}}
\@writefile{snm}{\beamer@slide {goback0<1>}{18}}
\newlabel{goback0}{{9}{18}{Empirics}{Doc-Start}{}}
\@writefile{snm}{\beamer@slide {goback0}{18}}
\@writefile{nav}{\headcommand {\slideentry {3}{0}{2}{18/18}{}{0}}}
\@writefile{nav}{\headcommand {\beamer@framepages {18}{18}}}
\pbs@newkey{pbs@last@page}{19}
\@writefile{nav}{\headcommand {\slideentry {3}{0}{3}{19/19}{}{0}}}
\@writefile{nav}{\headcommand {\beamer@framepages {19}{19}}}
\pbs@newkey{pbs@last@page}{20}
\newlabel{eq:timing}{{1}{20}{Empirics}{Doc-Start}{}}
\@writefile{snm}{\beamer@slide {eq:timing}{20}}
\@writefile{nav}{\headcommand {\slideentry {3}{0}{4}{20/20}{}{0}}}
\@writefile{nav}{\headcommand {\beamer@framepages {20}{20}}}
\pbs@newkey{pbs@last@page}{21}
\newlabel{goback_timing<1>}{{12}{21}{Empirics}{Doc-Start}{}}
\@writefile{snm}{\beamer@slide {goback_timing<1>}{21}}
\newlabel{goback_timing}{{12}{21}{Empirics}{Doc-Start}{}}
\@writefile{snm}{\beamer@slide {goback_timing}{21}}
\@writefile{nav}{\headcommand {\slideentry {3}{0}{5}{21/21}{}{0}}}
\@writefile{nav}{\headcommand {\beamer@framepages {21}{21}}}
\pbs@newkey{pbs@last@page}{22}
\newlabel{goback_timing2<1>}{{13}{22}{Empirics}{Doc-Start}{}}
\@writefile{snm}{\beamer@slide {goback_timing2<1>}{22}}
\newlabel{goback_timing2}{{13}{22}{Empirics}{Doc-Start}{}}
\@writefile{snm}{\beamer@slide {goback_timing2}{22}}
\@writefile{nav}{\headcommand {\slideentry {3}{0}{6}{22/22}{}{0}}}
\@writefile{nav}{\headcommand {\beamer@framepages {22}{22}}}
\pbs@newkey{pbs@last@page}{23}
\newlabel{eq:original}{{1}{23}{Empirics}{Doc-Start}{}}
\@writefile{snm}{\beamer@slide {eq:original}{23}}
\@writefile{nav}{\headcommand {\slideentry {3}{0}{7}{23/23}{}{0}}}
\@writefile{nav}{\headcommand {\beamer@framepages {23}{23}}}
\pbs@newkey{pbs@last@page}{24}
\newlabel{goback1<1>}{{15}{24}{Empirics}{Doc-Start}{}}
\@writefile{snm}{\beamer@slide {goback1<1>}{24}}
\newlabel{goback1}{{15}{24}{Empirics}{Doc-Start}{}}
\@writefile{snm}{\beamer@slide {goback1}{24}}
\newlabel{fig:eve_pos_price}{{2}{24}{\tiny Event study for the effect of including a pharmaceutical in the POS on its price. \textit {Source:} SISMED and INVIMA. \textit {Calculations:} Author. \relax }{Doc-Start}{}}
\@writefile{snm}{\beamer@slide {fig:eve_pos_price}{24}}
\@writefile{nav}{\headcommand {\slideentry {3}{0}{8}{24/24}{}{0}}}
\@writefile{nav}{\headcommand {\beamer@framepages {24}{24}}}
\pbs@newkey{pbs@last@page}{25}
\newlabel{goback2<1>}{{16}{25}{Empirics}{Doc-Start}{}}
\@writefile{snm}{\beamer@slide {goback2<1>}{25}}
\newlabel{goback2}{{16}{25}{Empirics}{Doc-Start}{}}
\@writefile{snm}{\beamer@slide {goback2}{25}}
\newlabel{fig:eve_pos_quantity}{{3}{25}{\tiny Event study for the effect of including a pharmaceutical in the POS on the quantities. \textit {Source:} SISMED and INVIMA. \textit {Calculations:} Author. \relax }{Doc-Start}{}}
\@writefile{snm}{\beamer@slide {fig:eve_pos_quantity}{25}}
\@writefile{nav}{\headcommand {\slideentry {3}{0}{9}{25/25}{}{0}}}
\@writefile{nav}{\headcommand {\beamer@framepages {25}{25}}}
\pbs@newkey{pbs@last@page}{26}
\newlabel{goback_rob<1>}{{17}{26}{Empirics}{Doc-Start}{}}
\@writefile{snm}{\beamer@slide {goback_rob<1>}{26}}
\newlabel{goback_rob}{{17}{26}{Empirics}{Doc-Start}{}}
\@writefile{snm}{\beamer@slide {goback_rob}{26}}
\@writefile{nav}{\headcommand {\slideentry {3}{0}{10}{26/26}{}{0}}}
\@writefile{nav}{\headcommand {\beamer@framepages {26}{26}}}
\pbs@newkey{pbs@last@page}{27}
\newlabel{fig:het_competencia}{{4}{27}{Effect of listing a drug by number of competitiors\relax }{Doc-Start}{}}
\@writefile{snm}{\beamer@slide {fig:het_competencia}{27}}
\@writefile{nav}{\headcommand {\slideentry {3}{0}{11}{27/27}{}{0}}}
\@writefile{nav}{\headcommand {\beamer@framepages {27}{27}}}
\pbs@newkey{pbs@last@page}{28}
\pbs@newkey{pbs@last@page}{29}
\@writefile{nav}{\headcommand {\slideentry {3}{0}{12}{28/29}{}{0}}}
\@writefile{nav}{\headcommand {\beamer@framepages {28}{29}}}
\pbs@newkey{pbs@last@page}{30}
\newlabel{tab:POS_decompose}{{1}{30}{Effect on a drug's price of including the drug to the benefit plan \relax }{Doc-Start}{}}
\@writefile{snm}{\beamer@slide {tab:POS_decompose}{30}}
\@writefile{nav}{\headcommand {\slideentry {3}{0}{13}{30/30}{}{0}}}
\@writefile{nav}{\headcommand {\beamer@framepages {30}{30}}}
\pbs@newkey{pbs@last@page}{31}
\@writefile{toc}{\beamer@sectionintoc {4}{Closing remarks}{31}{0}{4}}
\@writefile{nav}{\headcommand {\sectionentry {4}{Closing remarks}{31}{Closing remarks}{0}}}
\@writefile{nav}{\headcommand {\beamer@sectionpages {17}{30}}}
\@writefile{nav}{\headcommand {\beamer@subsectionpages {17}{30}}}
\@writefile{nav}{\headcommand {\slideentry {4}{0}{1}{31/31}{}{0}}}
\@writefile{nav}{\headcommand {\beamer@framepages {31}{31}}}
\citation{NYT2015c}
\pbs@newkey{pbs@last@page}{32}
\@writefile{nav}{\headcommand {\slideentry {4}{0}{2}{32/32}{}{0}}}
\@writefile{nav}{\headcommand {\beamer@framepages {32}{32}}}
\pbs@newkey{pbs@last@page}{33}
\@writefile{nav}{\headcommand {\slideentry {4}{0}{3}{33/33}{}{0}}}
\@writefile{nav}{\headcommand {\beamer@framepages {33}{33}}}
\bibstyle{apacite}
\bibdata{PharPrice}
\bibcite{Darby1973}{\citeauthoryear {Darby\ \BBA{} Karni}{Darby\ \BBA{} Karni}{{\APACyear {1973}}}}
\APACbibcite{Darby1973}{\citeauthoryear {Darby\ \BBA{} Karni}{Darby\ \BBA{} Karni}{{\APACyear {1973}}}}
\bibcite{Departamento2012}{\citeauthoryear {{Departamento Nacional de Planeacion}}{{Departamento Nacional de Planeacion}}{{\APACyear {2012}}}}
\APACbibcite{Departamento2012}{\citeauthoryear {{Departamento Nacional de Planeacion}}{{Departamento Nacional de Planeacion}}{{\APACyear {2012}}}}
\bibcite{Dulleck2006}{\citeauthoryear {Dulleck\ \BBA{} Kerschbamer}{Dulleck\ \BBA{} Kerschbamer}{{\APACyear {2006}}}}
\APACbibcite{Dulleck2006}{\citeauthoryear {Dulleck\ \BBA{} Kerschbamer}{Dulleck\ \BBA{} Kerschbamer}{{\APACyear {2006}}}}
\bibcite{MSH2012}{\citeauthoryear {{Management Sciences for Health}}{{Management Sciences for Health}}{{\APACyear {2012}}}}
\APACbibcite{MSH2012}{\citeauthoryear {{Management Sciences for Health}}{{Management Sciences for Health}}{{\APACyear {2012}}}}
\bibcite{NYT2015c}{\citeauthoryear {{The New York Times}}{{The New York Times}}{{\APACyear {2015}}}}
\APACbibcite{NYT2015c}{\citeauthoryear {{The New York Times}}{{The New York Times}}{{\APACyear {2015}}}}
\bibcite{Vacca2011}{\citeauthoryear {Vacca, Acosta,{}\ \BBA{} Rodriguez}{Vacca\ \BOthers {.}}{{\APACyear {2011}}}}
\APACbibcite{Vacca2011}{\citeauthoryear {Vacca, Acosta,{}\ \BBA{} Rodriguez}{Vacca\ \BOthers {.}}{{\APACyear {2011}}}}
\pbs@newkey{pbs@last@page}{34}
\@writefile{nav}{\headcommand {\sectionentry {5}{}{34}{}{0}}}
\@writefile{nav}{\headcommand {\beamer@sectionpages {31}{33}}}
\@writefile{nav}{\headcommand {\beamer@subsectionpages {31}{33}}}
\@writefile{toc}{\contentsline {section}{}}
\@writefile{nav}{\headcommand {\slideentry {5}{0}{0}{34/34}{}{0}}}
\@writefile{nav}{\headcommand {\beamer@framepages {34}{34}}}
\pbs@newkey{pbs@last@page}{35}
\@writefile{nav}{\headcommand {\slideentry {5}{0}{0}{34/35}{}{0}}}
\@writefile{nav}{\headcommand {\beamer@framepages {34}{35}}}
\pbs@newkey{pbs@last@page}{36}
\@writefile{nav}{\headcommand {\partentry {\translate  {Appendix}}{1}}}
\@writefile{nav}{\headcommand {\beamer@partpages {1}{35}}}
\@writefile{nav}{\headcommand {\beamer@sectionpages {31}{35}}}
\@writefile{nav}{\headcommand {\beamer@subsectionpages {31}{35}}}
\@writefile{nav}{\headcommand {\beamer@appendixpages {36}}}
\@writefile{toc}{\beamer@sectionintoc {6}{Extra slides: Pharmaceutical prices}{36}{1}{5}}
\@writefile{nav}{\headcommand {\sectionentry {6}{Extra slides: Pharmaceutical prices}{36}{Extra slides: Pharmaceutical prices}{1}}}
\@writefile{nav}{\headcommand {\beamer@sectionpages {36}{35}}}
\@writefile{nav}{\headcommand {\beamer@subsectionpages {36}{35}}}
\@writefile{nav}{\headcommand {\slideentry {6}{0}{1}{36/36}{}{1}}}
\@writefile{nav}{\headcommand {\beamer@framepages {36}{36}}}
\pbs@newkey{pbs@last@page}{37}
\newlabel{sumstat<1>}{{27}{37}{Extra slides: Pharmaceutical prices}{Doc-Start}{}}
\@writefile{snm}{\beamer@slide {sumstat<1>}{37}}
\newlabel{sumstat}{{27}{37}{Extra slides: Pharmaceutical prices}{Doc-Start}{}}
\@writefile{snm}{\beamer@slide {sumstat}{37}}
\newlabel{tab:diff_charac}{{2}{37}{Difference between pharmaceuticals characteristics by how much price information is observed.\relax }{Doc-Start}{}}
\@writefile{snm}{\beamer@slide {tab:diff_charac}{37}}
\@writefile{nav}{\headcommand {\slideentry {6}{0}{2}{37/37}{}{1}}}
\@writefile{nav}{\headcommand {\beamer@framepages {37}{37}}}
\pbs@newkey{pbs@last@page}{38}
\newlabel{sumstat2<1>}{{28}{38}{Extra slides: Pharmaceutical prices}{Doc-Start}{}}
\@writefile{snm}{\beamer@slide {sumstat2<1>}{38}}
\newlabel{sumstat2}{{28}{38}{Extra slides: Pharmaceutical prices}{Doc-Start}{}}
\@writefile{snm}{\beamer@slide {sumstat2}{38}}
\newlabel{tab:descr2}{{3}{38}{Summary statistics for drugs with some observations and a maximum/minimum price ratio under 30\relax }{Doc-Start}{}}
\@writefile{snm}{\beamer@slide {tab:descr2}{38}}
\@writefile{nav}{\headcommand {\slideentry {6}{0}{3}{38/38}{}{1}}}
\@writefile{nav}{\headcommand {\beamer@framepages {38}{38}}}
\citation{Vacca2011}
\citation{Departamento2012}
\pbs@newkey{pbs@last@page}{39}
\newlabel{problemsismed<1>}{{29}{39}{Extra slides: Pharmaceutical prices}{Doc-Start}{}}
\@writefile{snm}{\beamer@slide {problemsismed<1>}{39}}
\newlabel{problemsismed}{{29}{39}{Extra slides: Pharmaceutical prices}{Doc-Start}{}}
\@writefile{snm}{\beamer@slide {problemsismed}{39}}
\@writefile{nav}{\headcommand {\slideentry {6}{0}{4}{39/39}{}{1}}}
\@writefile{nav}{\headcommand {\beamer@framepages {39}{39}}}
\pbs@newkey{pbs@last@page}{40}
\newlabel{reg_timing<1>}{{30}{40}{Extra slides: Pharmaceutical prices}{Doc-Start}{}}
\@writefile{snm}{\beamer@slide {reg_timing<1>}{40}}
\newlabel{reg_timing}{{30}{40}{Extra slides: Pharmaceutical prices}{Doc-Start}{}}
\@writefile{snm}{\beamer@slide {reg_timing}{40}}
\newlabel{tab:timing}{{4}{40}{Timing and other regulatory changes\relax }{Doc-Start}{}}
\@writefile{snm}{\beamer@slide {tab:timing}{40}}
\@writefile{nav}{\headcommand {\slideentry {6}{0}{5}{40/40}{}{1}}}
\@writefile{nav}{\headcommand {\beamer@framepages {40}{40}}}
\pbs@newkey{pbs@last@page}{41}
\newlabel{reg_p<1>}{{31}{41}{Extra slides: Pharmaceutical prices}{Doc-Start}{}}
\@writefile{snm}{\beamer@slide {reg_p<1>}{41}}
\newlabel{reg_p}{{31}{41}{Extra slides: Pharmaceutical prices}{Doc-Start}{}}
\@writefile{snm}{\beamer@slide {reg_p}{41}}
\newlabel{tab:POS}{{5}{41}{Effect on a drug's price of including the drug to the benefit plan \relax }{Doc-Start}{}}
\@writefile{snm}{\beamer@slide {tab:POS}{41}}
\@writefile{nav}{\headcommand {\slideentry {6}{0}{6}{41/41}{}{1}}}
\@writefile{nav}{\headcommand {\beamer@framepages {41}{41}}}
\pbs@newkey{pbs@last@page}{42}
\newlabel{reg_q<1>}{{32}{42}{Extra slides: Pharmaceutical prices}{Doc-Start}{}}
\@writefile{snm}{\beamer@slide {reg_q<1>}{42}}
\newlabel{reg_q}{{32}{42}{Extra slides: Pharmaceutical prices}{Doc-Start}{}}
\@writefile{snm}{\beamer@slide {reg_q}{42}}
\newlabel{tab:POS2}{{6}{42}{Effect of including a drug in the health plan on the quantities sold \relax }{Doc-Start}{}}
\@writefile{snm}{\beamer@slide {tab:POS2}{42}}
\@writefile{nav}{\headcommand {\slideentry {6}{0}{7}{42/42}{}{1}}}
\@writefile{nav}{\headcommand {\beamer@framepages {42}{42}}}
\pbs@newkey{pbs@last@page}{43}
\newlabel{fig2014<1>}{{33}{43}{Extra slides: Pharmaceutical prices}{Doc-Start}{}}
\@writefile{snm}{\beamer@slide {fig2014<1>}{43}}
\newlabel{fig2014}{{33}{43}{Extra slides: Pharmaceutical prices}{Doc-Start}{}}
\@writefile{snm}{\beamer@slide {fig2014}{43}}
\newlabel{fig:eve_pos_price_2011}{{5}{43}{\tiny Event study for the effect of including a pharmaceutical in the POS on its price. \textit {Source:} SISMED and INVIMA. \textit {Calculations:} Author. \relax }{Doc-Start}{}}
\@writefile{snm}{\beamer@slide {fig:eve_pos_price_2011}{43}}
\@writefile{nav}{\headcommand {\slideentry {6}{0}{8}{43/43}{}{1}}}
\@writefile{nav}{\headcommand {\beamer@framepages {43}{43}}}
\pbs@newkey{pbs@last@page}{44}
\newlabel{fig2012<1>}{{34}{44}{Extra slides: Pharmaceutical prices}{Doc-Start}{}}
\@writefile{snm}{\beamer@slide {fig2012<1>}{44}}
\newlabel{fig2012}{{34}{44}{Extra slides: Pharmaceutical prices}{Doc-Start}{}}
\@writefile{snm}{\beamer@slide {fig2012}{44}}
\newlabel{fig:eve_pos_price_2012}{{6}{44}{\tiny Event study for the effect of including a pharmaceutical in the POS on its price. \textit {Source:} SISMED and INVIMA. \textit {Calculations:} Author. \relax }{Doc-Start}{}}
\@writefile{snm}{\beamer@slide {fig:eve_pos_price_2012}{44}}
\@writefile{nav}{\headcommand {\slideentry {6}{0}{9}{44/44}{}{1}}}
\@writefile{nav}{\headcommand {\beamer@framepages {44}{44}}}
\pbs@newkey{pbs@last@page}{45}
\newlabel{fig2014_q<1>}{{35}{45}{Extra slides: Pharmaceutical prices}{Doc-Start}{}}
\@writefile{snm}{\beamer@slide {fig2014_q<1>}{45}}
\newlabel{fig2014_q}{{35}{45}{Extra slides: Pharmaceutical prices}{Doc-Start}{}}
\@writefile{snm}{\beamer@slide {fig2014_q}{45}}
\newlabel{fig:eve_pos_quantity_2011}{{7}{45}{\tiny Event study for the effect of including a pharmaceutical in the POS on its price. \textit {Source:} SISMED and INVIMA. \textit {Calculations:} Author. \relax }{Doc-Start}{}}
\@writefile{snm}{\beamer@slide {fig:eve_pos_quantity_2011}{45}}
\@writefile{nav}{\headcommand {\slideentry {6}{0}{10}{45/45}{}{1}}}
\@writefile{nav}{\headcommand {\beamer@framepages {45}{45}}}
\pbs@newkey{pbs@last@page}{46}
\newlabel{fig2012_q<1>}{{36}{46}{Extra slides: Pharmaceutical prices}{Doc-Start}{}}
\@writefile{snm}{\beamer@slide {fig2012_q<1>}{46}}
\newlabel{fig2012_q}{{36}{46}{Extra slides: Pharmaceutical prices}{Doc-Start}{}}
\@writefile{snm}{\beamer@slide {fig2012_q}{46}}
\newlabel{fig:eve_pos_quantity_2012}{{8}{46}{\tiny Event study for the effect of including a pharmaceutical in the POS on its price. \textit {Source:} SISMED and INVIMA. \textit {Calculations:} Author. \relax }{Doc-Start}{}}
\@writefile{snm}{\beamer@slide {fig:eve_pos_quantity_2012}{46}}
\@writefile{nav}{\headcommand {\slideentry {6}{0}{11}{46/46}{}{1}}}
\@writefile{nav}{\headcommand {\beamer@framepages {46}{46}}}
\pbs@newkey{pbs@last@page}{47}
\newlabel{price_scale<1>}{{37}{47}{Extra slides: Pharmaceutical prices}{Doc-Start}{}}
\@writefile{snm}{\beamer@slide {price_scale<1>}{47}}
\newlabel{price_scale}{{37}{47}{Extra slides: Pharmaceutical prices}{Doc-Start}{}}
\@writefile{snm}{\beamer@slide {price_scale}{47}}
\newlabel{tab:POS_ROB2}{{7}{47}{Effect of including a drug in the health plan for locally produced vs. imported drugs \relax }{Doc-Start}{}}
\@writefile{snm}{\beamer@slide {tab:POS_ROB2}{47}}
\@writefile{nav}{\headcommand {\slideentry {6}{0}{12}{47/47}{}{1}}}
\@writefile{nav}{\headcommand {\beamer@framepages {47}{47}}}
\pbs@newkey{pbs@last@page}{48}
\newlabel{price_otc<1>}{{38}{48}{Extra slides: Pharmaceutical prices}{Doc-Start}{}}
\@writefile{snm}{\beamer@slide {price_otc<1>}{48}}
\newlabel{price_otc}{{38}{48}{Extra slides: Pharmaceutical prices}{Doc-Start}{}}
\@writefile{snm}{\beamer@slide {price_otc}{48}}
\newlabel{tab:POS_ROB5}{{8}{48}{Effect of including a drug in the health plan by OTC/Rx status\relax }{Doc-Start}{}}
\@writefile{snm}{\beamer@slide {tab:POS_ROB5}{48}}
\@writefile{nav}{\headcommand {\slideentry {6}{0}{13}{48/48}{}{1}}}
\@writefile{nav}{\headcommand {\beamer@framepages {48}{48}}}
\pbs@newkey{pbs@last@page}{49}
\newlabel{early_timing<1>}{{39}{49}{Extra slides: Pharmaceutical prices}{Doc-Start}{}}
\@writefile{snm}{\beamer@slide {early_timing<1>}{49}}
\newlabel{early_timing}{{39}{49}{Extra slides: Pharmaceutical prices}{Doc-Start}{}}
\@writefile{snm}{\beamer@slide {early_timing}{49}}
\@writefile{nav}{\headcommand {\slideentry {6}{0}{14}{49/49}{}{1}}}
\@writefile{nav}{\headcommand {\beamer@framepages {49}{49}}}
\pbs@newkey{pbs@last@page}{50}
\newlabel{late_timing<1>}{{40}{50}{Extra slides: Pharmaceutical prices}{Doc-Start}{}}
\@writefile{snm}{\beamer@slide {late_timing<1>}{50}}
\newlabel{late_timing}{{40}{50}{Extra slides: Pharmaceutical prices}{Doc-Start}{}}
\@writefile{snm}{\beamer@slide {late_timing}{50}}
\@writefile{nav}{\headcommand {\slideentry {6}{0}{15}{50/50}{}{1}}}
\@writefile{nav}{\headcommand {\beamer@framepages {50}{50}}}
\pbs@newkey{pbs@last@page}{51}
\newlabel{yearATCFE<1>}{{41}{51}{Extra slides: Pharmaceutical prices}{Doc-Start}{}}
\@writefile{snm}{\beamer@slide {yearATCFE<1>}{51}}
\newlabel{yearATCFE}{{41}{51}{Extra slides: Pharmaceutical prices}{Doc-Start}{}}
\@writefile{snm}{\beamer@slide {yearATCFE}{51}}
\newlabel{fig:eve_pos_pricefe}{{9}{51}{\tiny Event study for the effect of including a pharmaceutical in the POS on its price. \textit {Source:} SISMED and INVIMA. \textit {Calculations:} Author. \relax }{Doc-Start}{}}
\@writefile{snm}{\beamer@slide {fig:eve_pos_pricefe}{51}}
\@writefile{nav}{\headcommand {\slideentry {6}{0}{16}{51/51}{}{1}}}
\@writefile{nav}{\headcommand {\beamer@framepages {51}{51}}}
\pbs@newkey{pbs@last@page}{52}
\newlabel{yearATCFE_Q<1>}{{42}{52}{Extra slides: Pharmaceutical prices}{Doc-Start}{}}
\@writefile{snm}{\beamer@slide {yearATCFE_Q<1>}{52}}
\newlabel{yearATCFE_Q}{{42}{52}{Extra slides: Pharmaceutical prices}{Doc-Start}{}}
\@writefile{snm}{\beamer@slide {yearATCFE_Q}{52}}
\newlabel{fig:eve_pos_qfe}{{10}{52}{\tiny Event study for the effect of including a pharmaceutical in the POS on its price. \textit {Source:} SISMED and INVIMA. \textit {Calculations:} Author. \relax }{Doc-Start}{}}
\@writefile{snm}{\beamer@slide {fig:eve_pos_qfe}{52}}
\@writefile{nav}{\headcommand {\slideentry {6}{0}{17}{52/52}{}{1}}}
\@writefile{nav}{\headcommand {\beamer@framepages {52}{52}}}
\pbs@newkey{pbs@last@page}{53}
\newlabel{groupcompeting<1>}{{43}{53}{Extra slides: Pharmaceutical prices}{Doc-Start}{}}
\@writefile{snm}{\beamer@slide {groupcompeting<1>}{53}}
\newlabel{groupcompeting}{{43}{53}{Extra slides: Pharmaceutical prices}{Doc-Start}{}}
\@writefile{snm}{\beamer@slide {groupcompeting}{53}}
\@writefile{nav}{\headcommand {\slideentry {6}{0}{18}{53/53}{}{1}}}
\@writefile{nav}{\headcommand {\beamer@framepages {53}{53}}}
\@writefile{nav}{\headcommand {\beamer@partpages {36}{53}}}
\@writefile{nav}{\headcommand {\beamer@subsectionpages {36}{53}}}
\@writefile{nav}{\headcommand {\beamer@sectionpages {36}{53}}}
\@writefile{nav}{\headcommand {\beamer@documentpages {53}}}
\@writefile{nav}{\headcommand {\def \inserttotalframenumber {43}}}
