This is BibTeX, Version 0.99dThe top-level auxiliary file: RomeroPharmaPrices_SEA.aux
The style file: apacite.bst
Database file #1: PharPrice.bib
Warning--entry type for "NYT2015c" isn't style-file defined
--line 1053 of file PharPrice.bib
apacite.bst [2013/07/21 v6.03 APA bibliography style]
(There was 1 warning)
