\relax 
\providecommand\hyper@newdestlabel[2]{}
\providecommand\HyperFirstAtBeginDocument{\AtBeginDocument}
\HyperFirstAtBeginDocument{\ifx\hyper@anchor\@undefined
\global\let\oldcontentsline\contentsline
\gdef\contentsline#1#2#3#4{\oldcontentsline{#1}{#2}{#3}}
\global\let\oldnewlabel\newlabel
\gdef\newlabel#1#2{\newlabelxx{#1}#2}
\gdef\newlabelxx#1#2#3#4#5#6{\oldnewlabel{#1}{{#2}{#3}}}
\AtEndDocument{\ifx\hyper@anchor\@undefined
\let\contentsline\oldcontentsline
\let\newlabel\oldnewlabel
\fi}
\fi}
\global\let\hyper@last\relax 
\gdef\HyperFirstAtBeginDocument#1{#1}
\providecommand\HyField@AuxAddToFields[1]{}
\providecommand\HyField@AuxAddToCoFields[2]{}
\select@language{english}
\@writefile{toc}{\select@language{english}}
\@writefile{lof}{\select@language{english}}
\@writefile{lot}{\select@language{english}}
\citation{Roberts2011}
\citation{MSH2012}
\citation{MSH2012}
\citation{Arrow1963}
\citation{Busse2007}
\citation{WorldBank2013}
\citation{Giedion2014}
\citation{Duggan2006}
\@writefile{toc}{\contentsline {section}{\numberline {1}Introduction}{2}{section.1}}
\citation{Giedion2009}
\citation{Brown2014}
\citation{Leu2009}
\citation{Duggan2010}
\citation{Duggan2010}
\citation{Duggan2006}
\citation{Clemens2013}
\citation{Brekke2011}
\citation{Clemens2014}
\citation{Iizuka2012}
\citation{Gruber1996}
\citation{Webster2012}
\citation{NYT2015}
\citation{UnitedStatesCode2006}
\@writefile{toc}{\contentsline {section}{\numberline {2}Background, institutions and incentives}{6}{section.2}}
\@writefile{toc}{\contentsline {subsection}{\numberline {2.1}Terminology}{6}{subsection.2.1}}
\citation{Gaviria2013}
\citation{Giedion2009}
\citation{CONSEJONACIONALDESEGURIDADSOCIALENSALUD2006}
\citation{CONSEJONACIONALDESEGURIDADSOCIALENSALUD2006a}
\citation{CONSEJONACIONALDESEGURIDADSOCIALENSALUD2007a}
\citation{CONSEJONACIONALDESEGURIDADSOCIALENSALUD2007}
\citation{COMISINDEREGULACINENSALUD2009}
\citation{COMISINDEREGULACINENSALUD2009a}
\citation{COMISINDEREGULACINENSALUD2010}
\citation{COMISINDEREGULACINENSALUD2011}
\citation{COMISINDEREGULACINENSALUD2011a}
\citation{COMISINDEREGULACINENSALUD2011b}
\citation{COMISINDEREGULACINENSALUD2012}
\citation{MINISTERIODESALUDYPROTECCINSOCIAL2013}
\citation{MINISTERIODESALUDYPROTECCINSOCIAL2014}
\citation{MINISTERIODESALUDYPROTECCINSOCIAL2015}
\@writefile{toc}{\contentsline {subsection}{\numberline {2.2}Background}{8}{subsection.2.2}}
\newlabel{sec:background}{{2.2}{8}{Background}{subsection.2.2}{}}
\citation{Castano2006}
\citation{GomezSuarez2007}
\citation{Brown2014}
\citation{Shepard2015}
\citation{Arrow1963}
\citation{Semana2014}
\citation{Clemens2014}
\citation{Iizuka2012}
\citation{Iizuka2007}
\citation{Gruber1996}
\@writefile{toc}{\contentsline {subsection}{\numberline {2.3}Incentives}{9}{subsection.2.3}}
\@writefile{toc}{\contentsline {section}{\numberline {3}Theory}{10}{section.3}}
\newlabel{sec:theory}{{3}{10}{Theory}{section.3}{}}
\@writefile{toc}{\contentsline {subsection}{\numberline {3.1}Basic model}{10}{subsection.3.1}}
\newlabel{eq:price}{{10}{11}{Basic model}{equation.3.10}{}}
\citation{Milgrom1990}
\@writefile{toc}{\contentsline {subsection}{\numberline {3.2}Comparative statics}{12}{subsection.3.2}}
\citation{Vacca2011}
\citation{Departamento2012}
\citation{Zapata2012}
\citation{Vacca2011}
\citation{Departamento2012}
\@writefile{toc}{\contentsline {section}{\numberline {4}Data}{13}{section.4}}
\newlabel{sec:dat}{{4}{13}{Data}{section.4}{}}
\@writefile{toc}{\contentsline {subsection}{\numberline {4.1}Summary statistics}{14}{subsection.4.1}}
\@writefile{toc}{\contentsline {section}{\numberline {5}Empirical analysis}{15}{section.5}}
\newlabel{sec:emp}{{5}{15}{Empirical analysis}{section.5}{}}
\@writefile{toc}{\contentsline {subsection}{\numberline {5.1}Timing of inclusion in the benefit plan}{15}{subsection.5.1}}
\newlabel{sec:timing}{{5.1}{15}{Timing of inclusion in the benefit plan}{subsection.5.1}{}}
\citation{Vaca2015}
\citation{Uprimny2014}
\@writefile{toc}{\contentsline {subsection}{\numberline {5.2}Net effect on prices and drug sales}{18}{subsection.5.2}}
\newlabel{eq:original}{{26}{18}{Net effect on prices and drug sales}{equation.5.26}{}}
\@writefile{toc}{\contentsline {subsection}{\numberline {5.3}Event studies}{19}{subsection.5.3}}
\newlabel{sec:event}{{5.3}{19}{Event studies}{subsection.5.3}{}}
\@writefile{toc}{\contentsline {subsection}{\numberline {5.4}Other robustness checks}{20}{subsection.5.4}}
\@writefile{toc}{\contentsline {subsection}{\numberline {5.5}Competition and listed drugs}{21}{subsection.5.5}}
\newlabel{eq:het_competencia}{{30}{21}{Competition and listed drugs}{equation.5.30}{}}
\@writefile{toc}{\contentsline {subsection}{\numberline {5.6}Effect on therapeutic substitutes}{22}{subsection.5.6}}
\citation{TTD2016}
\citation{MEDI2013}
\citation{Roberts2011}
\citation{Busse2007}
\citation{WorldBank2013}
\citation{Giedion2014}
\citation{Duggan2006}
\@writefile{toc}{\contentsline {section}{\numberline {6}Effect on morbity and physician behavior}{23}{section.6}}
\newlabel{sec:mortality}{{6}{23}{Effect on morbity and physician behavior}{section.6}{}}
\@writefile{toc}{\contentsline {section}{\numberline {7}Conclusions}{23}{section.7}}
\newlabel{sec:conc}{{7}{23}{Conclusions}{section.7}{}}
\citation{Duggan2006}
\citation{Duggan2010}
\citation{Brekke2011}
\citation{Clemens2013}
\citation{Webster2012}
\citation{NYT2015}
\citation{NYT2015a}
\citation{NYT2015b}
\citation{NYT2015c}
\citation{NYT2015}
\bibstyle{apacite}
\bibdata{PharPrice}
\bibcite{Arrow1963}{\citeauthoryear {Arrow}{Arrow}{{\APACyear {1963}}}}
\APACbibcite{Arrow1963}{\citeauthoryear {Arrow}{Arrow}{{\APACyear {1963}}}}
\bibcite{Brekke2011}{\citeauthoryear {Brekke, Holmas,{}\ \BBA{} Straume}{Brekke\ \BOthers {.}}{{\APACyear {2011}}}}
\APACbibcite{Brekke2011}{\citeauthoryear {Brekke, Holmas,{}\ \BBA{} Straume}{Brekke\ \BOthers {.}}{{\APACyear {2011}}}}
\bibcite{Brown2014}{\citeauthoryear {Brown, Duggan, Kuziemko,{}\ \BBA{} Woolston}{Brown\ \BOthers {.}}{{\APACyear {2014}}}}
\APACbibcite{Brown2014}{\citeauthoryear {Brown, Duggan, Kuziemko,{}\ \BBA{} Woolston}{Brown\ \BOthers {.}}{{\APACyear {2014}}}}
\bibcite{Busse2007}{\citeauthoryear {Busse, Schrey{\"o}gg,{}\ \BBA{} Gericke}{Busse\ \BOthers {.}}{{\APACyear {2007}}}}
\APACbibcite{Busse2007}{\citeauthoryear {Busse, Schrey{\"o}gg,{}\ \BBA{} Gericke}{Busse\ \BOthers {.}}{{\APACyear {2007}}}}
\bibcite{Castano2006}{\citeauthoryear {Castano\ \BBA{} Zambrano}{Castano\ \BBA{} Zambrano}{{\APACyear {2006}}}}
\APACbibcite{Castano2006}{\citeauthoryear {Castano\ \BBA{} Zambrano}{Castano\ \BBA{} Zambrano}{{\APACyear {2006}}}}
\bibcite{Clemens2013}{\citeauthoryear {Clemens\ \BBA{} Gottlieb}{Clemens\ \BBA{} Gottlieb}{{\APACyear {2013}}}}
\APACbibcite{Clemens2013}{\citeauthoryear {Clemens\ \BBA{} Gottlieb}{Clemens\ \BBA{} Gottlieb}{{\APACyear {2013}}}}
\@writefile{toc}{\contentsline {section}{References}{25}{section*.11}}
\bibcite{Clemens2014}{\citeauthoryear {Clemens\ \BBA{} Gottlieb}{Clemens\ \BBA{} Gottlieb}{{\APACyear {2014}}}}
\APACbibcite{Clemens2014}{\citeauthoryear {Clemens\ \BBA{} Gottlieb}{Clemens\ \BBA{} Gottlieb}{{\APACyear {2014}}}}
\bibcite{CNPM2010}{\citeauthoryear {{Comisi\'on Nacional de Precios de Medicamentos }}{{Comisi\'on Nacional de Precios de Medicamentos }}{{\APACyear {2010}}}}
\APACbibcite{CNPM2010}{\citeauthoryear {{Comisi\'on Nacional de Precios de Medicamentos }}{{Comisi\'on Nacional de Precios de Medicamentos }}{{\APACyear {2010}}}}
\bibcite{CNPM2011}{\citeauthoryear {{Comisi\'on Nacional de Precios de Medicamentos y Dispositivos M\'edicos}}{{Comisi\'on Nacional de Precios de Medicamentos y Dispositivos M\'edicos}}{{\APACyear {2011}}}}
\APACbibcite{CNPM2011}{\citeauthoryear {{Comisi\'on Nacional de Precios de Medicamentos y Dispositivos M\'edicos}}{{Comisi\'on Nacional de Precios de Medicamentos y Dispositivos M\'edicos}}{{\APACyear {2011}}}}
\bibcite{CNPM2012}{\citeauthoryear {{Comisi\'on Nacional de Precios de Medicamentos y Dispositivos M\'edicos}}{{Comisi\'on Nacional de Precios de Medicamentos y Dispositivos M\'edicos}}{{\APACyear {2012}}{\APACexlab {{\BCnt {1}}}}}}
\APACbibcite{CNPM2012}{\citeauthoryear {{Comisi\'on Nacional de Precios de Medicamentos y Dispositivos M\'edicos}}{{Comisi\'on Nacional de Precios de Medicamentos y Dispositivos M\'edicos}}{{\APACyear {2012}}{\APACexlab {{\BCnt {1}}}}}}
\bibcite{CNPM2012a}{\citeauthoryear {{Comisi\'on Nacional de Precios de Medicamentos y Dispositivos M\'edicos}}{{Comisi\'on Nacional de Precios de Medicamentos y Dispositivos M\'edicos}}{{\APACyear {2012}}{\APACexlab {{\BCnt {2}}}}}}
\APACbibcite{CNPM2012a}{\citeauthoryear {{Comisi\'on Nacional de Precios de Medicamentos y Dispositivos M\'edicos}}{{Comisi\'on Nacional de Precios de Medicamentos y Dispositivos M\'edicos}}{{\APACyear {2012}}{\APACexlab {{\BCnt {2}}}}}}
\bibcite{CNPM2012b}{\citeauthoryear {{Comisi\'on Nacional de Precios de Medicamentos y Dispositivos M\'edicos}}{{Comisi\'on Nacional de Precios de Medicamentos y Dispositivos M\'edicos}}{{\APACyear {2012}}{\APACexlab {{\BCnt {3}}}}}}
\APACbibcite{CNPM2012b}{\citeauthoryear {{Comisi\'on Nacional de Precios de Medicamentos y Dispositivos M\'edicos}}{{Comisi\'on Nacional de Precios de Medicamentos y Dispositivos M\'edicos}}{{\APACyear {2012}}{\APACexlab {{\BCnt {3}}}}}}
\bibcite{CNPM2013}{\citeauthoryear {{Comisi\'on Nacional de Precios de Medicamentos y Dispositivos M\'edicos}}{{Comisi\'on Nacional de Precios de Medicamentos y Dispositivos M\'edicos}}{{\APACyear {2013}}{\APACexlab {{\BCnt {1}}}}}}
\APACbibcite{CNPM2013}{\citeauthoryear {{Comisi\'on Nacional de Precios de Medicamentos y Dispositivos M\'edicos}}{{Comisi\'on Nacional de Precios de Medicamentos y Dispositivos M\'edicos}}{{\APACyear {2013}}{\APACexlab {{\BCnt {1}}}}}}
\bibcite{CNPM2013a}{\citeauthoryear {{Comisi\'on Nacional de Precios de Medicamentos y Dispositivos M\'edicos}}{{Comisi\'on Nacional de Precios de Medicamentos y Dispositivos M\'edicos}}{{\APACyear {2013}}{\APACexlab {{\BCnt {2}}}}}}
\APACbibcite{CNPM2013a}{\citeauthoryear {{Comisi\'on Nacional de Precios de Medicamentos y Dispositivos M\'edicos}}{{Comisi\'on Nacional de Precios de Medicamentos y Dispositivos M\'edicos}}{{\APACyear {2013}}{\APACexlab {{\BCnt {2}}}}}}
\bibcite{CNPM2013c}{\citeauthoryear {{Comisi\'on Nacional de Precios de Medicamentos y Dispositivos M\'edicos}}{{Comisi\'on Nacional de Precios de Medicamentos y Dispositivos M\'edicos}}{{\APACyear {2013}}{\APACexlab {{\BCnt {3}}}}}}
\APACbibcite{CNPM2013c}{\citeauthoryear {{Comisi\'on Nacional de Precios de Medicamentos y Dispositivos M\'edicos}}{{Comisi\'on Nacional de Precios de Medicamentos y Dispositivos M\'edicos}}{{\APACyear {2013}}{\APACexlab {{\BCnt {3}}}}}}
\bibcite{CNPM2013b}{\citeauthoryear {{Comisi\'on Nacional de Precios de Medicamentos y Dispositivos M\'edicos}}{{Comisi\'on Nacional de Precios de Medicamentos y Dispositivos M\'edicos}}{{\APACyear {2013}}{\APACexlab {{\BCnt {4}}}}}}
\APACbibcite{CNPM2013b}{\citeauthoryear {{Comisi\'on Nacional de Precios de Medicamentos y Dispositivos M\'edicos}}{{Comisi\'on Nacional de Precios de Medicamentos y Dispositivos M\'edicos}}{{\APACyear {2013}}{\APACexlab {{\BCnt {4}}}}}}
\bibcite{CNPM2014}{\citeauthoryear {{Comisi\'on Nacional de Precios de Medicamentos y Dispositivos M\'edicos}}{{Comisi\'on Nacional de Precios de Medicamentos y Dispositivos M\'edicos}}{{\APACyear {2014}}}}
\APACbibcite{CNPM2014}{\citeauthoryear {{Comisi\'on Nacional de Precios de Medicamentos y Dispositivos M\'edicos}}{{Comisi\'on Nacional de Precios de Medicamentos y Dispositivos M\'edicos}}{{\APACyear {2014}}}}
\bibcite{CNPM2016}{\citeauthoryear {{Comisi\'on Nacional de Precios de Medicamentos y Dispositivos M\'edicos}}{{Comisi\'on Nacional de Precios de Medicamentos y Dispositivos M\'edicos}}{{\APACyear {2016}}{\APACexlab {{\BCnt {1}}}}}}
\APACbibcite{CNPM2016}{\citeauthoryear {{Comisi\'on Nacional de Precios de Medicamentos y Dispositivos M\'edicos}}{{Comisi\'on Nacional de Precios de Medicamentos y Dispositivos M\'edicos}}{{\APACyear {2016}}{\APACexlab {{\BCnt {1}}}}}}
\bibcite{CNPM2016a}{\citeauthoryear {{Comisi\'on Nacional de Precios de Medicamentos y Dispositivos M\'edicos}}{{Comisi\'on Nacional de Precios de Medicamentos y Dispositivos M\'edicos}}{{\APACyear {2016}}{\APACexlab {{\BCnt {2}}}}}}
\APACbibcite{CNPM2016a}{\citeauthoryear {{Comisi\'on Nacional de Precios de Medicamentos y Dispositivos M\'edicos}}{{Comisi\'on Nacional de Precios de Medicamentos y Dispositivos M\'edicos}}{{\APACyear {2016}}{\APACexlab {{\BCnt {2}}}}}}
\bibcite{COMISINDEREGULACINENSALUD2009}{\citeauthoryear {{Comision de Regulacion en Salud}}{{Comision de Regulacion en Salud}}{{\APACyear {2009}}{\APACexlab {{\BCnt {1}}}}}}
\APACbibcite{COMISINDEREGULACINENSALUD2009}{\citeauthoryear {{Comision de Regulacion en Salud}}{{Comision de Regulacion en Salud}}{{\APACyear {2009}}{\APACexlab {{\BCnt {1}}}}}}
\bibcite{COMISINDEREGULACINENSALUD2009a}{\citeauthoryear {{Comision de Regulacion en Salud}}{{Comision de Regulacion en Salud}}{{\APACyear {2009}}{\APACexlab {{\BCnt {2}}}}}}
\APACbibcite{COMISINDEREGULACINENSALUD2009a}{\citeauthoryear {{Comision de Regulacion en Salud}}{{Comision de Regulacion en Salud}}{{\APACyear {2009}}{\APACexlab {{\BCnt {2}}}}}}
\bibcite{COMISINDEREGULACINENSALUD2010}{\citeauthoryear {{Comision de Regulacion en Salud}}{{Comision de Regulacion en Salud}}{{\APACyear {2010}}}}
\APACbibcite{COMISINDEREGULACINENSALUD2010}{\citeauthoryear {{Comision de Regulacion en Salud}}{{Comision de Regulacion en Salud}}{{\APACyear {2010}}}}
\bibcite{COMISINDEREGULACINENSALUD2011}{\citeauthoryear {{Comision de Regulacion en Salud}}{{Comision de Regulacion en Salud}}{{\APACyear {2011}}{\APACexlab {{\BCnt {1}}}}}}
\APACbibcite{COMISINDEREGULACINENSALUD2011}{\citeauthoryear {{Comision de Regulacion en Salud}}{{Comision de Regulacion en Salud}}{{\APACyear {2011}}{\APACexlab {{\BCnt {1}}}}}}
\bibcite{COMISINDEREGULACINENSALUD2011a}{\citeauthoryear {{Comision de Regulacion en Salud}}{{Comision de Regulacion en Salud}}{{\APACyear {2011}}{\APACexlab {{\BCnt {2}}}}}}
\APACbibcite{COMISINDEREGULACINENSALUD2011a}{\citeauthoryear {{Comision de Regulacion en Salud}}{{Comision de Regulacion en Salud}}{{\APACyear {2011}}{\APACexlab {{\BCnt {2}}}}}}
\bibcite{COMISINDEREGULACINENSALUD2011b}{\citeauthoryear {{Comision de Regulacion en Salud}}{{Comision de Regulacion en Salud}}{{\APACyear {2011}}{\APACexlab {{\BCnt {3}}}}}}
\APACbibcite{COMISINDEREGULACINENSALUD2011b}{\citeauthoryear {{Comision de Regulacion en Salud}}{{Comision de Regulacion en Salud}}{{\APACyear {2011}}{\APACexlab {{\BCnt {3}}}}}}
\bibcite{COMISINDEREGULACINENSALUD2012}{\citeauthoryear {{Comision de Regulacion en Salud}}{{Comision de Regulacion en Salud}}{{\APACyear {2012}}}}
\APACbibcite{COMISINDEREGULACINENSALUD2012}{\citeauthoryear {{Comision de Regulacion en Salud}}{{Comision de Regulacion en Salud}}{{\APACyear {2012}}}}
\bibcite{CONSEJONACIONALDESEGURIDADSOCIALENSALUD2006a}{\citeauthoryear {{Consejo Nacional de Seguridad Social en Salud}}{{Consejo Nacional de Seguridad Social en Salud}}{{\APACyear {2006}}{\APACexlab {{\BCnt {1}}}}}}
\APACbibcite{CONSEJONACIONALDESEGURIDADSOCIALENSALUD2006a}{\citeauthoryear {{Consejo Nacional de Seguridad Social en Salud}}{{Consejo Nacional de Seguridad Social en Salud}}{{\APACyear {2006}}{\APACexlab {{\BCnt {1}}}}}}
\bibcite{CONSEJONACIONALDESEGURIDADSOCIALENSALUD2006}{\citeauthoryear {{Consejo Nacional de Seguridad Social en Salud}}{{Consejo Nacional de Seguridad Social en Salud}}{{\APACyear {2006}}{\APACexlab {{\BCnt {2}}}}}}
\APACbibcite{CONSEJONACIONALDESEGURIDADSOCIALENSALUD2006}{\citeauthoryear {{Consejo Nacional de Seguridad Social en Salud}}{{Consejo Nacional de Seguridad Social en Salud}}{{\APACyear {2006}}{\APACexlab {{\BCnt {2}}}}}}
\bibcite{CONSEJONACIONALDESEGURIDADSOCIALENSALUD2007a}{\citeauthoryear {{Consejo Nacional de Seguridad Social en Salud}}{{Consejo Nacional de Seguridad Social en Salud}}{{\APACyear {2007}}{\APACexlab {{\BCnt {1}}}}}}
\APACbibcite{CONSEJONACIONALDESEGURIDADSOCIALENSALUD2007a}{\citeauthoryear {{Consejo Nacional de Seguridad Social en Salud}}{{Consejo Nacional de Seguridad Social en Salud}}{{\APACyear {2007}}{\APACexlab {{\BCnt {1}}}}}}
\bibcite{CONSEJONACIONALDESEGURIDADSOCIALENSALUD2007}{\citeauthoryear {{Consejo Nacional de Seguridad Social en Salud}}{{Consejo Nacional de Seguridad Social en Salud}}{{\APACyear {2007}}{\APACexlab {{\BCnt {2}}}}}}
\APACbibcite{CONSEJONACIONALDESEGURIDADSOCIALENSALUD2007}{\citeauthoryear {{Consejo Nacional de Seguridad Social en Salud}}{{Consejo Nacional de Seguridad Social en Salud}}{{\APACyear {2007}}{\APACexlab {{\BCnt {2}}}}}}
\bibcite{Departamento2012}{\citeauthoryear {{Departamento Nacional de Planeacion}}{{Departamento Nacional de Planeacion}}{{\APACyear {2012}}}}
\APACbibcite{Departamento2012}{\citeauthoryear {{Departamento Nacional de Planeacion}}{{Departamento Nacional de Planeacion}}{{\APACyear {2012}}}}
\bibcite{Duggan2010}{\citeauthoryear {Duggan\ \BBA{} Scott~Morton}{Duggan\ \BBA{} Scott~Morton}{{\APACyear {2010}}}}
\APACbibcite{Duggan2010}{\citeauthoryear {Duggan\ \BBA{} Scott~Morton}{Duggan\ \BBA{} Scott~Morton}{{\APACyear {2010}}}}
\bibcite{Duggan2006}{\citeauthoryear {Duggan\ \BBA{} Scott~Morton}{Duggan\ \BBA{} Scott~Morton}{{\APACyear {2006}}}}
\APACbibcite{Duggan2006}{\citeauthoryear {Duggan\ \BBA{} Scott~Morton}{Duggan\ \BBA{} Scott~Morton}{{\APACyear {2006}}}}
\bibcite{Gaviria2013}{\citeauthoryear {Gaviria}{Gaviria}{{\APACyear {2013}}}}
\APACbibcite{Gaviria2013}{\citeauthoryear {Gaviria}{Gaviria}{{\APACyear {2013}}}}
\bibcite{Giedion2014}{\citeauthoryear {Giedion\ \BOthers {.}}{Giedion\ \BOthers {.}}{{\APACyear {2014}}}}
\APACbibcite{Giedion2014}{\citeauthoryear {Giedion\ \BOthers {.}}{Giedion\ \BOthers {.}}{{\APACyear {2014}}}}
\bibcite{Giedion2009}{\citeauthoryear {Giedion\ \BBA{} Uribe}{Giedion\ \BBA{} Uribe}{{\APACyear {2009}}}}
\APACbibcite{Giedion2009}{\citeauthoryear {Giedion\ \BBA{} Uribe}{Giedion\ \BBA{} Uribe}{{\APACyear {2009}}}}
\bibcite{GomezSuarez2007}{\citeauthoryear {G\'omez-Su\'arez}{G\'omez-Su\'arez}{{\APACyear {2007}}}}
\APACbibcite{GomezSuarez2007}{\citeauthoryear {G\'omez-Su\'arez}{G\'omez-Su\'arez}{{\APACyear {2007}}}}
\bibcite{Gruber1996}{\citeauthoryear {Gruber\ \BBA{} Owings}{Gruber\ \BBA{} Owings}{{\APACyear {1996}}}}
\APACbibcite{Gruber1996}{\citeauthoryear {Gruber\ \BBA{} Owings}{Gruber\ \BBA{} Owings}{{\APACyear {1996}}}}
\bibcite{Iizuka2007}{\citeauthoryear {Iizuka}{Iizuka}{{\APACyear {2007}}}}
\APACbibcite{Iizuka2007}{\citeauthoryear {Iizuka}{Iizuka}{{\APACyear {2007}}}}
\bibcite{Iizuka2012}{\citeauthoryear {Iizuka}{Iizuka}{{\APACyear {2012}}}}
\APACbibcite{Iizuka2012}{\citeauthoryear {Iizuka}{Iizuka}{{\APACyear {2012}}}}
\bibcite{Leu2009}{\citeauthoryear {Leu, Rutten, Brouwer, Matter,{}\ \BBA{} Rutschi}{Leu\ \BOthers {.}}{{\APACyear {2009}}}}
\APACbibcite{Leu2009}{\citeauthoryear {Leu, Rutten, Brouwer, Matter,{}\ \BBA{} Rutschi}{Leu\ \BOthers {.}}{{\APACyear {2009}}}}
\bibcite{MSH2012}{\citeauthoryear {{Management Sciences for Health}}{{Management Sciences for Health}}{{\APACyear {2012}}}}
\APACbibcite{MSH2012}{\citeauthoryear {{Management Sciences for Health}}{{Management Sciences for Health}}{{\APACyear {2012}}}}
\bibcite{MINISTERIODESALUDYPROTECCINSOCIAL2010}{\citeauthoryear {{Ministerio de Salud y Proteccion Social}}{{Ministerio de Salud y Proteccion Social}}{{\APACyear {2010}}}}
\APACbibcite{MINISTERIODESALUDYPROTECCINSOCIAL2010}{\citeauthoryear {{Ministerio de Salud y Proteccion Social}}{{Ministerio de Salud y Proteccion Social}}{{\APACyear {2010}}}}
\bibcite{MINISTERIODESALUDYPROTECCINSOCIAL2011a}{\citeauthoryear {{Ministerio de Salud y Proteccion Social}}{{Ministerio de Salud y Proteccion Social}}{{\APACyear {2011}}{\APACexlab {{\BCnt {1}}}}}}
\APACbibcite{MINISTERIODESALUDYPROTECCINSOCIAL2011a}{\citeauthoryear {{Ministerio de Salud y Proteccion Social}}{{Ministerio de Salud y Proteccion Social}}{{\APACyear {2011}}{\APACexlab {{\BCnt {1}}}}}}
\bibcite{MINISTERIODESALUDYPROTECCINSOCIAL2011b}{\citeauthoryear {{Ministerio de Salud y Proteccion Social}}{{Ministerio de Salud y Proteccion Social}}{{\APACyear {2011}}{\APACexlab {{\BCnt {2}}}}}}
\APACbibcite{MINISTERIODESALUDYPROTECCINSOCIAL2011b}{\citeauthoryear {{Ministerio de Salud y Proteccion Social}}{{Ministerio de Salud y Proteccion Social}}{{\APACyear {2011}}{\APACexlab {{\BCnt {2}}}}}}
\bibcite{MINISTERIODESALUDYPROTECCINSOCIAL2011c}{\citeauthoryear {{Ministerio de Salud y Proteccion Social}}{{Ministerio de Salud y Proteccion Social}}{{\APACyear {2011}}{\APACexlab {{\BCnt {3}}}}}}
\APACbibcite{MINISTERIODESALUDYPROTECCINSOCIAL2011c}{\citeauthoryear {{Ministerio de Salud y Proteccion Social}}{{Ministerio de Salud y Proteccion Social}}{{\APACyear {2011}}{\APACexlab {{\BCnt {3}}}}}}
\bibcite{MINISTERIODESALUDYPROTECCINSOCIAL2011d}{\citeauthoryear {{Ministerio de Salud y Proteccion Social}}{{Ministerio de Salud y Proteccion Social}}{{\APACyear {2011}}{\APACexlab {{\BCnt {4}}}}}}
\APACbibcite{MINISTERIODESALUDYPROTECCINSOCIAL2011d}{\citeauthoryear {{Ministerio de Salud y Proteccion Social}}{{Ministerio de Salud y Proteccion Social}}{{\APACyear {2011}}{\APACexlab {{\BCnt {4}}}}}}
\bibcite{MINISTERIODESALUDYPROTECCINSOCIAL2011e}{\citeauthoryear {{Ministerio de Salud y Proteccion Social}}{{Ministerio de Salud y Proteccion Social}}{{\APACyear {2011}}{\APACexlab {{\BCnt {5}}}}}}
\APACbibcite{MINISTERIODESALUDYPROTECCINSOCIAL2011e}{\citeauthoryear {{Ministerio de Salud y Proteccion Social}}{{Ministerio de Salud y Proteccion Social}}{{\APACyear {2011}}{\APACexlab {{\BCnt {5}}}}}}
\bibcite{MINISTERIODESALUDYPROTECCINSOCIAL2011}{\citeauthoryear {{Ministerio de Salud y Proteccion Social}}{{Ministerio de Salud y Proteccion Social}}{{\APACyear {2011}}{\APACexlab {{\BCnt {6}}}}}}
\APACbibcite{MINISTERIODESALUDYPROTECCINSOCIAL2011}{\citeauthoryear {{Ministerio de Salud y Proteccion Social}}{{Ministerio de Salud y Proteccion Social}}{{\APACyear {2011}}{\APACexlab {{\BCnt {6}}}}}}
\bibcite{MINISTERIODESALUDYPROTECCINSOCIAL2012}{\citeauthoryear {{Ministerio de Salud y Proteccion Social}}{{Ministerio de Salud y Proteccion Social}}{{\APACyear {2012}}}}
\APACbibcite{MINISTERIODESALUDYPROTECCINSOCIAL2012}{\citeauthoryear {{Ministerio de Salud y Proteccion Social}}{{Ministerio de Salud y Proteccion Social}}{{\APACyear {2012}}}}
\bibcite{MINISTERIODESALUDYPROTECCINSOCIAL2013}{\citeauthoryear {{Ministerio de Salud y Proteccion Social}}{{Ministerio de Salud y Proteccion Social}}{{\APACyear {2013}}}}
\APACbibcite{MINISTERIODESALUDYPROTECCINSOCIAL2013}{\citeauthoryear {{Ministerio de Salud y Proteccion Social}}{{Ministerio de Salud y Proteccion Social}}{{\APACyear {2013}}}}
\bibcite{MINISTERIODESALUDYPROTECCINSOCIAL2014}{\citeauthoryear {{Ministerio de Salud y Proteccion Social}}{{Ministerio de Salud y Proteccion Social}}{{\APACyear {2014}}}}
\APACbibcite{MINISTERIODESALUDYPROTECCINSOCIAL2014}{\citeauthoryear {{Ministerio de Salud y Proteccion Social}}{{Ministerio de Salud y Proteccion Social}}{{\APACyear {2014}}}}
\bibcite{MINISTERIODESALUDYPROTECCINSOCIAL2015a}{\citeauthoryear {{Ministerio de Salud y Proteccion Social}}{{Ministerio de Salud y Proteccion Social}}{{\APACyear {2015}}{\APACexlab {{\BCnt {1}}}}}}
\APACbibcite{MINISTERIODESALUDYPROTECCINSOCIAL2015a}{\citeauthoryear {{Ministerio de Salud y Proteccion Social}}{{Ministerio de Salud y Proteccion Social}}{{\APACyear {2015}}{\APACexlab {{\BCnt {1}}}}}}
\bibcite{MINISTERIODESALUDYPROTECCINSOCIAL2015}{\citeauthoryear {{Ministerio de Salud y Proteccion Social}}{{Ministerio de Salud y Proteccion Social}}{{\APACyear {2015}}{\APACexlab {{\BCnt {2}}}}}}
\APACbibcite{MINISTERIODESALUDYPROTECCINSOCIAL2015}{\citeauthoryear {{Ministerio de Salud y Proteccion Social}}{{Ministerio de Salud y Proteccion Social}}{{\APACyear {2015}}{\APACexlab {{\BCnt {2}}}}}}
\bibcite{Milgrom1990}{\citeauthoryear {Paul~Milgrom}{Paul~Milgrom}{{\APACyear {1990}}}}
\APACbibcite{Milgrom1990}{\citeauthoryear {Paul~Milgrom}{Paul~Milgrom}{{\APACyear {1990}}}}
\bibcite{Roberts2011}{\citeauthoryear {Roberts\ \BBA{} Reich}{Roberts\ \BBA{} Reich}{{\APACyear {2011}}}}
\APACbibcite{Roberts2011}{\citeauthoryear {Roberts\ \BBA{} Reich}{Roberts\ \BBA{} Reich}{{\APACyear {2011}}}}
\bibcite{Semana2014}{\citeauthoryear {Semana}{Semana}{{\APACyear {2014}}}}
\APACbibcite{Semana2014}{\citeauthoryear {Semana}{Semana}{{\APACyear {2014}}}}
\bibcite{Shepard2015}{\citeauthoryear {Shepard}{Shepard}{{\APACyear {2015}}}}
\APACbibcite{Shepard2015}{\citeauthoryear {Shepard}{Shepard}{{\APACyear {2015}}}}
\bibcite{NYT2015b}{\citeauthoryear {{The New York Times}}{{The New York Times}}{{\APACyear {2015}}{\APACexlab {{\BCnt {1}}}}}}
\APACbibcite{NYT2015b}{\citeauthoryear {{The New York Times}}{{The New York Times}}{{\APACyear {2015}}{\APACexlab {{\BCnt {1}}}}}}
\bibcite{NYT2015c}{\citeauthoryear {{The New York Times}}{{The New York Times}}{{\APACyear {2015}}{\APACexlab {{\BCnt {2}}}}}}
\APACbibcite{NYT2015c}{\citeauthoryear {{The New York Times}}{{The New York Times}}{{\APACyear {2015}}{\APACexlab {{\BCnt {2}}}}}}
\bibcite{NYT2015}{\citeauthoryear {{The New York Times}}{{The New York Times}}{{\APACyear {2015}}{\APACexlab {{\BCnt {3}}}}}}
\APACbibcite{NYT2015}{\citeauthoryear {{The New York Times}}{{The New York Times}}{{\APACyear {2015}}{\APACexlab {{\BCnt {3}}}}}}
\bibcite{NYT2015a}{\citeauthoryear {{The New York Times}}{{The New York Times}}{{\APACyear {2015}}{\APACexlab {{\BCnt {4}}}}}}
\APACbibcite{NYT2015a}{\citeauthoryear {{The New York Times}}{{The New York Times}}{{\APACyear {2015}}{\APACexlab {{\BCnt {4}}}}}}
\bibcite{UnitedStatesCode2006}{\citeauthoryear {{United States Congress}}{{United States Congress}}{{\APACyear {2006}}}}
\APACbibcite{UnitedStatesCode2006}{\citeauthoryear {{United States Congress}}{{United States Congress}}{{\APACyear {2006}}}}
\bibcite{Uprimny2014}{\citeauthoryear {Uprimny\ \BBA{} Dur{\'a}n}{Uprimny\ \BBA{} Dur{\'a}n}{{\APACyear {2014}}}}
\APACbibcite{Uprimny2014}{\citeauthoryear {Uprimny\ \BBA{} Dur{\'a}n}{Uprimny\ \BBA{} Dur{\'a}n}{{\APACyear {2014}}}}
\bibcite{Vaca2015}{\citeauthoryear {Vaca}{Vaca}{{\APACyear {2015}}}}
\APACbibcite{Vaca2015}{\citeauthoryear {Vaca}{Vaca}{{\APACyear {2015}}}}
\bibcite{Vacca2011}{\citeauthoryear {Vacca, Acosta,{}\ \BBA{} Rodriguez}{Vacca\ \BOthers {.}}{{\APACyear {2011}}}}
\APACbibcite{Vacca2011}{\citeauthoryear {Vacca, Acosta,{}\ \BBA{} Rodriguez}{Vacca\ \BOthers {.}}{{\APACyear {2011}}}}
\bibcite{Webster2012}{\citeauthoryear {Webster}{Webster}{{\APACyear {2012}}}}
\APACbibcite{Webster2012}{\citeauthoryear {Webster}{Webster}{{\APACyear {2012}}}}
\bibcite{MEDI2013}{\citeauthoryear {Wei\ \BOthers {.}}{Wei\ \BOthers {.}}{{\APACyear {2013}}}}
\APACbibcite{MEDI2013}{\citeauthoryear {Wei\ \BOthers {.}}{Wei\ \BOthers {.}}{{\APACyear {2013}}}}
\bibcite{WorldBank2013}{\citeauthoryear {{World Bank}}{{World Bank}}{{\APACyear {2013}}}}
\APACbibcite{WorldBank2013}{\citeauthoryear {{World Bank}}{{World Bank}}{{\APACyear {2013}}}}
\bibcite{TTD2016}{\citeauthoryear {Yang\ \BOthers {.}}{Yang\ \BOthers {.}}{{\APACyear {2016}}}}
\APACbibcite{TTD2016}{\citeauthoryear {Yang\ \BOthers {.}}{Yang\ \BOthers {.}}{{\APACyear {2016}}}}
\bibcite{Zapata2012}{\citeauthoryear {Zapata, Bernal, Castillo,{}\ \BBA{} Garzon}{Zapata\ \BOthers {.}}{{\APACyear {2012}}}}
\APACbibcite{Zapata2012}{\citeauthoryear {Zapata, Bernal, Castillo,{}\ \BBA{} Garzon}{Zapata\ \BOthers {.}}{{\APACyear {2012}}}}
\citation{CONSEJONACIONALDESEGURIDADSOCIALENSALUD2006}
\citation{CONSEJONACIONALDESEGURIDADSOCIALENSALUD2006a}
\citation{CONSEJONACIONALDESEGURIDADSOCIALENSALUD2007a}
\citation{CONSEJONACIONALDESEGURIDADSOCIALENSALUD2007}
\citation{COMISINDEREGULACINENSALUD2009}
\citation{COMISINDEREGULACINENSALUD2009a}
\citation{COMISINDEREGULACINENSALUD2010}
\citation{COMISINDEREGULACINENSALUD2011}
\citation{COMISINDEREGULACINENSALUD2011a}
\citation{COMISINDEREGULACINENSALUD2011b}
\citation{COMISINDEREGULACINENSALUD2012}
\citation{MINISTERIODESALUDYPROTECCINSOCIAL2013}
\citation{MINISTERIODESALUDYPROTECCINSOCIAL2014}
\citation{MINISTERIODESALUDYPROTECCINSOCIAL2015}
\citation{CONSEJONACIONALDESEGURIDADSOCIALENSALUD2006}
\citation{CONSEJONACIONALDESEGURIDADSOCIALENSALUD2006a}
\citation{CONSEJONACIONALDESEGURIDADSOCIALENSALUD2007a}
\citation{CONSEJONACIONALDESEGURIDADSOCIALENSALUD2007}
\citation{COMISINDEREGULACINENSALUD2009}
\citation{COMISINDEREGULACINENSALUD2009a}
\citation{COMISINDEREGULACINENSALUD2010}
\citation{COMISINDEREGULACINENSALUD2011}
\citation{COMISINDEREGULACINENSALUD2011a}
\citation{COMISINDEREGULACINENSALUD2011b}
\citation{COMISINDEREGULACINENSALUD2012}
\citation{MINISTERIODESALUDYPROTECCINSOCIAL2013}
\citation{MINISTERIODESALUDYPROTECCINSOCIAL2014}
\citation{MINISTERIODESALUDYPROTECCINSOCIAL2015}
\@writefile{lof}{\contentsline {figure}{\numberline {1}{\ignorespaces Number of drugs introduced into the POS by year. \textit  {Source:} \citeA {CONSEJONACIONALDESEGURIDADSOCIALENSALUD2006,CONSEJONACIONALDESEGURIDADSOCIALENSALUD2006a, CONSEJONACIONALDESEGURIDADSOCIALENSALUD2007a,CONSEJONACIONALDESEGURIDADSOCIALENSALUD2007,COMISINDEREGULACINENSALUD2009, COMISINDEREGULACINENSALUD2009a,COMISINDEREGULACINENSALUD2010,COMISINDEREGULACINENSALUD2011, COMISINDEREGULACINENSALUD2011a,COMISINDEREGULACINENSALUD2011b,COMISINDEREGULACINENSALUD2012, MINISTERIODESALUDYPROTECCINSOCIAL2013,MINISTERIODESALUDYPROTECCINSOCIAL2014,MINISTERIODESALUDYPROTECCINSOCIAL2015}. \textit  {Calculations:} Author.\relax }}{30}{figure.caption.13}}
\providecommand*\caption@xref[2]{\@setref\relax\@undefined{#1}}
\newlabel{fig:add_pos}{{1}{30}{Number of drugs introduced into the POS by year. \textit {Source:} \protect \citeA {CONSEJONACIONALDESEGURIDADSOCIALENSALUD2006,CONSEJONACIONALDESEGURIDADSOCIALENSALUD2006a, CONSEJONACIONALDESEGURIDADSOCIALENSALUD2007a,CONSEJONACIONALDESEGURIDADSOCIALENSALUD2007,COMISINDEREGULACINENSALUD2009, COMISINDEREGULACINENSALUD2009a,COMISINDEREGULACINENSALUD2010,COMISINDEREGULACINENSALUD2011, COMISINDEREGULACINENSALUD2011a,COMISINDEREGULACINENSALUD2011b,COMISINDEREGULACINENSALUD2012, MINISTERIODESALUDYPROTECCINSOCIAL2013,MINISTERIODESALUDYPROTECCINSOCIAL2014,MINISTERIODESALUDYPROTECCINSOCIAL2015}. \textit {Calculations:} Author.\relax }{figure.caption.13}{}}
\newlabel{fig:timing1}{{2a}{31}{Generic\relax }{figure.caption.14}{}}
\newlabel{sub@fig:timing1}{{a}{31}{Generic\relax }{figure.caption.14}{}}
\newlabel{fig:timing3}{{2b}{31}{Price regulation\relax }{figure.caption.14}{}}
\newlabel{sub@fig:timing3}{{b}{31}{Price regulation\relax }{figure.caption.14}{}}
\newlabel{fig:timing2}{{2c}{31}{Competitors\relax }{figure.caption.14}{}}
\newlabel{sub@fig:timing2}{{c}{31}{Competitors\relax }{figure.caption.14}{}}
\@writefile{lof}{\contentsline {figure}{\numberline {2}{\ignorespaces These graphs show the coefficients from leads and lags of the year of inclusion to the benefit plan from regressions that control for drug and year fixed effects. The dots represent point estimates, while the bars represent 95\% confidence intervals. Panel \ref  {fig:timing1} shows how the presence of generics in the market with the same ATC code changes before and after a drug is listed in the benefit plan. Panel \ref  {fig:timing3} shows how price regulations changes before and after a drug is listed in the benefit plan. Panel \ref  {fig:timing2} shows how the (log) number of competitors with the same ATC code changes before and after a drug is listed in the benefit plan. Data: SISMED and INVIMA. Calculations: Author.\relax }}{31}{figure.caption.14}}
\newlabel{fig:timing1_early}{{3a}{32}{First ATC code Generic\relax }{figure.caption.15}{}}
\newlabel{sub@fig:timing1_early}{{a}{32}{First ATC code Generic\relax }{figure.caption.15}{}}
\newlabel{fig:timing3_early}{{3b}{32}{Price regulation\relax }{figure.caption.15}{}}
\newlabel{sub@fig:timing3_early}{{b}{32}{Price regulation\relax }{figure.caption.15}{}}
\newlabel{fig:timing2_early}{{3c}{32}{Competitors\relax }{figure.caption.15}{}}
\newlabel{sub@fig:timing2_early}{{c}{32}{Competitors\relax }{figure.caption.15}{}}
\@writefile{lof}{\contentsline {figure}{\numberline {3}{\ignorespaces These graphs show the coefficients from leads and lags of the year of inclusion to the benefit plan for ``early entrants'' (i.e., drugs that are the first of their ATC code to be listed) from regressions that control for drug and year fixed effects. The dots represent point estimates, while the bars represent 95\% confidence intervals. Panel \ref  {fig:timing1_early} shows how the presence of generics in the market with the same ATC code changes before and after a drug is listed in the benefit plan. Panel \ref  {fig:timing3_early} shows how price regulations changes before and after a drug is listed in the benefit plan. Panel \ref  {fig:timing2_early} shows how the (log) number of competitors with the same ATC code changes before and after a drug is listed in the benefit plan. Data: SISMED and INVIMA. Calculations: Author. \relax }}{32}{figure.caption.15}}
\newlabel{fig:timing_early}{{3}{32}{These graphs show the coefficients from leads and lags of the year of inclusion to the benefit plan for ``early entrants'' (i.e., drugs that are the first of their ATC code to be listed) from regressions that control for drug and year fixed effects. The dots represent point estimates, while the bars represent 95\% confidence intervals. Panel \ref {fig:timing1_early} shows how the presence of generics in the market with the same ATC code changes before and after a drug is listed in the benefit plan. Panel \ref {fig:timing3_early} shows how price regulations changes before and after a drug is listed in the benefit plan. Panel \ref {fig:timing2_early} shows how the (log) number of competitors with the same ATC code changes before and after a drug is listed in the benefit plan. Data: SISMED and INVIMA. Calculations: Author. \relax }{figure.caption.15}{}}
\newlabel{fig:timing1_late}{{4a}{33}{First ATC code Generic\relax }{figure.caption.16}{}}
\newlabel{sub@fig:timing1_late}{{a}{33}{First ATC code Generic\relax }{figure.caption.16}{}}
\newlabel{fig:timing3_late}{{4b}{33}{Price regulation\relax }{figure.caption.16}{}}
\newlabel{sub@fig:timing3_late}{{b}{33}{Price regulation\relax }{figure.caption.16}{}}
\newlabel{fig:timing2_late}{{4c}{33}{Competitors\relax }{figure.caption.16}{}}
\newlabel{sub@fig:timing2_late}{{c}{33}{Competitors\relax }{figure.caption.16}{}}
\@writefile{lof}{\contentsline {figure}{\numberline {4}{\ignorespaces These graphs show the coefficients from leads and lags of the year of inclusion to the benefit for ``late entrants'' (i.e., drugs listed after other drugs with the same ATC code are already listed) from regressions that control for drug and year fixed effects. The dots represent point estimates, while the bars represent 95\% confidence intervals. Panel \ref  {fig:timing1_late} shows how the presence of generics in the market with the same ATC code changes before and after a drug is listed in the benefit plan. Panel \ref  {fig:timing3_late} shows how price regulations changes before and after a drug is listed in the benefit plan. Panel \ref  {fig:timing2_late} shows how the (log) number of competitors with the same ATC code changes before and after a drug is listed in the benefit plan. Data: SISMED and INVIMA. Calculations: Author. \relax }}{33}{figure.caption.16}}
\newlabel{fig:timing_late}{{4}{33}{These graphs show the coefficients from leads and lags of the year of inclusion to the benefit for ``late entrants'' (i.e., drugs listed after other drugs with the same ATC code are already listed) from regressions that control for drug and year fixed effects. The dots represent point estimates, while the bars represent 95\% confidence intervals. Panel \ref {fig:timing1_late} shows how the presence of generics in the market with the same ATC code changes before and after a drug is listed in the benefit plan. Panel \ref {fig:timing3_late} shows how price regulations changes before and after a drug is listed in the benefit plan. Panel \ref {fig:timing2_late} shows how the (log) number of competitors with the same ATC code changes before and after a drug is listed in the benefit plan. Data: SISMED and INVIMA. Calculations: Author. \relax }{figure.caption.16}{}}
\newlabel{fig:eve_pos_price}{{5a}{34}{Price\relax }{figure.caption.17}{}}
\newlabel{sub@fig:eve_pos_price}{{a}{34}{Price\relax }{figure.caption.17}{}}
\newlabel{fig:eve_pos_quantity}{{5b}{34}{Quantity\relax }{figure.caption.17}{}}
\newlabel{sub@fig:eve_pos_quantity}{{b}{34}{Quantity\relax }{figure.caption.17}{}}
\@writefile{lof}{\contentsline {figure}{\numberline {5}{\ignorespaces These graphs show the coefficients from leads and lags of the year of inclusion to the benefit plan from regressions that control for drug fixed effects, ATC-specific time trends, and drops outliers from the estimation. The dots represent point estimates, while the bars represent 95\% confidence intervals. Panel \ref  {fig:eve_pos_price} shows the effect of including a drug in the benefit plan (POS) on its price. Panel \ref  {fig:eve_pos_quantity} shows the effect of including a drug in the benefit plan (POS) on the quantities sold. Source: SISMED and INVIMA. Calculations: Author.\relax }}{34}{figure.caption.17}}
\@writefile{lof}{\contentsline {figure}{\numberline {6}{\ignorespaces Price\relax }}{35}{figure.caption.18}}
\newlabel{fig:het_competencia}{{6}{35}{Price\relax }{figure.caption.18}{}}
\@writefile{lof}{\contentsline {figure}{\numberline {7}{\ignorespaces These graphs show the coefficients from interacting the number of competitors with a dummy indicating whether the drug is listed in the benefit plan or not (the $alpha_j$s in equation \ref  {eq:het_competencia}). The regression controls for drug fixed effects, ATC-specific time trends and use a balance panel of drugs without outliers. The dots represent point estimates, while the bars represent 95\% confidence intervals. Source: SISMED and INVIMA. Calculations: Author.\relax }}{35}{figure.caption.18}}
\@writefile{lot}{\contentsline {table}{\numberline {1}{\ignorespaces Summary statistics for drugs with some observations and a maximum/minimum price ratio under 30\relax }}{36}{table.1}}
\newlabel{tab:descr2}{{1}{36}{Summary statistics for drugs with some observations and a maximum/minimum price ratio under 30\relax }{table.1}{}}
\@writefile{lot}{\contentsline {table}{\numberline {2}{\ignorespaces Timing and other regulatory changes\relax }}{37}{table.2}}
\newlabel{tab:timing}{{2}{37}{Timing and other regulatory changes\relax }{table.2}{}}
\@writefile{lot}{\contentsline {table}{\numberline {3}{\ignorespaces Effect on a drug's price of including the drug to the benefit plan \relax }}{38}{table.3}}
\newlabel{tab:POS}{{3}{38}{Effect on a drug's price of including the drug to the benefit plan \relax }{table.3}{}}
\@writefile{lot}{\contentsline {table}{\numberline {4}{\ignorespaces Effect of including a drug in the health plan on the quantities sold \relax }}{39}{table.4}}
\newlabel{tab:POS2}{{4}{39}{Effect of including a drug in the health plan on the quantities sold \relax }{table.4}{}}
\@writefile{lot}{\contentsline {table}{\numberline {5}{\ignorespaces Effect of including a drug in the health plan on the quantities sold \relax }}{40}{table.5}}
\newlabel{tab:POS3}{{5}{40}{Effect of including a drug in the health plan on the quantities sold \relax }{table.5}{}}
\@writefile{lot}{\contentsline {table}{\numberline {6}{\ignorespaces Effect of including a drug in the health plan for locally produced vs. imported drugs \relax }}{41}{table.6}}
\newlabel{tab:POS_ROB2}{{6}{41}{Effect of including a drug in the health plan for locally produced vs. imported drugs \relax }{table.6}{}}
\@writefile{lot}{\contentsline {table}{\numberline {7}{\ignorespaces Effect of including a drug in the health plan by age\relax }}{42}{table.7}}
\newlabel{tab:POS_ROB3}{{7}{42}{Effect of including a drug in the health plan by age\relax }{table.7}{}}
\@writefile{lot}{\contentsline {table}{\numberline {8}{\ignorespaces Effect of including a drug in the health plan by \relax }}{43}{table.8}}
\newlabel{tab:POS_ROB5}{{8}{43}{Effect of including a drug in the health plan by \relax }{table.8}{}}
\@writefile{lot}{\contentsline {table}{\numberline {9}{\ignorespaces Effect of including a drug in the benefit plan on the price of therapeutic substitutes that are not in the plan\relax }}{44}{table.9}}
\newlabel{tab:competitors_NOPOS}{{9}{44}{Effect of including a drug in the benefit plan on the price of therapeutic substitutes that are not in the plan\relax }{table.9}{}}
\@writefile{lot}{\contentsline {table}{\numberline {10}{\ignorespaces Effect on a drug's price of including the drug to the benefit plan \relax }}{45}{table.10}}
\newlabel{tab:POS_decompose}{{10}{45}{Effect on a drug's price of including the drug to the benefit plan \relax }{table.10}{}}
\@writefile{toc}{\contentsline {section}{\numberline {A}Average price across presentations}{46}{appendix.A}}
\newlabel{appendix:average_price}{{A}{46}{Average price across presentations}{appendix.A}{}}
\@writefile{lot}{\contentsline {table}{\numberline {A.1}{\ignorespaces Different presentations for Ibuprofeno MK\textregistered \ and their standardized price.\relax }}{46}{table.1}}
\newlabel{tab:standPrice}{{A.1}{46}{Different presentations for Ibuprofeno MK\textregistered \ and their standardized price.\relax }{table.1}{}}
\@writefile{toc}{\contentsline {section}{\numberline {B}Extra tables}{47}{appendix.B}}
\newlabel{sec:extra_tables}{{B}{47}{Extra tables}{appendix.B}{}}
\@writefile{lot}{\contentsline {table}{\numberline {B.1}{\ignorespaces Types of drugs and availability of price information\relax }}{47}{table.1}}
\newlabel{tab:diff_charac}{{B.1}{47}{Types of drugs and availability of price information\relax }{table.1}{}}
\@writefile{lot}{\contentsline {table}{\numberline {B.2}{\ignorespaces Summary statistics for drugs with some observations with some observations and a maximum,/minimum price ratio under 30\relax }}{47}{table.2}}
\newlabel{tab:descr}{{B.2}{47}{Summary statistics for drugs with some observations with some observations and a maximum,/minimum price ratio under 30\relax }{table.2}{}}
\@writefile{lot}{\contentsline {table}{\numberline {B.3}{\ignorespaces Summary statistics for drugs with some observations and a maximum,/minimum price ratio under 10\relax }}{48}{table.3}}
\newlabel{tab:descr3}{{B.3}{48}{Summary statistics for drugs with some observations and a maximum,/minimum price ratio under 10\relax }{table.3}{}}
\@writefile{lot}{\contentsline {table}{\numberline {B.4}{\ignorespaces Effect on a drug's price of including the drug to the benefit plan \relax }}{49}{table.4}}
\newlabel{tab:POS_early_late}{{B.4}{49}{Effect on a drug's price of including the drug to the benefit plan \relax }{table.4}{}}
\@writefile{toc}{\contentsline {section}{\numberline {C}Extra figures}{50}{appendix.C}}
\newlabel{sec:extra_fig}{{C}{50}{Extra figures}{appendix.C}{}}
\newlabel{fig:eve_pos_price}{{C.1a}{50}{Price\relax }{figure.caption.20}{}}
\newlabel{sub@fig:eve_pos_price}{{a}{50}{Price\relax }{figure.caption.20}{}}
\newlabel{fig:eve_pos_quantity}{{C.1b}{50}{Quantity\relax }{figure.caption.20}{}}
\newlabel{sub@fig:eve_pos_quantity}{{b}{50}{Quantity\relax }{figure.caption.20}{}}
\@writefile{lof}{\contentsline {figure}{\numberline {C.1}{\ignorespaces These graphs show the coefficients from leads and lags of the year of inclusion to the benefit plan from regressions that control for drug fixed effects, ATC by year fixed effects, and drops outliers from the estimation. The dots represent point estimates, while the bars represent 95\% confidence intervals. Panel \ref  {fig:eve_pos_price} shows the effect of including a drug in the benefit plan (POS) on its price. Panel \ref  {fig:eve_pos_quantity} shows the effect of including a drug in the benefit plan (POS) on the quantities sold. Source: SISMED and INVIMA. Calculations: Author.\relax }}{50}{figure.caption.20}}
\@writefile{lof}{\contentsline {figure}{\numberline {C.2}{\ignorespaces  Event study for the effect of including a drug in the POS on its price. The sample is restricted to drugs that enter the benefit plan in 2012 and drugs that are always in the benefit plan or are never in it. \textit  {Data:} SISMED and INVIMA. \textit  {Calculations:} Author. \relax }}{51}{figure.caption.21}}
\newlabel{fig:eve_pos_price_2012}{{C.2}{51}{Event study for the effect of including a drug in the POS on its price. The sample is restricted to drugs that enter the benefit plan in 2012 and drugs that are always in the benefit plan or are never in it. \textit {Data:} SISMED and INVIMA. \textit {Calculations:} Author. \relax }{figure.caption.21}{}}
\@writefile{lof}{\contentsline {figure}{\numberline {C.3}{\ignorespaces  Event study for the effect of including a drug in the POS on its price. The sample is restricted to drugs that enter the benefit plan in 2014 and drugs that are always in the benefit plan or are never in it. \textit  {Data:} SISMED and INVIMA. \textit  {Calculations:} Author. \relax }}{52}{figure.caption.22}}
\newlabel{fig:eve_pos_price_2014}{{C.3}{52}{Event study for the effect of including a drug in the POS on its price. The sample is restricted to drugs that enter the benefit plan in 2014 and drugs that are always in the benefit plan or are never in it. \textit {Data:} SISMED and INVIMA. \textit {Calculations:} Author. \relax }{figure.caption.22}{}}
\@writefile{lof}{\contentsline {figure}{\numberline {C.4}{\ignorespaces Event study for the effect of including a drug in the POS on its quantity. The sample is restricted to drugs that enter the benefit plan in 2012 and drugs that are always in the benefit plan or are never in it. \textit  {Data:} SISMED and INVIMA. \textit  {Calculations:} Author. \relax }}{53}{figure.caption.23}}
\newlabel{fig:eve_pos_q_2012}{{C.4}{53}{Event study for the effect of including a drug in the POS on its quantity. The sample is restricted to drugs that enter the benefit plan in 2012 and drugs that are always in the benefit plan or are never in it. \textit {Data:} SISMED and INVIMA. \textit {Calculations:} Author. \relax }{figure.caption.23}{}}
\@writefile{lof}{\contentsline {figure}{\numberline {C.5}{\ignorespaces Event study for the effect of including a drug in the POS on its quantity. The sample is restricted to drugs that enter the benefit plan in 2014 and drugs that are always in the benefit plan or are never in it. \textit  {Data:} SISMED and INVIMA. \textit  {Calculations:} Author. \relax }}{54}{figure.caption.24}}
\newlabel{fig:eve_pos_q_2014}{{C.5}{54}{Event study for the effect of including a drug in the POS on its quantity. The sample is restricted to drugs that enter the benefit plan in 2014 and drugs that are always in the benefit plan or are never in it. \textit {Data:} SISMED and INVIMA. \textit {Calculations:} Author. \relax }{figure.caption.24}{}}
\@writefile{toc}{\contentsline {section}{\numberline {D}Mathematical Derivations - Model Alt}{54}{appendix.D}}
\newlabel{appendix:algebra}{{D}{54}{Mathematical Derivations - Model Alt}{appendix.D}{}}
\citation{Milgrom1990}
\citation{CONSEJONACIONALDESEGURIDADSOCIALENSALUD2006}
\citation{CONSEJONACIONALDESEGURIDADSOCIALENSALUD2006a}
\citation{CONSEJONACIONALDESEGURIDADSOCIALENSALUD2007a}
\citation{CONSEJONACIONALDESEGURIDADSOCIALENSALUD2007}
\citation{COMISINDEREGULACINENSALUD2009}
\citation{COMISINDEREGULACINENSALUD2009a}
\citation{COMISINDEREGULACINENSALUD2010}
\citation{COMISINDEREGULACINENSALUD2011}
\citation{COMISINDEREGULACINENSALUD2011a}
\citation{COMISINDEREGULACINENSALUD2011b}
\citation{COMISINDEREGULACINENSALUD2012}
\citation{MINISTERIODESALUDYPROTECCINSOCIAL2013}
\citation{MINISTERIODESALUDYPROTECCINSOCIAL2014}
\citation{MINISTERIODESALUDYPROTECCINSOCIAL2015}
\citation{CNPM2010}
\citation{MINISTERIODESALUDYPROTECCINSOCIAL2010}
\citation{MINISTERIODESALUDYPROTECCINSOCIAL2011}
\citation{MINISTERIODESALUDYPROTECCINSOCIAL2011a}
\citation{MINISTERIODESALUDYPROTECCINSOCIAL2011b}
\citation{MINISTERIODESALUDYPROTECCINSOCIAL2011c}
\citation{MINISTERIODESALUDYPROTECCINSOCIAL2011d}
\citation{MINISTERIODESALUDYPROTECCINSOCIAL2011e}
\citation{MINISTERIODESALUDYPROTECCINSOCIAL2012}
\citation{CNPM2013}
\citation{CNPM2013a}
\citation{CNPM2013b}
\citation{CNPM2011}
\citation{CNPM2012}
\citation{CNPM2012a}
\citation{CNPM2012b}
\citation{CNPM2013}
\citation{CNPM2013a}
\citation{CNPM2013c}
\citation{CNPM2013b}
\citation{CNPM2014}
\citation{MINISTERIODESALUDYPROTECCINSOCIAL2015a}
\citation{CNPM2016}
\citation{CNPM2016a}
\@writefile{toc}{\contentsline {section}{\numberline {E}Data Appendix}{59}{appendix.E}}
\newlabel{sec:data_details}{{E}{59}{Data Appendix}{appendix.E}{}}
