\relax 
\providecommand\hyper@newdestlabel[2]{}
\providecommand\zref@newlabel[2]{}
\providecommand\HyperFirstAtBeginDocument{\AtBeginDocument}
\HyperFirstAtBeginDocument{\ifx\hyper@anchor\@undefined
\global\let\oldcontentsline\contentsline
\gdef\contentsline#1#2#3#4{\oldcontentsline{#1}{#2}{#3}}
\global\let\oldnewlabel\newlabel
\gdef\newlabel#1#2{\newlabelxx{#1}#2}
\gdef\newlabelxx#1#2#3#4#5#6{\oldnewlabel{#1}{{#2}{#3}}}
\AtEndDocument{\ifx\hyper@anchor\@undefined
\let\contentsline\oldcontentsline
\let\newlabel\oldnewlabel
\fi}
\fi}
\global\let\hyper@last\relax 
\gdef\HyperFirstAtBeginDocument#1{#1}
\providecommand\HyField@AuxAddToFields[1]{}
\providecommand\HyField@AuxAddToCoFields[2]{}
\providecommand\AtEndDvi@Check{}
\AtEndDvi@Check
\providecommand \oddpage@label [2]{}
\@writefile{toc}{\beamer@endinputifotherversion {3.36pt}}
\@writefile{nav}{\beamer@endinputifotherversion {3.36pt}}
\@writefile{nav}{\headcommand {\slideentry {0}{0}{1}{1/1}{}{0}}}
\@writefile{nav}{\headcommand {\beamer@framepages {1}{1}}}
\citation{Darby1973}
\citation{MSH2012}
\@writefile{toc}{\beamer@sectionintoc {1}{Motivation}{2}{0}{1}}
\@writefile{nav}{\headcommand {\sectionentry {1}{Motivation}{2}{Motivation}{0}}}
\@writefile{nav}{\headcommand {\beamer@sectionpages {1}{1}}}
\@writefile{nav}{\headcommand {\beamer@subsectionpages {1}{1}}}
\citation{Darby1973}
\citation{MSH2012}
\citation{Darby1973}
\citation{MSH2012}
\citation{Darby1973}
\citation{MSH2012}
\citation{Darby1973}
\citation{MSH2012}
\citation{Darby1973}
\citation{MSH2012}
\citation{Darby1973}
\citation{MSH2012}
\citation{Darby1973}
\citation{MSH2012}
\citation{Darby1973}
\citation{MSH2012}
\citation{Darby1973}
\citation{MSH2012}
\@writefile{nav}{\headcommand {\slideentry {1}{0}{1}{2/11}{}{0}}}
\@writefile{nav}{\headcommand {\beamer@framepages {2}{11}}}
\@writefile{nav}{\headcommand {\slideentry {1}{0}{2}{12/12}{}{0}}}
\@writefile{nav}{\headcommand {\beamer@framepages {12}{12}}}
\@writefile{nav}{\headcommand {\slideentry {1}{0}{3}{13/13}{}{0}}}
\@writefile{nav}{\headcommand {\beamer@framepages {13}{13}}}
\citation{Duggan2006}
\citation{Brekke2009}
\citation{Brekke2011}
\citation{Duggan2010}
\citation{Alpert2013}
\citation{Arrow1963}
\citation{Gruber1996}
\citation{Iizuka2007}
\citation{Iizuka2012}
\citation{Clemens2014}
\@writefile{nav}{\headcommand {\slideentry {1}{0}{4}{14/14}{}{0}}}
\@writefile{nav}{\headcommand {\beamer@framepages {14}{14}}}
\@writefile{toc}{\beamer@sectionintoc {2}{Background}{15}{0}{2}}
\@writefile{nav}{\headcommand {\sectionentry {2}{Background}{15}{Background}{0}}}
\@writefile{nav}{\headcommand {\beamer@sectionpages {2}{14}}}
\@writefile{nav}{\headcommand {\beamer@subsectionpages {2}{14}}}
\@writefile{nav}{\headcommand {\slideentry {2}{0}{1}{15/15}{}{0}}}
\@writefile{nav}{\headcommand {\beamer@framepages {15}{15}}}
\@writefile{nav}{\headcommand {\slideentry {2}{0}{2}{16/16}{}{0}}}
\@writefile{nav}{\headcommand {\beamer@framepages {16}{16}}}
\@writefile{nav}{\headcommand {\slideentry {2}{0}{3}{17/17}{}{0}}}
\@writefile{nav}{\headcommand {\beamer@framepages {17}{17}}}
\providecommand*\caption@xref[2]{\@setref\relax\@undefined{#1}}
\newlabel{fig:add_pos}{{1}{18}{Number of drugs introduced into the POS by year. \textit {Source:} SISMED and INVIMA. \textit {Calculations:} Author.\relax }{Doc-Start}{}}
\@writefile{snm}{\beamer@slide {fig:add_pos}{18}}
\@writefile{nav}{\headcommand {\slideentry {2}{0}{4}{18/18}{}{0}}}
\@writefile{nav}{\headcommand {\beamer@framepages {18}{18}}}
\@writefile{toc}{\beamer@sectionintoc {3}{Theory}{19}{0}{3}}
\@writefile{nav}{\headcommand {\sectionentry {3}{Theory}{19}{Theory}{0}}}
\@writefile{nav}{\headcommand {\beamer@sectionpages {15}{18}}}
\@writefile{nav}{\headcommand {\beamer@subsectionpages {15}{18}}}
\@writefile{nav}{\headcommand {\slideentry {3}{0}{1}{19/19}{}{0}}}
\@writefile{nav}{\headcommand {\beamer@framepages {19}{19}}}
\citation{Shubik1980}
\citation{Shubik1980}
\@writefile{nav}{\headcommand {\slideentry {3}{0}{2}{20/21}{}{0}}}
\@writefile{nav}{\headcommand {\beamer@framepages {20}{21}}}
\@writefile{nav}{\headcommand {\slideentry {3}{0}{3}{22/24}{}{0}}}
\@writefile{nav}{\headcommand {\beamer@framepages {22}{24}}}
\newlabel{teo_1<1>}{{13}{25}{Theory}{Doc-Start}{}}
\@writefile{snm}{\beamer@slide {teo_1<1>}{25}}
\newlabel{teo_1}{{13}{25}{Theory}{Doc-Start}{}}
\@writefile{snm}{\beamer@slide {teo_1}{25}}
\@writefile{nav}{\headcommand {\slideentry {3}{0}{4}{25/25}{}{0}}}
\@writefile{nav}{\headcommand {\beamer@framepages {25}{25}}}
\newlabel{teo_1<1>}{{14}{26}{Theory}{Doc-Start}{}}
\@writefile{snm}{\beamer@slide {teo_1<1>}{26}}
\newlabel{teo_1}{{14}{26}{Theory}{Doc-Start}{}}
\@writefile{snm}{\beamer@slide {teo_1}{26}}
\@writefile{nav}{\headcommand {\slideentry {3}{0}{5}{26/26}{}{0}}}
\@writefile{nav}{\headcommand {\beamer@framepages {26}{26}}}
\newlabel{teo_2<1>}{{15}{27}{Theory}{Doc-Start}{}}
\@writefile{snm}{\beamer@slide {teo_2<1>}{27}}
\newlabel{teo_2}{{15}{27}{Theory}{Doc-Start}{}}
\@writefile{snm}{\beamer@slide {teo_2}{27}}
\@writefile{nav}{\headcommand {\slideentry {3}{0}{6}{27/27}{}{0}}}
\@writefile{nav}{\headcommand {\beamer@framepages {27}{27}}}
\@writefile{toc}{\beamer@sectionintoc {4}{Empirics}{28}{0}{4}}
\@writefile{nav}{\headcommand {\sectionentry {4}{Empirics}{28}{Empirics}{0}}}
\@writefile{nav}{\headcommand {\beamer@sectionpages {19}{27}}}
\@writefile{nav}{\headcommand {\beamer@subsectionpages {19}{27}}}
\@writefile{nav}{\headcommand {\slideentry {4}{0}{1}{28/28}{}{0}}}
\@writefile{nav}{\headcommand {\beamer@framepages {28}{28}}}
\newlabel{goback0<1>}{{17}{29}{Empirics}{Doc-Start}{}}
\@writefile{snm}{\beamer@slide {goback0<1>}{29}}
\newlabel{goback0}{{17}{29}{Empirics}{Doc-Start}{}}
\@writefile{snm}{\beamer@slide {goback0}{29}}
\@writefile{nav}{\headcommand {\slideentry {4}{0}{2}{29/29}{}{0}}}
\@writefile{nav}{\headcommand {\beamer@framepages {29}{29}}}
\@writefile{nav}{\headcommand {\slideentry {4}{0}{3}{30/30}{}{0}}}
\@writefile{nav}{\headcommand {\beamer@framepages {30}{30}}}
\newlabel{eq:timing}{{1}{31}{Empirics}{Doc-Start}{}}
\@writefile{snm}{\beamer@slide {eq:timing}{31}}
\@writefile{nav}{\headcommand {\slideentry {4}{0}{4}{31/31}{}{0}}}
\@writefile{nav}{\headcommand {\beamer@framepages {31}{31}}}
\newlabel{goback_timing<1>}{{20}{32}{Empirics}{Doc-Start}{}}
\@writefile{snm}{\beamer@slide {goback_timing<1>}{32}}
\newlabel{goback_timing}{{20}{32}{Empirics}{Doc-Start}{}}
\@writefile{snm}{\beamer@slide {goback_timing}{32}}
\newlabel{fig:timing1}{{2a}{32}{Generic\relax }{Doc-Start}{}}
\@writefile{snm}{\beamer@slide {fig:timing1}{32}}
\newlabel{sub@fig:timing1}{{a}{32}{Generic\relax }{Doc-Start}{}}
\@writefile{snm}{\beamer@slide {sub@fig:timing1}{32}}
\newlabel{fig:timing2}{{2b}{32}{Competitors\relax }{Doc-Start}{}}
\@writefile{snm}{\beamer@slide {fig:timing2}{32}}
\newlabel{sub@fig:timing2}{{b}{32}{Competitors\relax }{Doc-Start}{}}
\@writefile{snm}{\beamer@slide {sub@fig:timing2}{32}}
\newlabel{fig:timing3}{{2c}{32}{Price regulation\relax }{Doc-Start}{}}
\@writefile{snm}{\beamer@slide {fig:timing3}{32}}
\newlabel{sub@fig:timing3}{{c}{32}{Price regulation\relax }{Doc-Start}{}}
\@writefile{snm}{\beamer@slide {sub@fig:timing3}{32}}
\@writefile{nav}{\headcommand {\slideentry {4}{0}{5}{32/32}{}{0}}}
\@writefile{nav}{\headcommand {\beamer@framepages {32}{32}}}
\newlabel{eq:original}{{1}{33}{Empirics}{Doc-Start}{}}
\@writefile{snm}{\beamer@slide {eq:original}{33}}
\@writefile{nav}{\headcommand {\slideentry {4}{0}{6}{33/33}{}{0}}}
\@writefile{nav}{\headcommand {\beamer@framepages {33}{33}}}
\newlabel{goback1<1>}{{22}{34}{Empirics}{Doc-Start}{}}
\@writefile{snm}{\beamer@slide {goback1<1>}{34}}
\newlabel{goback1}{{22}{34}{Empirics}{Doc-Start}{}}
\@writefile{snm}{\beamer@slide {goback1}{34}}
\newlabel{fig:eve_pos_price}{{3}{34}{\tiny Event study for the effect of including a pharmaceutical in the POS on its price. \textit {Source:} SISMED and INVIMA. \textit {Calculations:} Author. \relax }{Doc-Start}{}}
\@writefile{snm}{\beamer@slide {fig:eve_pos_price}{34}}
\@writefile{nav}{\headcommand {\slideentry {4}{0}{7}{34/34}{}{0}}}
\@writefile{nav}{\headcommand {\beamer@framepages {34}{34}}}
\newlabel{goback2<1>}{{23}{35}{Empirics}{Doc-Start}{}}
\@writefile{snm}{\beamer@slide {goback2<1>}{35}}
\newlabel{goback2}{{23}{35}{Empirics}{Doc-Start}{}}
\@writefile{snm}{\beamer@slide {goback2}{35}}
\newlabel{fig:eve_pos_quantity}{{4}{35}{\tiny Event study for the effect of including a pharmaceutical in the POS on the quantities. \textit {Source:} SISMED and INVIMA. \textit {Calculations:} Author. \relax }{Doc-Start}{}}
\@writefile{snm}{\beamer@slide {fig:eve_pos_quantity}{35}}
\@writefile{nav}{\headcommand {\slideentry {4}{0}{8}{35/35}{}{0}}}
\@writefile{nav}{\headcommand {\beamer@framepages {35}{35}}}
\newlabel{goback_rob<1>}{{24}{36}{Empirics}{Doc-Start}{}}
\@writefile{snm}{\beamer@slide {goback_rob<1>}{36}}
\newlabel{goback_rob}{{24}{36}{Empirics}{Doc-Start}{}}
\@writefile{snm}{\beamer@slide {goback_rob}{36}}
\@writefile{nav}{\headcommand {\slideentry {4}{0}{9}{36/36}{}{0}}}
\@writefile{nav}{\headcommand {\beamer@framepages {36}{36}}}
\newlabel{eq:NOPOS}{{1}{37}{Empirics}{Doc-Start}{}}
\@writefile{snm}{\beamer@slide {eq:NOPOS}{37}}
\@writefile{nav}{\headcommand {\slideentry {4}{0}{10}{37/37}{}{0}}}
\@writefile{nav}{\headcommand {\beamer@framepages {37}{37}}}
\newlabel{tab:competitors_NOPOS}{{1}{38}{Effect of including a drug in the benefit plan on the price of therapeutic substitutes that are not in the plan\relax }{Doc-Start}{}}
\@writefile{snm}{\beamer@slide {tab:competitors_NOPOS}{38}}
\@writefile{nav}{\headcommand {\slideentry {4}{0}{11}{38/38}{}{0}}}
\@writefile{nav}{\headcommand {\beamer@framepages {38}{38}}}
\newlabel{eq:POS}{{1}{39}{Empirics}{Doc-Start}{}}
\@writefile{snm}{\beamer@slide {eq:POS}{39}}
\@writefile{nav}{\headcommand {\slideentry {4}{0}{12}{39/39}{}{0}}}
\@writefile{nav}{\headcommand {\beamer@framepages {39}{39}}}
\newlabel{tab:competitors_POS}{{2}{40}{Effect of including a drug in the benefit plan on the price of therapeutic substitutes that are not in the plan\relax }{Doc-Start}{}}
\@writefile{snm}{\beamer@slide {tab:competitors_POS}{40}}
\@writefile{nav}{\headcommand {\slideentry {4}{0}{13}{40/40}{}{0}}}
\@writefile{nav}{\headcommand {\beamer@framepages {40}{40}}}
\@writefile{toc}{\beamer@sectionintoc {5}{Closing remarks}{41}{0}{5}}
\@writefile{nav}{\headcommand {\sectionentry {5}{Closing remarks}{41}{Closing remarks}{0}}}
\@writefile{nav}{\headcommand {\beamer@sectionpages {28}{40}}}
\@writefile{nav}{\headcommand {\beamer@subsectionpages {28}{40}}}
\@writefile{nav}{\headcommand {\slideentry {5}{0}{1}{41/41}{}{0}}}
\@writefile{nav}{\headcommand {\beamer@framepages {41}{41}}}
\citation{NYT2015c}
\@writefile{nav}{\headcommand {\slideentry {5}{0}{2}{42/42}{}{0}}}
\@writefile{nav}{\headcommand {\beamer@framepages {42}{42}}}
\@writefile{nav}{\headcommand {\slideentry {5}{0}{3}{43/43}{}{0}}}
\@writefile{nav}{\headcommand {\beamer@framepages {43}{43}}}
\bibstyle{apacite}
\bibdata{PharPrice}
\bibcite{Alpert2013}{\citeauthoryear {Alpert, Duggan,{}\ \BBA{} Hellerstein}{Alpert\ \BOthers {.}}{{\APACyear {2013}}}}
\APACbibcite{Alpert2013}{\citeauthoryear {Alpert, Duggan,{}\ \BBA{} Hellerstein}{Alpert\ \BOthers {.}}{{\APACyear {2013}}}}
\bibcite{Arrow1963}{\citeauthoryear {Arrow}{Arrow}{{\APACyear {1963}}}}
\APACbibcite{Arrow1963}{\citeauthoryear {Arrow}{Arrow}{{\APACyear {1963}}}}
\bibcite{Brekke2009}{\citeauthoryear {Brekke, Grasdal,{}\ \BBA{} Holmas}{Brekke\ \BOthers {.}}{{\APACyear {2009}}}}
\APACbibcite{Brekke2009}{\citeauthoryear {Brekke, Grasdal,{}\ \BBA{} Holmas}{Brekke\ \BOthers {.}}{{\APACyear {2009}}}}
\bibcite{Brekke2011}{\citeauthoryear {Brekke, Holmas,{}\ \BBA{} Straume}{Brekke\ \BOthers {.}}{{\APACyear {2011}}}}
\APACbibcite{Brekke2011}{\citeauthoryear {Brekke, Holmas,{}\ \BBA{} Straume}{Brekke\ \BOthers {.}}{{\APACyear {2011}}}}
\bibcite{Clemens2014}{\citeauthoryear {Clemens\ \BBA{} Gottlieb}{Clemens\ \BBA{} Gottlieb}{{\APACyear {2014}}}}
\APACbibcite{Clemens2014}{\citeauthoryear {Clemens\ \BBA{} Gottlieb}{Clemens\ \BBA{} Gottlieb}{{\APACyear {2014}}}}
\bibcite{Darby1973}{\citeauthoryear {Darby\ \BBA{} Karni}{Darby\ \BBA{} Karni}{{\APACyear {1973}}}}
\APACbibcite{Darby1973}{\citeauthoryear {Darby\ \BBA{} Karni}{Darby\ \BBA{} Karni}{{\APACyear {1973}}}}
\bibcite{Departamento2012}{\citeauthoryear {{Departamento Nacional de Planeacion}}{{Departamento Nacional de Planeacion}}{{\APACyear {2012}}}}
\APACbibcite{Departamento2012}{\citeauthoryear {{Departamento Nacional de Planeacion}}{{Departamento Nacional de Planeacion}}{{\APACyear {2012}}}}
\bibcite{Duggan2010}{\citeauthoryear {Duggan\ \BBA{} Scott\nobreakspace  {}Morton}{Duggan\ \BBA{} Scott\nobreakspace  {}Morton}{{\APACyear {2010}}}}
\APACbibcite{Duggan2010}{\citeauthoryear {Duggan\ \BBA{} Scott\nobreakspace  {}Morton}{Duggan\ \BBA{} Scott\nobreakspace  {}Morton}{{\APACyear {2010}}}}
\bibcite{Duggan2006}{\citeauthoryear {Duggan\ \BBA{} Scott\nobreakspace  {}Morton}{Duggan\ \BBA{} Scott\nobreakspace  {}Morton}{{\APACyear {2006}}}}
\APACbibcite{Duggan2006}{\citeauthoryear {Duggan\ \BBA{} Scott\nobreakspace  {}Morton}{Duggan\ \BBA{} Scott\nobreakspace  {}Morton}{{\APACyear {2006}}}}
\bibcite{Gruber1996}{\citeauthoryear {Gruber\ \BBA{} Owings}{Gruber\ \BBA{} Owings}{{\APACyear {1996}}}}
\APACbibcite{Gruber1996}{\citeauthoryear {Gruber\ \BBA{} Owings}{Gruber\ \BBA{} Owings}{{\APACyear {1996}}}}
\bibcite{Iizuka2007}{\citeauthoryear {Iizuka}{Iizuka}{{\APACyear {2007}}}}
\APACbibcite{Iizuka2007}{\citeauthoryear {Iizuka}{Iizuka}{{\APACyear {2007}}}}
\bibcite{Iizuka2012}{\citeauthoryear {Iizuka}{Iizuka}{{\APACyear {2012}}}}
\APACbibcite{Iizuka2012}{\citeauthoryear {Iizuka}{Iizuka}{{\APACyear {2012}}}}
\bibcite{MSH2012}{\citeauthoryear {{Management Sciences for Health}}{{Management Sciences for Health}}{{\APACyear {2012}}}}
\APACbibcite{MSH2012}{\citeauthoryear {{Management Sciences for Health}}{{Management Sciences for Health}}{{\APACyear {2012}}}}
\bibcite{Shubik1980}{\citeauthoryear {Shubik\ \BBA{} Levitan}{Shubik\ \BBA{} Levitan}{{\APACyear {1980}}}}
\APACbibcite{Shubik1980}{\citeauthoryear {Shubik\ \BBA{} Levitan}{Shubik\ \BBA{} Levitan}{{\APACyear {1980}}}}
\bibcite{NYT2015c}{\citeauthoryear {{The New York Times}}{{The New York Times}}{{\APACyear {2015}}}}
\APACbibcite{NYT2015c}{\citeauthoryear {{The New York Times}}{{The New York Times}}{{\APACyear {2015}}}}
\bibcite{Vacca2011}{\citeauthoryear {Vacca, Acosta,{}\ \BBA{} Rodriguez}{Vacca\ \BOthers {.}}{{\APACyear {2011}}}}
\APACbibcite{Vacca2011}{\citeauthoryear {Vacca, Acosta,{}\ \BBA{} Rodriguez}{Vacca\ \BOthers {.}}{{\APACyear {2011}}}}
\@writefile{nav}{\headcommand {\sectionentry {6}{}{44}{}{0}}}
\@writefile{nav}{\headcommand {\beamer@sectionpages {41}{43}}}
\@writefile{nav}{\headcommand {\beamer@subsectionpages {41}{43}}}
\@writefile{toc}{\contentsline {section}{}}
\@writefile{nav}{\headcommand {\slideentry {6}{0}{0}{44/44}{}{0}}}
\@writefile{nav}{\headcommand {\beamer@framepages {44}{44}}}
\@writefile{nav}{\headcommand {\slideentry {6}{0}{0}{44/45}{}{0}}}
\@writefile{nav}{\headcommand {\beamer@framepages {44}{45}}}
\@writefile{nav}{\headcommand {\slideentry {6}{0}{0}{44/46}{}{0}}}
\@writefile{nav}{\headcommand {\beamer@framepages {44}{46}}}
\@writefile{nav}{\headcommand {\slideentry {6}{0}{0}{44/47}{}{0}}}
\@writefile{nav}{\headcommand {\beamer@framepages {44}{47}}}
\@writefile{nav}{\headcommand {\slideentry {6}{0}{0}{44/48}{}{0}}}
\@writefile{nav}{\headcommand {\beamer@framepages {44}{48}}}
\@writefile{nav}{\headcommand {\partentry {\translate  {Appendix}}{1}}}
\@writefile{nav}{\headcommand {\beamer@partpages {1}{48}}}
\@writefile{nav}{\headcommand {\beamer@sectionpages {41}{48}}}
\@writefile{nav}{\headcommand {\beamer@subsectionpages {41}{48}}}
\@writefile{nav}{\headcommand {\beamer@appendixpages {49}}}
\@writefile{toc}{\beamer@sectionintoc {7}{Extra slides: Pharmaceutical prices}{49}{1}{6}}
\@writefile{nav}{\headcommand {\sectionentry {7}{Extra slides: Pharmaceutical prices}{49}{Extra slides: Pharmaceutical prices}{1}}}
\@writefile{nav}{\headcommand {\beamer@sectionpages {49}{48}}}
\@writefile{nav}{\headcommand {\beamer@subsectionpages {49}{48}}}
\@writefile{nav}{\headcommand {\slideentry {7}{0}{1}{49/49}{}{1}}}
\@writefile{nav}{\headcommand {\beamer@framepages {49}{49}}}
\newlabel{sumstat<1>}{{38}{50}{Extra slides: Pharmaceutical prices}{Doc-Start}{}}
\@writefile{snm}{\beamer@slide {sumstat<1>}{50}}
\newlabel{sumstat}{{38}{50}{Extra slides: Pharmaceutical prices}{Doc-Start}{}}
\@writefile{snm}{\beamer@slide {sumstat}{50}}
\newlabel{tab:diff_charac}{{3}{50}{Difference between pharmaceuticals characteristics by how much price information is observed.\relax }{Doc-Start}{}}
\@writefile{snm}{\beamer@slide {tab:diff_charac}{50}}
\@writefile{nav}{\headcommand {\slideentry {7}{0}{2}{50/50}{}{1}}}
\@writefile{nav}{\headcommand {\beamer@framepages {50}{50}}}
\newlabel{sumstat2<1>}{{39}{51}{Extra slides: Pharmaceutical prices}{Doc-Start}{}}
\@writefile{snm}{\beamer@slide {sumstat2<1>}{51}}
\newlabel{sumstat2}{{39}{51}{Extra slides: Pharmaceutical prices}{Doc-Start}{}}
\@writefile{snm}{\beamer@slide {sumstat2}{51}}
\newlabel{tab:descr2}{{4}{51}{Summary statistics for drugs with some observations and a maximum/minimum price ratio under 30\relax }{Doc-Start}{}}
\@writefile{snm}{\beamer@slide {tab:descr2}{51}}
\@writefile{nav}{\headcommand {\slideentry {7}{0}{3}{51/51}{}{1}}}
\@writefile{nav}{\headcommand {\beamer@framepages {51}{51}}}
\citation{Vacca2011}
\citation{Departamento2012}
\newlabel{problemsismed<1>}{{40}{52}{Extra slides: Pharmaceutical prices}{Doc-Start}{}}
\@writefile{snm}{\beamer@slide {problemsismed<1>}{52}}
\newlabel{problemsismed}{{40}{52}{Extra slides: Pharmaceutical prices}{Doc-Start}{}}
\@writefile{snm}{\beamer@slide {problemsismed}{52}}
\@writefile{nav}{\headcommand {\slideentry {7}{0}{4}{52/52}{}{1}}}
\@writefile{nav}{\headcommand {\beamer@framepages {52}{52}}}
\newlabel{reg_timing<1>}{{41}{53}{Extra slides: Pharmaceutical prices}{Doc-Start}{}}
\@writefile{snm}{\beamer@slide {reg_timing<1>}{53}}
\newlabel{reg_timing}{{41}{53}{Extra slides: Pharmaceutical prices}{Doc-Start}{}}
\@writefile{snm}{\beamer@slide {reg_timing}{53}}
\newlabel{tab:timing}{{5}{53}{Timing and other regulatory changes\relax }{Doc-Start}{}}
\@writefile{snm}{\beamer@slide {tab:timing}{53}}
\@writefile{nav}{\headcommand {\slideentry {7}{0}{5}{53/53}{}{1}}}
\@writefile{nav}{\headcommand {\beamer@framepages {53}{53}}}
\newlabel{reg_p<1>}{{42}{54}{Extra slides: Pharmaceutical prices}{Doc-Start}{}}
\@writefile{snm}{\beamer@slide {reg_p<1>}{54}}
\newlabel{reg_p}{{42}{54}{Extra slides: Pharmaceutical prices}{Doc-Start}{}}
\@writefile{snm}{\beamer@slide {reg_p}{54}}
\newlabel{tab:POS}{{6}{54}{Effect on a drug's price of including the drug to the benefit plan \relax }{Doc-Start}{}}
\@writefile{snm}{\beamer@slide {tab:POS}{54}}
\@writefile{nav}{\headcommand {\slideentry {7}{0}{6}{54/54}{}{1}}}
\@writefile{nav}{\headcommand {\beamer@framepages {54}{54}}}
\newlabel{reg_q<1>}{{43}{55}{Extra slides: Pharmaceutical prices}{Doc-Start}{}}
\@writefile{snm}{\beamer@slide {reg_q<1>}{55}}
\newlabel{reg_q}{{43}{55}{Extra slides: Pharmaceutical prices}{Doc-Start}{}}
\@writefile{snm}{\beamer@slide {reg_q}{55}}
\newlabel{tab:POS2}{{7}{55}{Effect of including a drug in the health plan on the quantities sold \relax }{Doc-Start}{}}
\@writefile{snm}{\beamer@slide {tab:POS2}{55}}
\@writefile{nav}{\headcommand {\slideentry {7}{0}{7}{55/55}{}{1}}}
\@writefile{nav}{\headcommand {\beamer@framepages {55}{55}}}
\newlabel{fig2011<1>}{{44}{56}{Extra slides: Pharmaceutical prices}{Doc-Start}{}}
\@writefile{snm}{\beamer@slide {fig2011<1>}{56}}
\newlabel{fig2011}{{44}{56}{Extra slides: Pharmaceutical prices}{Doc-Start}{}}
\@writefile{snm}{\beamer@slide {fig2011}{56}}
\newlabel{fig:eve_pos_price_2011}{{5}{56}{\tiny Event study for the effect of including a pharmaceutical in the POS on its price. \textit {Source:} SISMED and INVIMA. \textit {Calculations:} Author. \relax }{Doc-Start}{}}
\@writefile{snm}{\beamer@slide {fig:eve_pos_price_2011}{56}}
\@writefile{nav}{\headcommand {\slideentry {7}{0}{8}{56/56}{}{1}}}
\@writefile{nav}{\headcommand {\beamer@framepages {56}{56}}}
\newlabel{fig2012<1>}{{45}{57}{Extra slides: Pharmaceutical prices}{Doc-Start}{}}
\@writefile{snm}{\beamer@slide {fig2012<1>}{57}}
\newlabel{fig2012}{{45}{57}{Extra slides: Pharmaceutical prices}{Doc-Start}{}}
\@writefile{snm}{\beamer@slide {fig2012}{57}}
\newlabel{fig:eve_pos_price_2012}{{6}{57}{\tiny Event study for the effect of including a pharmaceutical in the POS on its price. \textit {Source:} SISMED and INVIMA. \textit {Calculations:} Author. \relax }{Doc-Start}{}}
\@writefile{snm}{\beamer@slide {fig:eve_pos_price_2012}{57}}
\@writefile{nav}{\headcommand {\slideentry {7}{0}{9}{57/57}{}{1}}}
\@writefile{nav}{\headcommand {\beamer@framepages {57}{57}}}
\newlabel{fig2011_q<1>}{{46}{58}{Extra slides: Pharmaceutical prices}{Doc-Start}{}}
\@writefile{snm}{\beamer@slide {fig2011_q<1>}{58}}
\newlabel{fig2011_q}{{46}{58}{Extra slides: Pharmaceutical prices}{Doc-Start}{}}
\@writefile{snm}{\beamer@slide {fig2011_q}{58}}
\newlabel{fig:eve_pos_quantity_2011}{{7}{58}{\tiny Event study for the effect of including a pharmaceutical in the POS on its price. \textit {Source:} SISMED and INVIMA. \textit {Calculations:} Author. \relax }{Doc-Start}{}}
\@writefile{snm}{\beamer@slide {fig:eve_pos_quantity_2011}{58}}
\@writefile{nav}{\headcommand {\slideentry {7}{0}{10}{58/58}{}{1}}}
\@writefile{nav}{\headcommand {\beamer@framepages {58}{58}}}
\newlabel{fig2012_q<1>}{{47}{59}{Extra slides: Pharmaceutical prices}{Doc-Start}{}}
\@writefile{snm}{\beamer@slide {fig2012_q<1>}{59}}
\newlabel{fig2012_q}{{47}{59}{Extra slides: Pharmaceutical prices}{Doc-Start}{}}
\@writefile{snm}{\beamer@slide {fig2012_q}{59}}
\newlabel{fig:eve_pos_quantity_2012}{{8}{59}{\tiny Event study for the effect of including a pharmaceutical in the POS on its price. \textit {Source:} SISMED and INVIMA. \textit {Calculations:} Author. \relax }{Doc-Start}{}}
\@writefile{snm}{\beamer@slide {fig:eve_pos_quantity_2012}{59}}
\@writefile{nav}{\headcommand {\slideentry {7}{0}{11}{59/59}{}{1}}}
\@writefile{nav}{\headcommand {\beamer@framepages {59}{59}}}
\newlabel{price_scale<1>}{{48}{60}{Extra slides: Pharmaceutical prices}{Doc-Start}{}}
\@writefile{snm}{\beamer@slide {price_scale<1>}{60}}
\newlabel{price_scale}{{48}{60}{Extra slides: Pharmaceutical prices}{Doc-Start}{}}
\@writefile{snm}{\beamer@slide {price_scale}{60}}
\newlabel{tab:POS_ROB2}{{8}{60}{Effect of including a drug in the health plan for locally produced vs. imported drugs \relax }{Doc-Start}{}}
\@writefile{snm}{\beamer@slide {tab:POS_ROB2}{60}}
\@writefile{nav}{\headcommand {\slideentry {7}{0}{12}{60/60}{}{1}}}
\@writefile{nav}{\headcommand {\beamer@framepages {60}{60}}}
\newlabel{years_mkt<1>}{{49}{61}{Extra slides: Pharmaceutical prices}{Doc-Start}{}}
\@writefile{snm}{\beamer@slide {years_mkt<1>}{61}}
\newlabel{years_mkt}{{49}{61}{Extra slides: Pharmaceutical prices}{Doc-Start}{}}
\@writefile{snm}{\beamer@slide {years_mkt}{61}}
\newlabel{tab:POS_ROB3}{{9}{61}{Effect of including a drug in the health plan by age\relax }{Doc-Start}{}}
\@writefile{snm}{\beamer@slide {tab:POS_ROB3}{61}}
\@writefile{nav}{\headcommand {\slideentry {7}{0}{13}{61/61}{}{1}}}
\@writefile{nav}{\headcommand {\beamer@framepages {61}{61}}}
\newlabel{eq_equations<1>}{{50}{62}{Extra slides: Pharmaceutical prices}{Doc-Start}{}}
\@writefile{snm}{\beamer@slide {eq_equations<1>}{62}}
\newlabel{eq_equations}{{50}{62}{Extra slides: Pharmaceutical prices}{Doc-Start}{}}
\@writefile{snm}{\beamer@slide {eq_equations}{62}}
\@writefile{nav}{\headcommand {\slideentry {7}{0}{14}{62/62}{}{1}}}
\@writefile{nav}{\headcommand {\beamer@framepages {62}{62}}}
\newlabel{comparative_statics<1>}{{51}{63}{Extra slides: Pharmaceutical prices}{Doc-Start}{}}
\@writefile{snm}{\beamer@slide {comparative_statics<1>}{63}}
\newlabel{comparative_statics}{{51}{63}{Extra slides: Pharmaceutical prices}{Doc-Start}{}}
\@writefile{snm}{\beamer@slide {comparative_statics}{63}}
\@writefile{nav}{\headcommand {\slideentry {7}{0}{15}{63/63}{}{1}}}
\@writefile{nav}{\headcommand {\beamer@framepages {63}{63}}}
\@writefile{nav}{\headcommand {\beamer@partpages {49}{63}}}
\@writefile{nav}{\headcommand {\beamer@subsectionpages {49}{63}}}
\@writefile{nav}{\headcommand {\beamer@sectionpages {49}{63}}}
\@writefile{nav}{\headcommand {\beamer@documentpages {63}}}
\@writefile{nav}{\headcommand {\def \inserttotalframenumber {51}}}
\zref@newlabel{LastPage}{\default{7}\page{63}\abspage{63}}
