\relax 
\providecommand\hyper@newdestlabel[2]{}
\providecommand\zref@newlabel[2]{}
\providecommand\HyperFirstAtBeginDocument{\AtBeginDocument}
\HyperFirstAtBeginDocument{\ifx\hyper@anchor\@undefined
\global\let\oldcontentsline\contentsline
\gdef\contentsline#1#2#3#4{\oldcontentsline{#1}{#2}{#3}}
\global\let\oldnewlabel\newlabel
\gdef\newlabel#1#2{\newlabelxx{#1}#2}
\gdef\newlabelxx#1#2#3#4#5#6{\oldnewlabel{#1}{{#2}{#3}}}
\AtEndDocument{\ifx\hyper@anchor\@undefined
\let\contentsline\oldcontentsline
\let\newlabel\oldnewlabel
\fi}
\fi}
\global\let\hyper@last\relax 
\gdef\HyperFirstAtBeginDocument#1{#1}
\providecommand\HyField@AuxAddToFields[1]{}
\providecommand\HyField@AuxAddToCoFields[2]{}
\providecommand\AtEndDvi@Check{}
\AtEndDvi@Check
\providecommand \oddpage@label [2]{}
\@writefile{toc}{\beamer@endinputifotherversion {3.36pt}}
\@writefile{nav}{\beamer@endinputifotherversion {3.36pt}}
\@writefile{nav}{\headcommand {\slideentry {0}{0}{1}{1/1}{}{0}}}
\@writefile{nav}{\headcommand {\beamer@framepages {1}{1}}}
\citation{MSH2012}
\@writefile{toc}{\beamer@sectionintoc {1}{Motivation}{2}{0}{1}}
\@writefile{nav}{\headcommand {\sectionentry {1}{Motivation}{2}{Motivation}{0}}}
\@writefile{nav}{\headcommand {\beamer@sectionpages {1}{1}}}
\@writefile{nav}{\headcommand {\beamer@subsectionpages {1}{1}}}
\citation{MSH2012}
\citation{MSH2012}
\citation{MSH2012}
\citation{MSH2012}
\citation{MSH2012}
\citation{MSH2012}
\citation{MSH2012}
\citation{MSH2012}
\citation{MSH2012}
\@writefile{nav}{\headcommand {\slideentry {1}{0}{1}{2/11}{}{0}}}
\@writefile{nav}{\headcommand {\beamer@framepages {2}{11}}}
\@writefile{nav}{\headcommand {\slideentry {1}{0}{2}{12/14}{}{0}}}
\@writefile{nav}{\headcommand {\beamer@framepages {12}{14}}}
\@writefile{nav}{\headcommand {\slideentry {1}{0}{3}{15/18}{}{0}}}
\@writefile{nav}{\headcommand {\beamer@framepages {15}{18}}}
\citation{Duggan2006}
\citation{Brekke2009}
\citation{Brekke2011}
\citation{Duggan2010}
\citation{Alpert2013}
\citation{Arrow1963}
\citation{Gruber1996}
\citation{Iizuka2007}
\citation{Iizuka2012}
\citation{Clemens2014}
\@writefile{nav}{\headcommand {\slideentry {1}{0}{4}{19/19}{}{0}}}
\@writefile{nav}{\headcommand {\beamer@framepages {19}{19}}}
\@writefile{toc}{\beamer@sectionintoc {2}{Background}{20}{0}{2}}
\@writefile{nav}{\headcommand {\sectionentry {2}{Background}{20}{Background}{0}}}
\@writefile{nav}{\headcommand {\beamer@sectionpages {2}{19}}}
\@writefile{nav}{\headcommand {\beamer@subsectionpages {2}{19}}}
\@writefile{nav}{\headcommand {\slideentry {2}{0}{1}{20/20}{}{0}}}
\@writefile{nav}{\headcommand {\beamer@framepages {20}{20}}}
\@writefile{nav}{\headcommand {\slideentry {2}{0}{2}{21/28}{}{0}}}
\@writefile{nav}{\headcommand {\beamer@framepages {21}{28}}}
\@writefile{nav}{\headcommand {\slideentry {2}{0}{3}{29/29}{}{0}}}
\@writefile{nav}{\headcommand {\beamer@framepages {29}{29}}}
\providecommand*\caption@xref[2]{\@setref\relax\@undefined{#1}}
\newlabel{fig:add_pos}{{1}{30}{Number of drugs introduced into the POS by year. \textit {Source:} SISMED and INVIMA. \textit {Calculations:} Author.\relax }{Doc-Start}{}}
\@writefile{snm}{\beamer@slide {fig:add_pos}{30}}
\@writefile{nav}{\headcommand {\slideentry {2}{0}{4}{30/30}{}{0}}}
\@writefile{nav}{\headcommand {\beamer@framepages {30}{30}}}
\@writefile{toc}{\beamer@sectionintoc {3}{Theory}{31}{0}{3}}
\@writefile{nav}{\headcommand {\sectionentry {3}{Theory}{31}{Theory}{0}}}
\@writefile{nav}{\headcommand {\beamer@sectionpages {20}{30}}}
\@writefile{nav}{\headcommand {\beamer@subsectionpages {20}{30}}}
\@writefile{nav}{\headcommand {\slideentry {3}{0}{1}{31/31}{}{0}}}
\@writefile{nav}{\headcommand {\beamer@framepages {31}{31}}}
\citation{Shubik1980}
\citation{Shubik1980}
\citation{Shubik1980}
\citation{Shubik1980}
\citation{Shubik1980}
\citation{Shubik1980}
\citation{Shubik1980}
\@writefile{nav}{\headcommand {\slideentry {3}{0}{2}{32/38}{}{0}}}
\@writefile{nav}{\headcommand {\beamer@framepages {32}{38}}}
\@writefile{nav}{\headcommand {\slideentry {3}{0}{3}{39/42}{}{0}}}
\@writefile{nav}{\headcommand {\beamer@framepages {39}{42}}}
\@writefile{nav}{\headcommand {\slideentry {3}{0}{4}{43/45}{}{0}}}
\@writefile{nav}{\headcommand {\beamer@framepages {43}{45}}}
\@writefile{nav}{\headcommand {\slideentry {3}{0}{5}{46/46}{}{0}}}
\@writefile{nav}{\headcommand {\beamer@framepages {46}{46}}}
\@writefile{toc}{\beamer@sectionintoc {4}{Empirics}{47}{0}{4}}
\@writefile{nav}{\headcommand {\sectionentry {4}{Empirics}{47}{Empirics}{0}}}
\@writefile{nav}{\headcommand {\beamer@sectionpages {31}{46}}}
\@writefile{nav}{\headcommand {\beamer@subsectionpages {31}{46}}}
\@writefile{nav}{\headcommand {\slideentry {4}{0}{1}{47/47}{}{0}}}
\@writefile{nav}{\headcommand {\beamer@framepages {47}{47}}}
\newlabel{goback0<1>}{{16}{48}{Empirics}{Doc-Start}{}}
\@writefile{snm}{\beamer@slide {goback0<1>}{48}}
\newlabel{goback0}{{16}{48}{Empirics}{Doc-Start}{}}
\@writefile{snm}{\beamer@slide {goback0}{48}}
\@writefile{nav}{\headcommand {\slideentry {4}{0}{2}{48/48}{}{0}}}
\@writefile{nav}{\headcommand {\beamer@framepages {48}{48}}}
\newlabel{sumstat2<1>}{{17}{49}{Empirics}{Doc-Start}{}}
\@writefile{snm}{\beamer@slide {sumstat2<1>}{49}}
\newlabel{sumstat2}{{17}{49}{Empirics}{Doc-Start}{}}
\@writefile{snm}{\beamer@slide {sumstat2}{49}}
\newlabel{tab:descr2}{{1}{49}{Summary statistics for drugs with some observations and a maximum/minimum price ratio under 30\relax }{Doc-Start}{}}
\@writefile{snm}{\beamer@slide {tab:descr2}{49}}
\@writefile{nav}{\headcommand {\slideentry {4}{0}{3}{49/49}{}{0}}}
\@writefile{nav}{\headcommand {\beamer@framepages {49}{49}}}
\@writefile{nav}{\headcommand {\slideentry {4}{0}{4}{50/50}{}{0}}}
\@writefile{nav}{\headcommand {\beamer@framepages {50}{50}}}
\newlabel{eq:timing}{{1}{51}{Empirics}{Doc-Start}{}}
\@writefile{snm}{\beamer@slide {eq:timing}{51}}
\@writefile{nav}{\headcommand {\slideentry {4}{0}{5}{51/51}{}{0}}}
\@writefile{nav}{\headcommand {\beamer@framepages {51}{51}}}
\newlabel{goback_timing<1>}{{20}{52}{Empirics}{Doc-Start}{}}
\@writefile{snm}{\beamer@slide {goback_timing<1>}{52}}
\newlabel{goback_timing}{{20}{52}{Empirics}{Doc-Start}{}}
\@writefile{snm}{\beamer@slide {goback_timing}{52}}
\newlabel{fig:timing1}{{2a}{52}{Generic\relax }{Doc-Start}{}}
\@writefile{snm}{\beamer@slide {fig:timing1}{52}}
\newlabel{sub@fig:timing1}{{a}{52}{Generic\relax }{Doc-Start}{}}
\@writefile{snm}{\beamer@slide {sub@fig:timing1}{52}}
\newlabel{fig:timing2}{{2b}{52}{Competitors\relax }{Doc-Start}{}}
\@writefile{snm}{\beamer@slide {fig:timing2}{52}}
\newlabel{sub@fig:timing2}{{b}{52}{Competitors\relax }{Doc-Start}{}}
\@writefile{snm}{\beamer@slide {sub@fig:timing2}{52}}
\newlabel{fig:timing3}{{2c}{52}{Price regulation\relax }{Doc-Start}{}}
\@writefile{snm}{\beamer@slide {fig:timing3}{52}}
\newlabel{sub@fig:timing3}{{c}{52}{Price regulation\relax }{Doc-Start}{}}
\@writefile{snm}{\beamer@slide {sub@fig:timing3}{52}}
\@writefile{nav}{\headcommand {\slideentry {4}{0}{6}{52/52}{}{0}}}
\@writefile{nav}{\headcommand {\beamer@framepages {52}{52}}}
\newlabel{eq:original}{{1}{53}{Empirics}{Doc-Start}{}}
\@writefile{snm}{\beamer@slide {eq:original}{53}}
\@writefile{nav}{\headcommand {\slideentry {4}{0}{7}{53/53}{}{0}}}
\@writefile{nav}{\headcommand {\beamer@framepages {53}{53}}}
\newlabel{goback1<1>}{{22}{54}{Empirics}{Doc-Start}{}}
\@writefile{snm}{\beamer@slide {goback1<1>}{54}}
\newlabel{goback1}{{22}{54}{Empirics}{Doc-Start}{}}
\@writefile{snm}{\beamer@slide {goback1}{54}}
\newlabel{fig:eve_pos_price}{{3}{54}{\tiny Event study for the effect of including a pharmaceutical in the POS on its price. \textit {Source:} SISMED and INVIMA. \textit {Calculations:} Author. \relax }{Doc-Start}{}}
\@writefile{snm}{\beamer@slide {fig:eve_pos_price}{54}}
\@writefile{nav}{\headcommand {\slideentry {4}{0}{8}{54/54}{}{0}}}
\@writefile{nav}{\headcommand {\beamer@framepages {54}{54}}}
\newlabel{goback2<1>}{{23}{55}{Empirics}{Doc-Start}{}}
\@writefile{snm}{\beamer@slide {goback2<1>}{55}}
\newlabel{goback2}{{23}{55}{Empirics}{Doc-Start}{}}
\@writefile{snm}{\beamer@slide {goback2}{55}}
\newlabel{fig:eve_pos_quantity}{{4}{55}{\tiny Event study for the effect of including a pharmaceutical in the POS on the quantities. \textit {Source:} SISMED and INVIMA. \textit {Calculations:} Author. \relax }{Doc-Start}{}}
\@writefile{snm}{\beamer@slide {fig:eve_pos_quantity}{55}}
\@writefile{nav}{\headcommand {\slideentry {4}{0}{9}{55/55}{}{0}}}
\@writefile{nav}{\headcommand {\beamer@framepages {55}{55}}}
\newlabel{goback_rob<1>}{{24}{56}{Empirics}{Doc-Start}{}}
\@writefile{snm}{\beamer@slide {goback_rob<1>}{56}}
\newlabel{goback_rob}{{24}{56}{Empirics}{Doc-Start}{}}
\@writefile{snm}{\beamer@slide {goback_rob}{56}}
\@writefile{nav}{\headcommand {\slideentry {4}{0}{10}{56/56}{}{0}}}
\@writefile{nav}{\headcommand {\beamer@framepages {56}{56}}}
\newlabel{eq:NOPOS}{{1}{57}{Empirics}{Doc-Start}{}}
\@writefile{snm}{\beamer@slide {eq:NOPOS}{57}}
\@writefile{nav}{\headcommand {\slideentry {4}{0}{11}{57/57}{}{0}}}
\@writefile{nav}{\headcommand {\beamer@framepages {57}{57}}}
\newlabel{tab:competitors_NOPOS}{{2}{58}{Effect of including a drug in the benefit plan on the price of therapeutic substitutes that are not in the plan\relax }{Doc-Start}{}}
\@writefile{snm}{\beamer@slide {tab:competitors_NOPOS}{58}}
\@writefile{nav}{\headcommand {\slideentry {4}{0}{12}{58/58}{}{0}}}
\@writefile{nav}{\headcommand {\beamer@framepages {58}{58}}}
\newlabel{eq:POS}{{1}{59}{Empirics}{Doc-Start}{}}
\@writefile{snm}{\beamer@slide {eq:POS}{59}}
\@writefile{nav}{\headcommand {\slideentry {4}{0}{13}{59/59}{}{0}}}
\@writefile{nav}{\headcommand {\beamer@framepages {59}{59}}}
\newlabel{tab:competitors_POS}{{3}{60}{Effect of including a drug in the benefit plan on the price of therapeutic substitutes that are not in the plan\relax }{Doc-Start}{}}
\@writefile{snm}{\beamer@slide {tab:competitors_POS}{60}}
\@writefile{nav}{\headcommand {\slideentry {4}{0}{14}{60/60}{}{0}}}
\@writefile{nav}{\headcommand {\beamer@framepages {60}{60}}}
\@writefile{toc}{\beamer@sectionintoc {5}{Closing remarks}{61}{0}{5}}
\@writefile{nav}{\headcommand {\sectionentry {5}{Closing remarks}{61}{Closing remarks}{0}}}
\@writefile{nav}{\headcommand {\beamer@sectionpages {47}{60}}}
\@writefile{nav}{\headcommand {\beamer@subsectionpages {47}{60}}}
\@writefile{nav}{\headcommand {\slideentry {5}{0}{1}{61/61}{}{0}}}
\@writefile{nav}{\headcommand {\beamer@framepages {61}{61}}}
\citation{NYT2015}
\@writefile{nav}{\headcommand {\slideentry {5}{0}{2}{62/62}{}{0}}}
\@writefile{nav}{\headcommand {\beamer@framepages {62}{62}}}
\citation{NYT2015c}
\@writefile{nav}{\headcommand {\slideentry {5}{0}{3}{63/63}{}{0}}}
\@writefile{nav}{\headcommand {\beamer@framepages {63}{63}}}
\@writefile{nav}{\headcommand {\slideentry {5}{0}{4}{64/64}{}{0}}}
\@writefile{nav}{\headcommand {\beamer@framepages {64}{64}}}
\bibstyle{apacite}
\bibdata{PharPrice}
\bibcite{Alpert2013}{\citeauthoryear {Alpert, Duggan,{}\ \BBA{} Hellerstein}{Alpert\ \BOthers {.}}{{\APACyear {2013}}}}
\APACbibcite{Alpert2013}{\citeauthoryear {Alpert, Duggan,{}\ \BBA{} Hellerstein}{Alpert\ \BOthers {.}}{{\APACyear {2013}}}}
\bibcite{Arrow1963}{\citeauthoryear {Arrow}{Arrow}{{\APACyear {1963}}}}
\APACbibcite{Arrow1963}{\citeauthoryear {Arrow}{Arrow}{{\APACyear {1963}}}}
\bibcite{Brekke2009}{\citeauthoryear {Brekke, Grasdal,{}\ \BBA{} Holmas}{Brekke\ \BOthers {.}}{{\APACyear {2009}}}}
\APACbibcite{Brekke2009}{\citeauthoryear {Brekke, Grasdal,{}\ \BBA{} Holmas}{Brekke\ \BOthers {.}}{{\APACyear {2009}}}}
\bibcite{Brekke2011}{\citeauthoryear {Brekke, Holmas,{}\ \BBA{} Straume}{Brekke\ \BOthers {.}}{{\APACyear {2011}}}}
\APACbibcite{Brekke2011}{\citeauthoryear {Brekke, Holmas,{}\ \BBA{} Straume}{Brekke\ \BOthers {.}}{{\APACyear {2011}}}}
\bibcite{Clemens2014}{\citeauthoryear {Clemens\ \BBA{} Gottlieb}{Clemens\ \BBA{} Gottlieb}{{\APACyear {2014}}}}
\APACbibcite{Clemens2014}{\citeauthoryear {Clemens\ \BBA{} Gottlieb}{Clemens\ \BBA{} Gottlieb}{{\APACyear {2014}}}}
\bibcite{Departamento2012}{\citeauthoryear {{Departamento Nacional de Planeacion}}{{Departamento Nacional de Planeacion}}{{\APACyear {2012}}}}
\APACbibcite{Departamento2012}{\citeauthoryear {{Departamento Nacional de Planeacion}}{{Departamento Nacional de Planeacion}}{{\APACyear {2012}}}}
\bibcite{Duggan2010}{\citeauthoryear {Duggan\ \BBA{} Scott\nobreakspace  {}Morton}{Duggan\ \BBA{} Scott\nobreakspace  {}Morton}{{\APACyear {2010}}}}
\APACbibcite{Duggan2010}{\citeauthoryear {Duggan\ \BBA{} Scott\nobreakspace  {}Morton}{Duggan\ \BBA{} Scott\nobreakspace  {}Morton}{{\APACyear {2010}}}}
\bibcite{Duggan2006}{\citeauthoryear {Duggan\ \BBA{} Scott\nobreakspace  {}Morton}{Duggan\ \BBA{} Scott\nobreakspace  {}Morton}{{\APACyear {2006}}}}
\APACbibcite{Duggan2006}{\citeauthoryear {Duggan\ \BBA{} Scott\nobreakspace  {}Morton}{Duggan\ \BBA{} Scott\nobreakspace  {}Morton}{{\APACyear {2006}}}}
\bibcite{Gruber1996}{\citeauthoryear {Gruber\ \BBA{} Owings}{Gruber\ \BBA{} Owings}{{\APACyear {1996}}}}
\APACbibcite{Gruber1996}{\citeauthoryear {Gruber\ \BBA{} Owings}{Gruber\ \BBA{} Owings}{{\APACyear {1996}}}}
\bibcite{Iizuka2007}{\citeauthoryear {Iizuka}{Iizuka}{{\APACyear {2007}}}}
\APACbibcite{Iizuka2007}{\citeauthoryear {Iizuka}{Iizuka}{{\APACyear {2007}}}}
\bibcite{Iizuka2012}{\citeauthoryear {Iizuka}{Iizuka}{{\APACyear {2012}}}}
\APACbibcite{Iizuka2012}{\citeauthoryear {Iizuka}{Iizuka}{{\APACyear {2012}}}}
\bibcite{MSH2012}{\citeauthoryear {{Management Sciences for Health}}{{Management Sciences for Health}}{{\APACyear {2012}}}}
\APACbibcite{MSH2012}{\citeauthoryear {{Management Sciences for Health}}{{Management Sciences for Health}}{{\APACyear {2012}}}}
\bibcite{Shubik1980}{\citeauthoryear {Shubik\ \BBA{} Levitan}{Shubik\ \BBA{} Levitan}{{\APACyear {1980}}}}
\APACbibcite{Shubik1980}{\citeauthoryear {Shubik\ \BBA{} Levitan}{Shubik\ \BBA{} Levitan}{{\APACyear {1980}}}}
\bibcite{NYT2015c}{\citeauthoryear {{The New York Times}}{{The New York Times}}{{\APACyear {2015}}{\APACexlab {{\BCnt {1}}}}}}
\APACbibcite{NYT2015c}{\citeauthoryear {{The New York Times}}{{The New York Times}}{{\APACyear {2015}}{\APACexlab {{\BCnt {1}}}}}}
\bibcite{NYT2015}{\citeauthoryear {{The New York Times}}{{The New York Times}}{{\APACyear {2015}}{\APACexlab {{\BCnt {2}}}}}}
\APACbibcite{NYT2015}{\citeauthoryear {{The New York Times}}{{The New York Times}}{{\APACyear {2015}}{\APACexlab {{\BCnt {2}}}}}}
\bibcite{Vacca2011}{\citeauthoryear {Vacca, Acosta,{}\ \BBA{} Rodriguez}{Vacca\ \BOthers {.}}{{\APACyear {2011}}}}
\APACbibcite{Vacca2011}{\citeauthoryear {Vacca, Acosta,{}\ \BBA{} Rodriguez}{Vacca\ \BOthers {.}}{{\APACyear {2011}}}}
\@writefile{nav}{\headcommand {\sectionentry {6}{}{65}{}{0}}}
\@writefile{nav}{\headcommand {\beamer@sectionpages {61}{64}}}
\@writefile{nav}{\headcommand {\beamer@subsectionpages {61}{64}}}
\@writefile{toc}{\contentsline {section}{}}
\@writefile{nav}{\headcommand {\slideentry {6}{0}{0}{65/65}{}{0}}}
\@writefile{nav}{\headcommand {\beamer@framepages {65}{65}}}
\@writefile{nav}{\headcommand {\slideentry {6}{0}{0}{65/66}{}{0}}}
\@writefile{nav}{\headcommand {\beamer@framepages {65}{66}}}
\@writefile{nav}{\headcommand {\slideentry {6}{0}{0}{65/67}{}{0}}}
\@writefile{nav}{\headcommand {\beamer@framepages {65}{67}}}
\@writefile{nav}{\headcommand {\slideentry {6}{0}{0}{65/68}{}{0}}}
\@writefile{nav}{\headcommand {\beamer@framepages {65}{68}}}
\@writefile{nav}{\headcommand {\slideentry {6}{0}{0}{65/69}{}{0}}}
\@writefile{nav}{\headcommand {\beamer@framepages {65}{69}}}
\@writefile{nav}{\headcommand {\partentry {\translate  {Appendix}}{1}}}
\@writefile{nav}{\headcommand {\beamer@partpages {1}{69}}}
\@writefile{nav}{\headcommand {\beamer@sectionpages {61}{69}}}
\@writefile{nav}{\headcommand {\beamer@subsectionpages {61}{69}}}
\@writefile{nav}{\headcommand {\beamer@appendixpages {70}}}
\@writefile{toc}{\beamer@sectionintoc {7}{Extra slides: Pharmaceutical prices}{70}{1}{6}}
\@writefile{nav}{\headcommand {\sectionentry {7}{Extra slides: Pharmaceutical prices}{70}{Extra slides: Pharmaceutical prices}{1}}}
\@writefile{nav}{\headcommand {\beamer@sectionpages {70}{69}}}
\@writefile{nav}{\headcommand {\beamer@subsectionpages {70}{69}}}
\@writefile{nav}{\headcommand {\slideentry {7}{0}{1}{70/70}{}{1}}}
\@writefile{nav}{\headcommand {\beamer@framepages {70}{70}}}
\newlabel{sumstat<1>}{{39}{71}{Extra slides: Pharmaceutical prices}{Doc-Start}{}}
\@writefile{snm}{\beamer@slide {sumstat<1>}{71}}
\newlabel{sumstat}{{39}{71}{Extra slides: Pharmaceutical prices}{Doc-Start}{}}
\@writefile{snm}{\beamer@slide {sumstat}{71}}
\newlabel{tab:diff_charac}{{4}{71}{Difference between pharmaceuticals characteristics by how much price information is observed.\relax }{Doc-Start}{}}
\@writefile{snm}{\beamer@slide {tab:diff_charac}{71}}
\@writefile{nav}{\headcommand {\slideentry {7}{0}{2}{71/71}{}{1}}}
\@writefile{nav}{\headcommand {\beamer@framepages {71}{71}}}
\citation{Vacca2011}
\citation{Departamento2012}
\newlabel{problemsismed<1>}{{40}{72}{Extra slides: Pharmaceutical prices}{Doc-Start}{}}
\@writefile{snm}{\beamer@slide {problemsismed<1>}{72}}
\newlabel{problemsismed}{{40}{72}{Extra slides: Pharmaceutical prices}{Doc-Start}{}}
\@writefile{snm}{\beamer@slide {problemsismed}{72}}
\@writefile{nav}{\headcommand {\slideentry {7}{0}{3}{72/72}{}{1}}}
\@writefile{nav}{\headcommand {\beamer@framepages {72}{72}}}
\newlabel{reg_timing<1>}{{41}{73}{Extra slides: Pharmaceutical prices}{Doc-Start}{}}
\@writefile{snm}{\beamer@slide {reg_timing<1>}{73}}
\newlabel{reg_timing}{{41}{73}{Extra slides: Pharmaceutical prices}{Doc-Start}{}}
\@writefile{snm}{\beamer@slide {reg_timing}{73}}
\newlabel{tab:timing}{{5}{73}{Timing and other regulatory changes\relax }{Doc-Start}{}}
\@writefile{snm}{\beamer@slide {tab:timing}{73}}
\@writefile{nav}{\headcommand {\slideentry {7}{0}{4}{73/73}{}{1}}}
\@writefile{nav}{\headcommand {\beamer@framepages {73}{73}}}
\newlabel{reg_p<1>}{{42}{74}{Extra slides: Pharmaceutical prices}{Doc-Start}{}}
\@writefile{snm}{\beamer@slide {reg_p<1>}{74}}
\newlabel{reg_p}{{42}{74}{Extra slides: Pharmaceutical prices}{Doc-Start}{}}
\@writefile{snm}{\beamer@slide {reg_p}{74}}
\newlabel{tab:POS}{{6}{74}{Effect on a drug's price of including the drug to the benefit plan \relax }{Doc-Start}{}}
\@writefile{snm}{\beamer@slide {tab:POS}{74}}
\@writefile{nav}{\headcommand {\slideentry {7}{0}{5}{74/74}{}{1}}}
\@writefile{nav}{\headcommand {\beamer@framepages {74}{74}}}
\newlabel{reg_q<1>}{{43}{75}{Extra slides: Pharmaceutical prices}{Doc-Start}{}}
\@writefile{snm}{\beamer@slide {reg_q<1>}{75}}
\newlabel{reg_q}{{43}{75}{Extra slides: Pharmaceutical prices}{Doc-Start}{}}
\@writefile{snm}{\beamer@slide {reg_q}{75}}
\newlabel{tab:POS2}{{7}{75}{Effect of including a drug in the health plan on the quantities sold \relax }{Doc-Start}{}}
\@writefile{snm}{\beamer@slide {tab:POS2}{75}}
\@writefile{nav}{\headcommand {\slideentry {7}{0}{6}{75/75}{}{1}}}
\@writefile{nav}{\headcommand {\beamer@framepages {75}{75}}}
\newlabel{fig2011<1>}{{44}{76}{Extra slides: Pharmaceutical prices}{Doc-Start}{}}
\@writefile{snm}{\beamer@slide {fig2011<1>}{76}}
\newlabel{fig2011}{{44}{76}{Extra slides: Pharmaceutical prices}{Doc-Start}{}}
\@writefile{snm}{\beamer@slide {fig2011}{76}}
\newlabel{fig:eve_pos_price_2011}{{5}{76}{\tiny Event study for the effect of including a pharmaceutical in the POS on its price. \textit {Source:} SISMED and INVIMA. \textit {Calculations:} Author. \relax }{Doc-Start}{}}
\@writefile{snm}{\beamer@slide {fig:eve_pos_price_2011}{76}}
\@writefile{nav}{\headcommand {\slideentry {7}{0}{7}{76/76}{}{1}}}
\@writefile{nav}{\headcommand {\beamer@framepages {76}{76}}}
\newlabel{fig2012<1>}{{45}{77}{Extra slides: Pharmaceutical prices}{Doc-Start}{}}
\@writefile{snm}{\beamer@slide {fig2012<1>}{77}}
\newlabel{fig2012}{{45}{77}{Extra slides: Pharmaceutical prices}{Doc-Start}{}}
\@writefile{snm}{\beamer@slide {fig2012}{77}}
\newlabel{fig:eve_pos_price_2012}{{6}{77}{\tiny Event study for the effect of including a pharmaceutical in the POS on its price. \textit {Source:} SISMED and INVIMA. \textit {Calculations:} Author. \relax }{Doc-Start}{}}
\@writefile{snm}{\beamer@slide {fig:eve_pos_price_2012}{77}}
\@writefile{nav}{\headcommand {\slideentry {7}{0}{8}{77/77}{}{1}}}
\@writefile{nav}{\headcommand {\beamer@framepages {77}{77}}}
\newlabel{fig2011_q<1>}{{46}{78}{Extra slides: Pharmaceutical prices}{Doc-Start}{}}
\@writefile{snm}{\beamer@slide {fig2011_q<1>}{78}}
\newlabel{fig2011_q}{{46}{78}{Extra slides: Pharmaceutical prices}{Doc-Start}{}}
\@writefile{snm}{\beamer@slide {fig2011_q}{78}}
\newlabel{fig:eve_pos_quantity_2011}{{7}{78}{\tiny Event study for the effect of including a pharmaceutical in the POS on its price. \textit {Source:} SISMED and INVIMA. \textit {Calculations:} Author. \relax }{Doc-Start}{}}
\@writefile{snm}{\beamer@slide {fig:eve_pos_quantity_2011}{78}}
\@writefile{nav}{\headcommand {\slideentry {7}{0}{9}{78/78}{}{1}}}
\@writefile{nav}{\headcommand {\beamer@framepages {78}{78}}}
\newlabel{fig2012_q<1>}{{47}{79}{Extra slides: Pharmaceutical prices}{Doc-Start}{}}
\@writefile{snm}{\beamer@slide {fig2012_q<1>}{79}}
\newlabel{fig2012_q}{{47}{79}{Extra slides: Pharmaceutical prices}{Doc-Start}{}}
\@writefile{snm}{\beamer@slide {fig2012_q}{79}}
\newlabel{fig:eve_pos_quantity_2012}{{8}{79}{\tiny Event study for the effect of including a pharmaceutical in the POS on its price. \textit {Source:} SISMED and INVIMA. \textit {Calculations:} Author. \relax }{Doc-Start}{}}
\@writefile{snm}{\beamer@slide {fig:eve_pos_quantity_2012}{79}}
\@writefile{nav}{\headcommand {\slideentry {7}{0}{10}{79/79}{}{1}}}
\@writefile{nav}{\headcommand {\beamer@framepages {79}{79}}}
\newlabel{price_scale<1>}{{48}{80}{Extra slides: Pharmaceutical prices}{Doc-Start}{}}
\@writefile{snm}{\beamer@slide {price_scale<1>}{80}}
\newlabel{price_scale}{{48}{80}{Extra slides: Pharmaceutical prices}{Doc-Start}{}}
\@writefile{snm}{\beamer@slide {price_scale}{80}}
\newlabel{tab:POS_ROB2}{{8}{80}{Effect of including a drug in the health plan for locally produced vs. imported drugs \relax }{Doc-Start}{}}
\@writefile{snm}{\beamer@slide {tab:POS_ROB2}{80}}
\@writefile{nav}{\headcommand {\slideentry {7}{0}{11}{80/80}{}{1}}}
\@writefile{nav}{\headcommand {\beamer@framepages {80}{80}}}
\newlabel{price_competition<1>}{{49}{81}{Extra slides: Pharmaceutical prices}{Doc-Start}{}}
\@writefile{snm}{\beamer@slide {price_competition<1>}{81}}
\newlabel{price_competition}{{49}{81}{Extra slides: Pharmaceutical prices}{Doc-Start}{}}
\@writefile{snm}{\beamer@slide {price_competition}{81}}
\newlabel{tab:POS_ROB3}{{9}{81}{Effect of including a drug in the health plan by competition in the market \relax }{Doc-Start}{}}
\@writefile{snm}{\beamer@slide {tab:POS_ROB3}{81}}
\@writefile{nav}{\headcommand {\slideentry {7}{0}{12}{81/81}{}{1}}}
\@writefile{nav}{\headcommand {\beamer@framepages {81}{81}}}
\newlabel{price_otc<1>}{{50}{82}{Extra slides: Pharmaceutical prices}{Doc-Start}{}}
\@writefile{snm}{\beamer@slide {price_otc<1>}{82}}
\newlabel{price_otc}{{50}{82}{Extra slides: Pharmaceutical prices}{Doc-Start}{}}
\@writefile{snm}{\beamer@slide {price_otc}{82}}
\newlabel{tab:POS_ROB5}{{10}{82}{Effect of including a drug in the health plan by OTC/Rx status\relax }{Doc-Start}{}}
\@writefile{snm}{\beamer@slide {tab:POS_ROB5}{82}}
\@writefile{nav}{\headcommand {\slideentry {7}{0}{13}{82/82}{}{1}}}
\@writefile{nav}{\headcommand {\beamer@framepages {82}{82}}}
\newlabel{price_generic<1>}{{51}{83}{Extra slides: Pharmaceutical prices}{Doc-Start}{}}
\@writefile{snm}{\beamer@slide {price_generic<1>}{83}}
\newlabel{price_generic}{{51}{83}{Extra slides: Pharmaceutical prices}{Doc-Start}{}}
\@writefile{snm}{\beamer@slide {price_generic}{83}}
\newlabel{tab:POS_ROB6}{{11}{83}{Effect of including a drug in the health plan by generic competition\relax }{Doc-Start}{}}
\@writefile{snm}{\beamer@slide {tab:POS_ROB6}{83}}
\@writefile{nav}{\headcommand {\slideentry {7}{0}{14}{83/83}{}{1}}}
\@writefile{nav}{\headcommand {\beamer@framepages {83}{83}}}
\newlabel{years_mkt<1>}{{52}{84}{Extra slides: Pharmaceutical prices}{Doc-Start}{}}
\@writefile{snm}{\beamer@slide {years_mkt<1>}{84}}
\newlabel{years_mkt}{{52}{84}{Extra slides: Pharmaceutical prices}{Doc-Start}{}}
\@writefile{snm}{\beamer@slide {years_mkt}{84}}
\newlabel{tab:POS_ROB3}{{12}{84}{Effect of including a drug in the health plan by age\relax }{Doc-Start}{}}
\@writefile{snm}{\beamer@slide {tab:POS_ROB3}{84}}
\@writefile{nav}{\headcommand {\slideentry {7}{0}{15}{84/84}{}{1}}}
\@writefile{nav}{\headcommand {\beamer@framepages {84}{84}}}
\@writefile{nav}{\headcommand {\beamer@partpages {70}{84}}}
\@writefile{nav}{\headcommand {\beamer@subsectionpages {70}{84}}}
\@writefile{nav}{\headcommand {\beamer@sectionpages {70}{84}}}
\@writefile{nav}{\headcommand {\beamer@documentpages {84}}}
\@writefile{nav}{\headcommand {\def \inserttotalframenumber {52}}}
\zref@newlabel{LastPage}{\default{7}\page{84}\abspage{84}}
