\BOOKMARK [2][]{Outline0.1}{Motivation}{}% 1
\BOOKMARK [2][]{Outline0.2}{Background}{}% 2
\BOOKMARK [2][]{Outline0.3}{Data}{}% 3
\BOOKMARK [2][]{Outline0.4}{Empirical Analysis}{}% 4
\BOOKMARK [2][]{Outline0.5}{Effect on price paid by pharmacies}{}% 5
\BOOKMARK [2][]{Outline0.6}{Conclusions}{}% 6
\BOOKMARK [2][]{Outline0.7}{Next Steps}{}% 7
