\beamer@endinputifotherversion {3.36pt}
\beamer@sectionintoc {1}{Motivation}{2}{0}{1}
\beamer@sectionintoc {2}{Background}{15}{0}{2}
\beamer@sectionintoc {3}{Theory}{19}{0}{3}
\beamer@sectionintoc {4}{Empirics}{28}{0}{4}
\beamer@sectionintoc {5}{Closing remarks}{41}{0}{5}
\contentsline {section}{}
\beamer@sectionintoc {7}{Extra slides: Pharmaceutical prices}{49}{1}{6}
