\BOOKMARK [2][]{Outline0.1}{Motivation}{}% 1
\BOOKMARK [2][]{Outline0.2}{Background}{}% 2
\BOOKMARK [2][]{Outline0.3}{Theory}{}% 3
\BOOKMARK [2][]{Outline0.4}{Empirics}{}% 4
\BOOKMARK [2][]{Outline0.5}{Closing remarks}{}% 5
\BOOKMARK [1][]{Outline1}{Appendix}{}% 6
\BOOKMARK [2][]{Outline1.7}{Extra slides: Pharmaceutical prices}{Outline1}% 7
