\relax 
\providecommand\hyper@newdestlabel[2]{}
\providecommand\HyperFirstAtBeginDocument{\AtBeginDocument}
\HyperFirstAtBeginDocument{\ifx\hyper@anchor\@undefined
\global\let\oldcontentsline\contentsline
\gdef\contentsline#1#2#3#4{\oldcontentsline{#1}{#2}{#3}}
\global\let\oldnewlabel\newlabel
\gdef\newlabel#1#2{\newlabelxx{#1}#2}
\gdef\newlabelxx#1#2#3#4#5#6{\oldnewlabel{#1}{{#2}{#3}}}
\AtEndDocument{\ifx\hyper@anchor\@undefined
\let\contentsline\oldcontentsline
\let\newlabel\oldnewlabel
\fi}
\fi}
\global\let\hyper@last\relax 
\gdef\HyperFirstAtBeginDocument#1{#1}
\providecommand\HyField@AuxAddToFields[1]{}
\providecommand\HyField@AuxAddToCoFields[2]{}
\select@language{english}
\@writefile{toc}{\select@language{english}}
\@writefile{lof}{\select@language{english}}
\@writefile{lot}{\select@language{english}}
\@writefile{toc}{\contentsline {section}{\numberline {1}Theory 1: From Duggan and Scott Morton NBER working paper}{1}{section.1}}
\@writefile{toc}{\contentsline {section}{\numberline {2}Theory 2}{3}{section.2}}
\@writefile{toc}{\contentsline {section}{\numberline {3}Theory 3: La tercera es la vencida}{7}{section.3}}
\@writefile{toc}{\contentsline {section}{\numberline {4}Theory 4}{9}{section.4}}
\@writefile{toc}{\contentsline {section}{\numberline {5}Theory}{9}{section.5}}
\@writefile{toc}{\contentsline {subsection}{\numberline {5.1}Basic Model}{9}{subsection.5.1}}
\@writefile{toc}{\contentsline {subsection}{\numberline {5.2}Comparative statics}{11}{subsection.5.2}}
\@writefile{toc}{\contentsline {subsection}{\numberline {5.3}Simples cases}{12}{subsection.5.3}}
\@writefile{toc}{\contentsline {subsubsection}{\numberline {5.3.1}All pharmaceuticals are in the benefit plan: $M_1=N$}{12}{subsubsection.5.3.1}}
\citation{Frank1992}
\@writefile{toc}{\contentsline {subsubsection}{\numberline {5.3.2}All pharmaceuticals are not in the benefit plan: $M_1=0$}{13}{subsubsection.5.3.2}}
\@writefile{toc}{\contentsline {subsubsection}{\numberline {5.3.3}Only one pharmaceutical is in the benefit plan: $M_1=1$}{13}{subsubsection.5.3.3}}
\@writefile{toc}{\contentsline {section}{\numberline {6}Theory}{13}{section.6}}
\bibdata{}
\@writefile{toc}{\contentsline {section}{\numberline {7}Super simplified version}{14}{section.7}}
